%!PS-Adobe-2.0 EPSF-2.0
%%Title: Plot.tex
%%Creator: gnuplot 4.6 patchlevel 4
%%CreationDate: Wed Sep 16 17:13:48 2015
%%DocumentFonts: 
%%BoundingBox: 50 50 770 410
%%EndComments
%%BeginProlog
/gnudict 256 dict def
gnudict begin
%
% The following true/false flags may be edited by hand if desired.
% The unit line width and grayscale image gamma correction may also be changed.
%
/Color true def
/Blacktext false def
/Solid true def
/Dashlength 1 def
/Landscape false def
/Level1 false def
/Rounded false def
/ClipToBoundingBox false def
/SuppressPDFMark false def
/TransparentPatterns false def
/gnulinewidth 5.000 def
/userlinewidth gnulinewidth def
/Gamma 1.0 def
/BackgroundColor {-1.000 -1.000 -1.000} def
%
/vshift -73 def
/dl1 {
  10.0 Dashlength mul mul
  Rounded { currentlinewidth 0.75 mul sub dup 0 le { pop 0.01 } if } if
} def
/dl2 {
  10.0 Dashlength mul mul
  Rounded { currentlinewidth 0.75 mul add } if
} def
/hpt_ 31.5 def
/vpt_ 31.5 def
/hpt hpt_ def
/vpt vpt_ def
/doclip {
  ClipToBoundingBox {
    newpath 50 50 moveto 770 50 lineto 770 410 lineto 50 410 lineto closepath
    clip
  } if
} def
%
% Gnuplot Prolog Version 4.6 (September 2012)
%
%/SuppressPDFMark true def
%
/M {moveto} bind def
/L {lineto} bind def
/R {rmoveto} bind def
/V {rlineto} bind def
/N {newpath moveto} bind def
/Z {closepath} bind def
/C {setrgbcolor} bind def
/f {rlineto fill} bind def
/g {setgray} bind def
/Gshow {show} def   % May be redefined later in the file to support UTF-8
/vpt2 vpt 2 mul def
/hpt2 hpt 2 mul def
/Lshow {currentpoint stroke M 0 vshift R 
	Blacktext {gsave 0 setgray show grestore} {show} ifelse} def
/Rshow {currentpoint stroke M dup stringwidth pop neg vshift R
	Blacktext {gsave 0 setgray show grestore} {show} ifelse} def
/Cshow {currentpoint stroke M dup stringwidth pop -2 div vshift R 
	Blacktext {gsave 0 setgray show grestore} {show} ifelse} def
/UP {dup vpt_ mul /vpt exch def hpt_ mul /hpt exch def
  /hpt2 hpt 2 mul def /vpt2 vpt 2 mul def} def
/DL {Color {setrgbcolor Solid {pop []} if 0 setdash}
 {pop pop pop 0 setgray Solid {pop []} if 0 setdash} ifelse} def
/BL {stroke userlinewidth 2 mul setlinewidth
	Rounded {1 setlinejoin 1 setlinecap} if} def
/AL {stroke userlinewidth 2 div setlinewidth
	Rounded {1 setlinejoin 1 setlinecap} if} def
/UL {dup gnulinewidth mul /userlinewidth exch def
	dup 1 lt {pop 1} if 10 mul /udl exch def} def
/PL {stroke userlinewidth setlinewidth
	Rounded {1 setlinejoin 1 setlinecap} if} def
3.8 setmiterlimit
% Default Line colors
/LCw {1 1 1} def
/LCb {0 0 0} def
/LCa {0 0 0} def
/LC0 {1 0 0} def
/LC1 {0 1 0} def
/LC2 {0 0 1} def
/LC3 {1 0 1} def
/LC4 {0 1 1} def
/LC5 {1 1 0} def
/LC6 {0 0 0} def
/LC7 {1 0.3 0} def
/LC8 {0.5 0.5 0.5} def
% Default Line Types
/LTw {PL [] 1 setgray} def
/LTb {BL [] LCb DL} def
/LTa {AL [1 udl mul 2 udl mul] 0 setdash LCa setrgbcolor} def
/LT0 {PL [] LC0 DL} def
/LT1 {PL [4 dl1 2 dl2] LC1 DL} def
/LT2 {PL [2 dl1 3 dl2] LC2 DL} def
/LT3 {PL [1 dl1 1.5 dl2] LC3 DL} def
/LT4 {PL [6 dl1 2 dl2 1 dl1 2 dl2] LC4 DL} def
/LT5 {PL [3 dl1 3 dl2 1 dl1 3 dl2] LC5 DL} def
/LT6 {PL [2 dl1 2 dl2 2 dl1 6 dl2] LC6 DL} def
/LT7 {PL [1 dl1 2 dl2 6 dl1 2 dl2 1 dl1 2 dl2] LC7 DL} def
/LT8 {PL [2 dl1 2 dl2 2 dl1 2 dl2 2 dl1 2 dl2 2 dl1 4 dl2] LC8 DL} def
/Pnt {stroke [] 0 setdash gsave 1 setlinecap M 0 0 V stroke grestore} def
/Dia {stroke [] 0 setdash 2 copy vpt add M
  hpt neg vpt neg V hpt vpt neg V
  hpt vpt V hpt neg vpt V closepath stroke
  Pnt} def
/Pls {stroke [] 0 setdash vpt sub M 0 vpt2 V
  currentpoint stroke M
  hpt neg vpt neg R hpt2 0 V stroke
 } def
/Box {stroke [] 0 setdash 2 copy exch hpt sub exch vpt add M
  0 vpt2 neg V hpt2 0 V 0 vpt2 V
  hpt2 neg 0 V closepath stroke
  Pnt} def
/Crs {stroke [] 0 setdash exch hpt sub exch vpt add M
  hpt2 vpt2 neg V currentpoint stroke M
  hpt2 neg 0 R hpt2 vpt2 V stroke} def
/TriU {stroke [] 0 setdash 2 copy vpt 1.12 mul add M
  hpt neg vpt -1.62 mul V
  hpt 2 mul 0 V
  hpt neg vpt 1.62 mul V closepath stroke
  Pnt} def
/Star {2 copy Pls Crs} def
/BoxF {stroke [] 0 setdash exch hpt sub exch vpt add M
  0 vpt2 neg V hpt2 0 V 0 vpt2 V
  hpt2 neg 0 V closepath fill} def
/TriUF {stroke [] 0 setdash vpt 1.12 mul add M
  hpt neg vpt -1.62 mul V
  hpt 2 mul 0 V
  hpt neg vpt 1.62 mul V closepath fill} def
/TriD {stroke [] 0 setdash 2 copy vpt 1.12 mul sub M
  hpt neg vpt 1.62 mul V
  hpt 2 mul 0 V
  hpt neg vpt -1.62 mul V closepath stroke
  Pnt} def
/TriDF {stroke [] 0 setdash vpt 1.12 mul sub M
  hpt neg vpt 1.62 mul V
  hpt 2 mul 0 V
  hpt neg vpt -1.62 mul V closepath fill} def
/DiaF {stroke [] 0 setdash vpt add M
  hpt neg vpt neg V hpt vpt neg V
  hpt vpt V hpt neg vpt V closepath fill} def
/Pent {stroke [] 0 setdash 2 copy gsave
  translate 0 hpt M 4 {72 rotate 0 hpt L} repeat
  closepath stroke grestore Pnt} def
/PentF {stroke [] 0 setdash gsave
  translate 0 hpt M 4 {72 rotate 0 hpt L} repeat
  closepath fill grestore} def
/Circle {stroke [] 0 setdash 2 copy
  hpt 0 360 arc stroke Pnt} def
/CircleF {stroke [] 0 setdash hpt 0 360 arc fill} def
/C0 {BL [] 0 setdash 2 copy moveto vpt 90 450 arc} bind def
/C1 {BL [] 0 setdash 2 copy moveto
	2 copy vpt 0 90 arc closepath fill
	vpt 0 360 arc closepath} bind def
/C2 {BL [] 0 setdash 2 copy moveto
	2 copy vpt 90 180 arc closepath fill
	vpt 0 360 arc closepath} bind def
/C3 {BL [] 0 setdash 2 copy moveto
	2 copy vpt 0 180 arc closepath fill
	vpt 0 360 arc closepath} bind def
/C4 {BL [] 0 setdash 2 copy moveto
	2 copy vpt 180 270 arc closepath fill
	vpt 0 360 arc closepath} bind def
/C5 {BL [] 0 setdash 2 copy moveto
	2 copy vpt 0 90 arc
	2 copy moveto
	2 copy vpt 180 270 arc closepath fill
	vpt 0 360 arc} bind def
/C6 {BL [] 0 setdash 2 copy moveto
	2 copy vpt 90 270 arc closepath fill
	vpt 0 360 arc closepath} bind def
/C7 {BL [] 0 setdash 2 copy moveto
	2 copy vpt 0 270 arc closepath fill
	vpt 0 360 arc closepath} bind def
/C8 {BL [] 0 setdash 2 copy moveto
	2 copy vpt 270 360 arc closepath fill
	vpt 0 360 arc closepath} bind def
/C9 {BL [] 0 setdash 2 copy moveto
	2 copy vpt 270 450 arc closepath fill
	vpt 0 360 arc closepath} bind def
/C10 {BL [] 0 setdash 2 copy 2 copy moveto vpt 270 360 arc closepath fill
	2 copy moveto
	2 copy vpt 90 180 arc closepath fill
	vpt 0 360 arc closepath} bind def
/C11 {BL [] 0 setdash 2 copy moveto
	2 copy vpt 0 180 arc closepath fill
	2 copy moveto
	2 copy vpt 270 360 arc closepath fill
	vpt 0 360 arc closepath} bind def
/C12 {BL [] 0 setdash 2 copy moveto
	2 copy vpt 180 360 arc closepath fill
	vpt 0 360 arc closepath} bind def
/C13 {BL [] 0 setdash 2 copy moveto
	2 copy vpt 0 90 arc closepath fill
	2 copy moveto
	2 copy vpt 180 360 arc closepath fill
	vpt 0 360 arc closepath} bind def
/C14 {BL [] 0 setdash 2 copy moveto
	2 copy vpt 90 360 arc closepath fill
	vpt 0 360 arc} bind def
/C15 {BL [] 0 setdash 2 copy vpt 0 360 arc closepath fill
	vpt 0 360 arc closepath} bind def
/Rec {newpath 4 2 roll moveto 1 index 0 rlineto 0 exch rlineto
	neg 0 rlineto closepath} bind def
/Square {dup Rec} bind def
/Bsquare {vpt sub exch vpt sub exch vpt2 Square} bind def
/S0 {BL [] 0 setdash 2 copy moveto 0 vpt rlineto BL Bsquare} bind def
/S1 {BL [] 0 setdash 2 copy vpt Square fill Bsquare} bind def
/S2 {BL [] 0 setdash 2 copy exch vpt sub exch vpt Square fill Bsquare} bind def
/S3 {BL [] 0 setdash 2 copy exch vpt sub exch vpt2 vpt Rec fill Bsquare} bind def
/S4 {BL [] 0 setdash 2 copy exch vpt sub exch vpt sub vpt Square fill Bsquare} bind def
/S5 {BL [] 0 setdash 2 copy 2 copy vpt Square fill
	exch vpt sub exch vpt sub vpt Square fill Bsquare} bind def
/S6 {BL [] 0 setdash 2 copy exch vpt sub exch vpt sub vpt vpt2 Rec fill Bsquare} bind def
/S7 {BL [] 0 setdash 2 copy exch vpt sub exch vpt sub vpt vpt2 Rec fill
	2 copy vpt Square fill Bsquare} bind def
/S8 {BL [] 0 setdash 2 copy vpt sub vpt Square fill Bsquare} bind def
/S9 {BL [] 0 setdash 2 copy vpt sub vpt vpt2 Rec fill Bsquare} bind def
/S10 {BL [] 0 setdash 2 copy vpt sub vpt Square fill 2 copy exch vpt sub exch vpt Square fill
	Bsquare} bind def
/S11 {BL [] 0 setdash 2 copy vpt sub vpt Square fill 2 copy exch vpt sub exch vpt2 vpt Rec fill
	Bsquare} bind def
/S12 {BL [] 0 setdash 2 copy exch vpt sub exch vpt sub vpt2 vpt Rec fill Bsquare} bind def
/S13 {BL [] 0 setdash 2 copy exch vpt sub exch vpt sub vpt2 vpt Rec fill
	2 copy vpt Square fill Bsquare} bind def
/S14 {BL [] 0 setdash 2 copy exch vpt sub exch vpt sub vpt2 vpt Rec fill
	2 copy exch vpt sub exch vpt Square fill Bsquare} bind def
/S15 {BL [] 0 setdash 2 copy Bsquare fill Bsquare} bind def
/D0 {gsave translate 45 rotate 0 0 S0 stroke grestore} bind def
/D1 {gsave translate 45 rotate 0 0 S1 stroke grestore} bind def
/D2 {gsave translate 45 rotate 0 0 S2 stroke grestore} bind def
/D3 {gsave translate 45 rotate 0 0 S3 stroke grestore} bind def
/D4 {gsave translate 45 rotate 0 0 S4 stroke grestore} bind def
/D5 {gsave translate 45 rotate 0 0 S5 stroke grestore} bind def
/D6 {gsave translate 45 rotate 0 0 S6 stroke grestore} bind def
/D7 {gsave translate 45 rotate 0 0 S7 stroke grestore} bind def
/D8 {gsave translate 45 rotate 0 0 S8 stroke grestore} bind def
/D9 {gsave translate 45 rotate 0 0 S9 stroke grestore} bind def
/D10 {gsave translate 45 rotate 0 0 S10 stroke grestore} bind def
/D11 {gsave translate 45 rotate 0 0 S11 stroke grestore} bind def
/D12 {gsave translate 45 rotate 0 0 S12 stroke grestore} bind def
/D13 {gsave translate 45 rotate 0 0 S13 stroke grestore} bind def
/D14 {gsave translate 45 rotate 0 0 S14 stroke grestore} bind def
/D15 {gsave translate 45 rotate 0 0 S15 stroke grestore} bind def
/DiaE {stroke [] 0 setdash vpt add M
  hpt neg vpt neg V hpt vpt neg V
  hpt vpt V hpt neg vpt V closepath stroke} def
/BoxE {stroke [] 0 setdash exch hpt sub exch vpt add M
  0 vpt2 neg V hpt2 0 V 0 vpt2 V
  hpt2 neg 0 V closepath stroke} def
/TriUE {stroke [] 0 setdash vpt 1.12 mul add M
  hpt neg vpt -1.62 mul V
  hpt 2 mul 0 V
  hpt neg vpt 1.62 mul V closepath stroke} def
/TriDE {stroke [] 0 setdash vpt 1.12 mul sub M
  hpt neg vpt 1.62 mul V
  hpt 2 mul 0 V
  hpt neg vpt -1.62 mul V closepath stroke} def
/PentE {stroke [] 0 setdash gsave
  translate 0 hpt M 4 {72 rotate 0 hpt L} repeat
  closepath stroke grestore} def
/CircE {stroke [] 0 setdash 
  hpt 0 360 arc stroke} def
/Opaque {gsave closepath 1 setgray fill grestore 0 setgray closepath} def
/DiaW {stroke [] 0 setdash vpt add M
  hpt neg vpt neg V hpt vpt neg V
  hpt vpt V hpt neg vpt V Opaque stroke} def
/BoxW {stroke [] 0 setdash exch hpt sub exch vpt add M
  0 vpt2 neg V hpt2 0 V 0 vpt2 V
  hpt2 neg 0 V Opaque stroke} def
/TriUW {stroke [] 0 setdash vpt 1.12 mul add M
  hpt neg vpt -1.62 mul V
  hpt 2 mul 0 V
  hpt neg vpt 1.62 mul V Opaque stroke} def
/TriDW {stroke [] 0 setdash vpt 1.12 mul sub M
  hpt neg vpt 1.62 mul V
  hpt 2 mul 0 V
  hpt neg vpt -1.62 mul V Opaque stroke} def
/PentW {stroke [] 0 setdash gsave
  translate 0 hpt M 4 {72 rotate 0 hpt L} repeat
  Opaque stroke grestore} def
/CircW {stroke [] 0 setdash 
  hpt 0 360 arc Opaque stroke} def
/BoxFill {gsave Rec 1 setgray fill grestore} def
/Density {
  /Fillden exch def
  currentrgbcolor
  /ColB exch def /ColG exch def /ColR exch def
  /ColR ColR Fillden mul Fillden sub 1 add def
  /ColG ColG Fillden mul Fillden sub 1 add def
  /ColB ColB Fillden mul Fillden sub 1 add def
  ColR ColG ColB setrgbcolor} def
/BoxColFill {gsave Rec PolyFill} def
/PolyFill {gsave Density fill grestore grestore} def
/h {rlineto rlineto rlineto gsave closepath fill grestore} bind def
%
% PostScript Level 1 Pattern Fill routine for rectangles
% Usage: x y w h s a XX PatternFill
%	x,y = lower left corner of box to be filled
%	w,h = width and height of box
%	  a = angle in degrees between lines and x-axis
%	 XX = 0/1 for no/yes cross-hatch
%
/PatternFill {gsave /PFa [ 9 2 roll ] def
  PFa 0 get PFa 2 get 2 div add PFa 1 get PFa 3 get 2 div add translate
  PFa 2 get -2 div PFa 3 get -2 div PFa 2 get PFa 3 get Rec
  TransparentPatterns {} {gsave 1 setgray fill grestore} ifelse
  clip
  currentlinewidth 0.5 mul setlinewidth
  /PFs PFa 2 get dup mul PFa 3 get dup mul add sqrt def
  0 0 M PFa 5 get rotate PFs -2 div dup translate
  0 1 PFs PFa 4 get div 1 add floor cvi
	{PFa 4 get mul 0 M 0 PFs V} for
  0 PFa 6 get ne {
	0 1 PFs PFa 4 get div 1 add floor cvi
	{PFa 4 get mul 0 2 1 roll M PFs 0 V} for
 } if
  stroke grestore} def
%
/languagelevel where
 {pop languagelevel} {1} ifelse
 2 lt
	{/InterpretLevel1 true def}
	{/InterpretLevel1 Level1 def}
 ifelse
%
% PostScript level 2 pattern fill definitions
%
/Level2PatternFill {
/Tile8x8 {/PaintType 2 /PatternType 1 /TilingType 1 /BBox [0 0 8 8] /XStep 8 /YStep 8}
	bind def
/KeepColor {currentrgbcolor [/Pattern /DeviceRGB] setcolorspace} bind def
<< Tile8x8
 /PaintProc {0.5 setlinewidth pop 0 0 M 8 8 L 0 8 M 8 0 L stroke} 
>> matrix makepattern
/Pat1 exch def
<< Tile8x8
 /PaintProc {0.5 setlinewidth pop 0 0 M 8 8 L 0 8 M 8 0 L stroke
	0 4 M 4 8 L 8 4 L 4 0 L 0 4 L stroke}
>> matrix makepattern
/Pat2 exch def
<< Tile8x8
 /PaintProc {0.5 setlinewidth pop 0 0 M 0 8 L
	8 8 L 8 0 L 0 0 L fill}
>> matrix makepattern
/Pat3 exch def
<< Tile8x8
 /PaintProc {0.5 setlinewidth pop -4 8 M 8 -4 L
	0 12 M 12 0 L stroke}
>> matrix makepattern
/Pat4 exch def
<< Tile8x8
 /PaintProc {0.5 setlinewidth pop -4 0 M 8 12 L
	0 -4 M 12 8 L stroke}
>> matrix makepattern
/Pat5 exch def
<< Tile8x8
 /PaintProc {0.5 setlinewidth pop -2 8 M 4 -4 L
	0 12 M 8 -4 L 4 12 M 10 0 L stroke}
>> matrix makepattern
/Pat6 exch def
<< Tile8x8
 /PaintProc {0.5 setlinewidth pop -2 0 M 4 12 L
	0 -4 M 8 12 L 4 -4 M 10 8 L stroke}
>> matrix makepattern
/Pat7 exch def
<< Tile8x8
 /PaintProc {0.5 setlinewidth pop 8 -2 M -4 4 L
	12 0 M -4 8 L 12 4 M 0 10 L stroke}
>> matrix makepattern
/Pat8 exch def
<< Tile8x8
 /PaintProc {0.5 setlinewidth pop 0 -2 M 12 4 L
	-4 0 M 12 8 L -4 4 M 8 10 L stroke}
>> matrix makepattern
/Pat9 exch def
/Pattern1 {PatternBgnd KeepColor Pat1 setpattern} bind def
/Pattern2 {PatternBgnd KeepColor Pat2 setpattern} bind def
/Pattern3 {PatternBgnd KeepColor Pat3 setpattern} bind def
/Pattern4 {PatternBgnd KeepColor Landscape {Pat5} {Pat4} ifelse setpattern} bind def
/Pattern5 {PatternBgnd KeepColor Landscape {Pat4} {Pat5} ifelse setpattern} bind def
/Pattern6 {PatternBgnd KeepColor Landscape {Pat9} {Pat6} ifelse setpattern} bind def
/Pattern7 {PatternBgnd KeepColor Landscape {Pat8} {Pat7} ifelse setpattern} bind def
} def
%
%
%End of PostScript Level 2 code
%
/PatternBgnd {
  TransparentPatterns {} {gsave 1 setgray fill grestore} ifelse
} def
%
% Substitute for Level 2 pattern fill codes with
% grayscale if Level 2 support is not selected.
%
/Level1PatternFill {
/Pattern1 {0.250 Density} bind def
/Pattern2 {0.500 Density} bind def
/Pattern3 {0.750 Density} bind def
/Pattern4 {0.125 Density} bind def
/Pattern5 {0.375 Density} bind def
/Pattern6 {0.625 Density} bind def
/Pattern7 {0.875 Density} bind def
} def
%
% Now test for support of Level 2 code
%
Level1 {Level1PatternFill} {Level2PatternFill} ifelse
%
/Symbol-Oblique /Symbol findfont [1 0 .167 1 0 0] makefont
dup length dict begin {1 index /FID eq {pop pop} {def} ifelse} forall
currentdict end definefont pop
Level1 SuppressPDFMark or 
{} {
/SDict 10 dict def
systemdict /pdfmark known not {
  userdict /pdfmark systemdict /cleartomark get put
} if
SDict begin [
  /Title (Plot.tex)
  /Subject (gnuplot plot)
  /Creator (gnuplot 4.6 patchlevel 4)
  /Author (arindam)
%  /Producer (gnuplot)
%  /Keywords ()
  /CreationDate (Wed Sep 16 17:13:48 2015)
  /DOCINFO pdfmark
end
} ifelse
end
%%EndProlog
%%Page: 1 1
gnudict begin
gsave
doclip
50 50 translate
0.050 0.050 scale
0 setgray
newpath
1.000 UL
LTb
LCb setrgbcolor
1210 704 M
63 0 V
12730 0 R
-63 0 V
stroke
LTb
1210 1288 M
63 0 V
12730 0 R
-63 0 V
1210 1871 M
63 0 V
12730 0 R
-63 0 V
1210 2455 M
63 0 V
12730 0 R
-63 0 V
1210 3038 M
63 0 V
12730 0 R
-63 0 V
1210 3622 M
63 0 V
12730 0 R
-63 0 V
1210 4205 M
63 0 V
12730 0 R
-63 0 V
1210 4789 M
63 0 V
12730 0 R
-63 0 V
1210 5372 M
63 0 V
12730 0 R
-63 0 V
1210 5955 M
63 0 V
12730 0 R
-63 0 V
1210 6539 M
63 0 V
12730 0 R
-63 0 V
1210 704 M
0 63 V
0 5772 R
0 -63 V
2489 704 M
0 63 V
0 5772 R
0 -63 V
3769 704 M
0 63 V
0 5772 R
0 -63 V
5048 704 M
0 63 V
0 5772 R
0 -63 V
6327 704 M
0 63 V
0 5772 R
0 -63 V
7607 704 M
0 63 V
0 5772 R
0 -63 V
8886 704 M
0 63 V
0 5772 R
0 -63 V
10165 704 M
0 63 V
0 5772 R
0 -63 V
11444 704 M
0 63 V
0 5772 R
0 -63 V
12724 704 M
0 63 V
0 5772 R
0 -63 V
14003 704 M
0 63 V
0 5772 R
0 -63 V
stroke
1210 6539 N
0 -5835 V
12793 0 V
0 5835 V
-12793 0 V
Z stroke
1.000 UP
1.000 UL
LTb
1.000 UL
LT2
LC2 setrgbcolor
1210 1184 M
3 1 V
2 2 V
3 1 V
2 3 V
3 3 V
2 3 V
3 4 V
2 4 V
3 4 V
3 5 V
2 6 V
3 5 V
2 6 V
3 7 V
2 6 V
3 7 V
2 8 V
3 7 V
3 8 V
2 8 V
3 8 V
2 8 V
3 9 V
2 9 V
3 8 V
3 9 V
2 9 V
3 9 V
2 9 V
3 9 V
2 9 V
3 10 V
2 9 V
3 9 V
3 9 V
2 9 V
3 8 V
2 9 V
3 9 V
2 8 V
3 9 V
2 8 V
3 8 V
3 8 V
2 7 V
3 8 V
2 7 V
3 7 V
2 7 V
3 7 V
2 6 V
3 7 V
3 6 V
2 5 V
3 6 V
2 5 V
3 5 V
2 5 V
3 4 V
3 4 V
2 4 V
3 4 V
2 3 V
3 3 V
2 3 V
3 3 V
2 2 V
3 2 V
3 2 V
2 2 V
3 1 V
2 1 V
3 1 V
2 0 V
3 0 V
2 0 V
3 0 V
3 0 V
2 -1 V
3 -1 V
2 -1 V
3 -1 V
2 -2 V
3 -1 V
2 -2 V
3 -2 V
3 -3 V
2 -2 V
3 -3 V
2 -3 V
3 -3 V
2 -3 V
3 -3 V
3 -4 V
2 -3 V
3 -4 V
2 -4 V
3 -4 V
2 -4 V
3 -4 V
2 -5 V
3 -4 V
3 -5 V
2 -4 V
stroke 1476 1542 M
3 -5 V
2 -5 V
3 -5 V
2 -5 V
3 -5 V
2 -5 V
3 -5 V
3 -5 V
2 -5 V
3 -5 V
2 -5 V
3 -6 V
2 -5 V
3 -5 V
2 -5 V
3 -6 V
3 -5 V
2 -5 V
3 -6 V
2 -5 V
3 -5 V
2 -5 V
3 -5 V
3 -6 V
2 -5 V
3 -5 V
2 -5 V
3 -5 V
2 -4 V
3 -5 V
2 -5 V
3 -5 V
3 -4 V
2 -5 V
3 -4 V
2 -4 V
3 -4 V
2 -4 V
3 -4 V
2 -4 V
3 -4 V
3 -4 V
2 -3 V
3 -3 V
2 -4 V
3 -3 V
2 -3 V
3 -2 V
2 -3 V
3 -2 V
3 -3 V
2 -2 V
3 -1 V
2 -2 V
3 -2 V
2 -1 V
3 -1 V
2 -1 V
3 -1 V
3 0 V
2 0 V
3 0 V
2 0 V
3 1 V
2 1 V
3 1 V
3 1 V
2 2 V
3 2 V
2 2 V
3 3 V
2 3 V
3 4 V
2 4 V
3 4 V
3 5 V
2 5 V
3 6 V
2 6 V
3 7 V
2 8 V
3 8 V
2 9 V
3 9 V
3 10 V
2 11 V
3 12 V
2 13 V
3 13 V
2 15 V
3 16 V
2 17 V
3 18 V
3 19 V
2 21 V
3 23 V
2 25 V
3 26 V
2 28 V
3 31 V
3 33 V
2 36 V
3 38 V
2 42 V
stroke 1742 1839 M
3 45 V
2 50 V
3 53 V
2 58 V
3 63 V
3 68 V
2 75 V
3 82 V
2 88 V
3 97 V
2 105 V
3 115 V
2 124 V
3 134 V
3 145 V
2 156 V
3 165 V
2 174 V
3 181 V
2 187 V
3 189 V
2 189 V
3 186 V
3 180 V
2 171 V
3 162 V
2 149 V
3 137 V
2 124 V
3 111 V
3 98 V
2 85 V
3 73 V
2 62 V
3 50 V
2 41 V
3 30 V
2 21 V
3 13 V
3 5 V
2 -3 V
3 -10 V
2 -16 V
3 -23 V
2 -27 V
3 -33 V
2 -38 V
3 -42 V
3 -46 V
2 -50 V
3 -53 V
2 -57 V
3 -59 V
2 -61 V
3 -64 V
2 -66 V
3 -68 V
3 -69 V
2 -71 V
3 -72 V
2 -73 V
3 -75 V
2 -75 V
3 -75 V
2 -76 V
3 -77 V
3 -77 V
2 -77 V
3 -77 V
2 -77 V
3 -77 V
2 -76 V
3 -76 V
3 -76 V
2 -76 V
3 -75 V
2 -74 V
3 -74 V
2 -73 V
3 -73 V
2 -71 V
3 -71 V
3 -70 V
2 -69 V
3 -68 V
2 -67 V
3 -65 V
2 -65 V
3 -64 V
2 -63 V
3 -62 V
3 -60 V
2 -59 V
3 -59 V
2 -57 V
3 -56 V
2 -54 V
3 -54 V
2 -52 V
3 -51 V
3 -50 V
2 -48 V
3 -48 V
2 -46 V
stroke 2008 2214 M
3 -45 V
2 -44 V
3 -43 V
3 -41 V
2 -41 V
3 -39 V
2 -38 V
3 -37 V
2 -35 V
3 -35 V
2 -34 V
3 -32 V
3 -31 V
2 -31 V
3 -29 V
2 -28 V
3 -27 V
2 -27 V
3 -25 V
2 -24 V
3 -23 V
3 -22 V
2 -22 V
3 -20 V
2 -20 V
3 -18 V
2 -18 V
3 -17 V
2 -16 V
3 -16 V
3 -14 V
2 -14 V
3 -12 V
2 -13 V
3 -11 V
2 -10 V
3 -10 V
3 -9 V
2 -9 V
3 -8 V
2 -7 V
3 -6 V
2 -6 V
3 -5 V
2 -4 V
3 -4 V
3 -3 V
2 -3 V
3 -1 V
2 -2 V
3 -1 V
2 0 V
3 0 V
2 1 V
3 2 V
3 1 V
2 3 V
3 3 V
2 3 V
3 4 V
2 4 V
3 4 V
2 5 V
3 6 V
3 5 V
2 6 V
3 7 V
2 6 V
3 7 V
2 8 V
3 7 V
3 8 V
2 8 V
3 8 V
2 8 V
3 9 V
2 9 V
3 8 V
2 9 V
3 9 V
3 9 V
2 9 V
3 9 V
2 9 V
3 10 V
2 9 V
3 9 V
2 9 V
3 9 V
3 8 V
2 9 V
3 9 V
2 8 V
3 9 V
2 8 V
3 8 V
2 8 V
3 7 V
3 8 V
2 7 V
3 7 V
2 7 V
3 7 V
2 6 V
stroke 2274 1540 M
3 7 V
2 6 V
3 5 V
3 6 V
2 5 V
3 5 V
2 5 V
3 4 V
2 4 V
3 4 V
3 4 V
2 3 V
3 3 V
2 3 V
3 3 V
2 2 V
3 2 V
2 2 V
3 2 V
3 1 V
2 1 V
3 1 V
2 0 V
3 0 V
2 0 V
3 0 V
2 0 V
3 -1 V
3 -1 V
2 -1 V
3 -1 V
2 -2 V
3 -1 V
2 -2 V
3 -2 V
2 -3 V
3 -2 V
3 -3 V
2 -3 V
3 -3 V
2 -3 V
3 -3 V
2 -4 V
3 -3 V
3 -4 V
2 -4 V
3 -4 V
2 -4 V
3 -4 V
2 -5 V
3 -4 V
2 -5 V
3 -4 V
3 -5 V
2 -5 V
3 -5 V
2 -5 V
3 -5 V
2 -5 V
3 -5 V
2 -5 V
3 -5 V
3 -5 V
2 -5 V
3 -6 V
2 -5 V
3 -5 V
2 -5 V
3 -6 V
2 -5 V
3 -5 V
3 -6 V
2 -5 V
3 -5 V
2 -5 V
3 -5 V
2 -6 V
3 -5 V
3 -5 V
2 -5 V
3 -5 V
2 -4 V
3 -5 V
2 -5 V
3 -5 V
2 -4 V
3 -5 V
3 -4 V
2 -4 V
3 -4 V
2 -4 V
3 -4 V
2 -4 V
3 -4 V
2 -4 V
3 -3 V
3 -3 V
2 -4 V
3 -3 V
2 -3 V
3 -2 V
2 -3 V
3 -2 V
2 -3 V
stroke 2540 1312 M
3 -2 V
3 -1 V
2 -2 V
3 -2 V
2 -1 V
3 -1 V
2 -1 V
3 -1 V
2 0 V
3 0 V
3 0 V
2 0 V
3 1 V
2 1 V
3 1 V
2 1 V
3 2 V
3 2 V
2 2 V
3 3 V
2 3 V
3 4 V
2 4 V
3 4 V
2 5 V
3 5 V
3 6 V
2 6 V
3 7 V
2 8 V
3 8 V
2 9 V
3 9 V
2 10 V
3 11 V
3 12 V
2 13 V
3 13 V
2 15 V
3 16 V
2 17 V
3 18 V
2 19 V
3 21 V
3 23 V
2 25 V
3 26 V
2 28 V
3 31 V
2 33 V
3 36 V
3 38 V
2 42 V
3 45 V
2 50 V
3 53 V
2 58 V
3 63 V
2 68 V
3 75 V
3 82 V
2 88 V
3 97 V
2 105 V
3 115 V
2 124 V
3 134 V
2 145 V
3 156 V
3 165 V
2 174 V
3 181 V
2 187 V
3 189 V
2 189 V
3 186 V
2 180 V
3 171 V
3 162 V
2 149 V
3 137 V
2 124 V
3 111 V
2 98 V
3 85 V
3 73 V
2 62 V
3 50 V
2 41 V
3 30 V
2 21 V
3 13 V
2 5 V
3 -3 V
3 -10 V
2 -16 V
3 -23 V
2 -27 V
3 -33 V
2 -38 V
3 -42 V
2 -46 V
3 -50 V
3 -53 V
stroke 2807 5739 M
2 -57 V
3 -59 V
2 -61 V
3 -64 V
2 -66 V
3 -68 V
2 -69 V
3 -71 V
3 -72 V
2 -74 V
3 -74 V
2 -75 V
3 -75 V
2 -76 V
3 -77 V
3 -77 V
2 -77 V
3 -77 V
2 -77 V
3 -77 V
2 -76 V
3 -77 V
2 -75 V
3 -76 V
3 -75 V
2 -74 V
3 -74 V
2 -73 V
3 -73 V
2 -71 V
3 -71 V
2 -70 V
3 -69 V
3 -68 V
2 -67 V
3 -65 V
2 -65 V
3 -64 V
2 -63 V
3 -62 V
2 -60 V
3 -59 V
3 -59 V
2 -57 V
3 -56 V
2 -54 V
3 -54 V
2 -52 V
3 -51 V
2 -50 V
3 -48 V
3 -48 V
2 -46 V
3 -45 V
2 -44 V
3 -43 V
2 -41 V
3 -41 V
3 -39 V
2 -38 V
3 -37 V
2 -35 V
3 -35 V
2 -34 V
3 -32 V
2 -31 V
3 -31 V
3 -29 V
2 -28 V
3 -27 V
2 -27 V
3 -25 V
2 -24 V
3 -23 V
2 -22 V
3 -22 V
3 -20 V
2 -20 V
3 -18 V
2 -18 V
3 -17 V
2 -16 V
3 -16 V
2 -14 V
3 -14 V
3 -12 V
2 -13 V
3 -11 V
2 -10 V
3 -10 V
2 -9 V
3 -9 V
3 -8 V
2 -7 V
3 -6 V
2 -6 V
3 -5 V
2 -4 V
3 -4 V
2 -3 V
3 -3 V
3 -1 V
2 -2 V
3 -1 V
stroke 3073 1184 M
2 0 V
3 0 V
2 1 V
3 2 V
2 1 V
3 3 V
3 3 V
2 3 V
3 4 V
2 4 V
3 4 V
2 5 V
3 6 V
2 5 V
3 6 V
3 7 V
2 6 V
3 7 V
2 8 V
3 7 V
2 8 V
3 8 V
3 8 V
2 8 V
3 9 V
2 9 V
3 8 V
2 9 V
3 9 V
2 9 V
3 9 V
3 9 V
2 9 V
3 10 V
2 9 V
3 9 V
2 9 V
3 9 V
2 8 V
3 9 V
3 9 V
2 8 V
3 9 V
2 8 V
3 8 V
2 8 V
3 7 V
2 8 V
3 7 V
3 7 V
2 7 V
3 7 V
2 6 V
3 7 V
2 6 V
3 5 V
3 6 V
2 5 V
3 5 V
2 5 V
3 4 V
2 4 V
3 4 V
2 4 V
3 3 V
3 3 V
2 3 V
3 3 V
2 2 V
3 2 V
2 2 V
3 2 V
2 1 V
3 1 V
3 1 V
2 0 V
3 0 V
2 0 V
3 0 V
2 0 V
3 -1 V
2 -1 V
3 -1 V
3 -1 V
2 -2 V
3 -1 V
2 -2 V
3 -2 V
2 -3 V
3 -2 V
2 -3 V
3 -3 V
3 -3 V
2 -3 V
3 -3 V
2 -4 V
3 -3 V
2 -4 V
3 -4 V
3 -4 V
2 -4 V
3 -4 V
2 -5 V
3 -4 V
stroke 3339 1551 M
2 -5 V
3 -4 V
2 -5 V
3 -5 V
3 -5 V
2 -5 V
3 -5 V
2 -5 V
3 -5 V
2 -5 V
3 -5 V
2 -5 V
3 -5 V
3 -6 V
2 -5 V
3 -5 V
2 -5 V
3 -6 V
2 -5 V
3 -5 V
2 -6 V
3 -5 V
3 -5 V
2 -5 V
3 -5 V
2 -6 V
3 -5 V
2 -5 V
3 -5 V
3 -5 V
2 -4 V
3 -5 V
2 -5 V
3 -5 V
2 -4 V
3 -5 V
2 -4 V
3 -4 V
3 -4 V
2 -4 V
3 -4 V
2 -4 V
3 -4 V
2 -4 V
3 -3 V
2 -3 V
3 -4 V
3 -3 V
2 -3 V
3 -2 V
2 -3 V
3 -2 V
2 -3 V
3 -2 V
2 -1 V
3 -2 V
3 -2 V
2 -1 V
3 -1 V
2 -1 V
3 -1 V
2 0 V
3 0 V
3 0 V
2 0 V
3 1 V
2 1 V
3 1 V
2 1 V
3 2 V
2 2 V
3 2 V
3 3 V
2 3 V
3 4 V
2 4 V
3 4 V
2 5 V
3 5 V
2 6 V
3 6 V
3 7 V
2 8 V
3 8 V
2 9 V
3 9 V
2 10 V
3 11 V
2 12 V
3 13 V
3 13 V
2 15 V
3 16 V
2 17 V
3 18 V
2 19 V
3 21 V
2 23 V
3 25 V
3 26 V
2 28 V
3 31 V
2 33 V
3 36 V
stroke 3605 1759 M
2 38 V
3 42 V
3 45 V
2 50 V
3 53 V
2 58 V
3 63 V
2 68 V
3 75 V
2 82 V
3 88 V
3 97 V
2 105 V
3 115 V
2 124 V
3 134 V
2 145 V
3 156 V
2 165 V
3 174 V
3 181 V
2 187 V
3 189 V
2 189 V
3 186 V
2 180 V
3 171 V
2 162 V
3 149 V
3 137 V
2 124 V
3 111 V
2 98 V
3 85 V
2 73 V
3 62 V
3 50 V
2 41 V
3 30 V
2 21 V
3 13 V
2 5 V
3 -3 V
2 -10 V
3 -16 V
3 -23 V
2 -27 V
3 -33 V
2 -38 V
3 -42 V
2 -46 V
3 -50 V
2 -53 V
3 -57 V
3 -59 V
2 -61 V
3 -64 V
2 -66 V
3 -68 V
2 -69 V
3 -71 V
2 -72 V
3 -74 V
3 -74 V
2 -75 V
3 -75 V
2 -76 V
3 -77 V
2 -77 V
3 -77 V
3 -77 V
2 -77 V
3 -77 V
2 -76 V
3 -77 V
2 -75 V
3 -76 V
2 -75 V
3 -74 V
3 -74 V
2 -73 V
3 -73 V
2 -71 V
3 -71 V
2 -70 V
3 -69 V
2 -68 V
3 -67 V
3 -65 V
2 -65 V
3 -64 V
2 -63 V
3 -62 V
2 -60 V
3 -59 V
2 -59 V
3 -57 V
3 -56 V
2 -54 V
3 -54 V
2 -52 V
3 -51 V
2 -50 V
3 -48 V
stroke 3871 2308 M
3 -48 V
2 -46 V
3 -45 V
2 -44 V
3 -43 V
2 -41 V
3 -41 V
2 -39 V
3 -38 V
3 -37 V
2 -35 V
3 -35 V
2 -34 V
3 -32 V
2 -31 V
3 -31 V
2 -29 V
3 -28 V
3 -27 V
2 -27 V
3 -25 V
2 -24 V
3 -23 V
2 -22 V
3 -22 V
2 -20 V
3 -20 V
3 -18 V
2 -18 V
3 -17 V
2 -16 V
3 -16 V
2 -14 V
3 -14 V
2 -12 V
3 -13 V
3 -11 V
2 -10 V
3 -10 V
2 -9 V
3 -9 V
2 -8 V
3 -7 V
3 -6 V
2 -6 V
3 -5 V
2 -4 V
3 -4 V
2 -3 V
3 -3 V
2 -1 V
3 -2 V
3 -1 V
2 0 V
3 0 V
2 1 V
3 2 V
2 1 V
3 3 V
2 3 V
3 3 V
3 4 V
2 4 V
3 4 V
2 5 V
3 6 V
2 5 V
3 6 V
2 7 V
3 6 V
3 7 V
2 8 V
3 7 V
2 8 V
3 8 V
2 8 V
3 8 V
3 9 V
2 9 V
3 8 V
2 9 V
3 9 V
2 9 V
3 9 V
2 9 V
3 9 V
3 10 V
2 9 V
3 9 V
2 9 V
3 9 V
2 8 V
3 9 V
2 9 V
3 8 V
3 9 V
2 8 V
3 8 V
2 8 V
3 7 V
2 8 V
3 7 V
2 7 V
3 7 V
stroke 4137 1527 M
3 7 V
2 6 V
3 7 V
2 6 V
3 5 V
2 6 V
3 5 V
3 5 V
2 5 V
3 4 V
2 4 V
3 4 V
2 4 V
3 3 V
2 3 V
3 3 V
3 3 V
2 2 V
3 2 V
2 2 V
3 2 V
2 1 V
3 1 V
2 1 V
3 0 V
3 0 V
2 0 V
3 0 V
2 0 V
3 -1 V
2 -1 V
3 -1 V
2 -1 V
3 -2 V
3 -1 V
2 -2 V
3 -2 V
2 -3 V
3 -2 V
2 -3 V
3 -3 V
2 -3 V
3 -3 V
3 -3 V
2 -4 V
3 -3 V
2 -4 V
3 -4 V
2 -4 V
3 -4 V
3 -4 V
2 -5 V
3 -4 V
2 -5 V
3 -4 V
2 -5 V
3 -5 V
2 -5 V
3 -5 V
3 -5 V
2 -5 V
3 -5 V
2 -5 V
3 -5 V
2 -5 V
3 -5 V
2 -6 V
3 -5 V
3 -5 V
2 -5 V
3 -6 V
2 -5 V
3 -5 V
2 -6 V
3 -5 V
2 -5 V
3 -5 V
3 -5 V
2 -6 V
3 -5 V
2 -5 V
3 -5 V
2 -5 V
3 -4 V
3 -5 V
2 -5 V
3 -5 V
2 -4 V
3 -5 V
2 -4 V
3 -4 V
2 -4 V
3 -4 V
3 -4 V
2 -4 V
3 -4 V
2 -4 V
3 -3 V
2 -3 V
3 -4 V
2 -3 V
3 -3 V
3 -2 V
2 -3 V
stroke 4403 1317 M
3 -2 V
2 -3 V
3 -2 V
2 -1 V
3 -2 V
2 -2 V
3 -1 V
3 -1 V
2 -1 V
3 -1 V
2 0 V
3 0 V
2 0 V
3 0 V
3 1 V
2 1 V
3 1 V
2 1 V
3 2 V
2 2 V
3 2 V
2 3 V
3 3 V
3 4 V
2 4 V
3 4 V
2 5 V
3 5 V
2 6 V
3 6 V
2 7 V
3 8 V
3 8 V
2 9 V
3 9 V
2 10 V
3 11 V
2 12 V
3 13 V
2 13 V
3 15 V
3 16 V
2 17 V
3 18 V
2 19 V
3 21 V
2 23 V
3 25 V
3 26 V
2 28 V
3 31 V
2 33 V
3 36 V
2 38 V
3 42 V
2 45 V
3 50 V
3 53 V
2 58 V
3 63 V
2 68 V
3 75 V
2 82 V
3 88 V
2 97 V
3 105 V
3 115 V
2 124 V
3 134 V
2 145 V
3 156 V
2 165 V
3 174 V
2 181 V
3 187 V
3 189 V
2 189 V
3 186 V
2 180 V
3 171 V
2 162 V
3 149 V
2 137 V
3 124 V
3 111 V
2 98 V
3 85 V
2 73 V
3 62 V
2 50 V
3 41 V
3 30 V
2 21 V
3 13 V
2 5 V
3 -3 V
2 -10 V
3 -16 V
2 -23 V
3 -27 V
3 -33 V
2 -38 V
3 -42 V
2 -46 V
stroke 4669 5842 M
3 -50 V
2 -53 V
3 -57 V
2 -59 V
3 -61 V
3 -64 V
2 -66 V
3 -68 V
2 -69 V
3 -71 V
2 -72 V
3 -73 V
2 -75 V
3 -75 V
3 -75 V
2 -76 V
3 -77 V
2 -77 V
3 -77 V
2 -77 V
3 -77 V
3 -77 V
2 -76 V
3 -76 V
2 -76 V
3 -76 V
2 -75 V
3 -74 V
2 -74 V
3 -73 V
3 -73 V
2 -71 V
3 -71 V
2 -70 V
3 -69 V
2 -68 V
3 -67 V
2 -65 V
3 -65 V
3 -64 V
2 -63 V
3 -62 V
2 -60 V
3 -59 V
2 -59 V
3 -57 V
2 -56 V
3 -54 V
3 -54 V
2 -52 V
3 -51 V
2 -50 V
3 -48 V
2 -48 V
3 -46 V
3 -45 V
2 -44 V
3 -43 V
2 -41 V
3 -41 V
2 -39 V
3 -38 V
2 -37 V
3 -35 V
3 -35 V
2 -34 V
3 -32 V
2 -31 V
3 -31 V
2 -29 V
3 -28 V
2 -27 V
3 -27 V
3 -25 V
2 -24 V
3 -23 V
2 -22 V
3 -22 V
2 -20 V
3 -20 V
2 -18 V
3 -18 V
3 -17 V
2 -16 V
3 -16 V
2 -14 V
3 -14 V
2 -12 V
3 -13 V
3 -11 V
2 -10 V
3 -10 V
2 -9 V
3 -9 V
2 -8 V
3 -7 V
2 -6 V
3 -6 V
3 -5 V
2 -4 V
3 -4 V
2 -3 V
3 -3 V
2 -1 V
stroke 4935 1187 M
3 -2 V
2 -1 V
3 0 V
3 0 V
2 1 V
3 2 V
2 1 V
3 3 V
2 3 V
3 3 V
2 4 V
3 4 V
3 4 V
2 5 V
3 6 V
2 5 V
3 6 V
2 7 V
3 6 V
2 7 V
3 8 V
3 7 V
2 8 V
3 8 V
2 8 V
3 8 V
2 9 V
3 9 V
3 8 V
2 9 V
3 9 V
2 9 V
3 9 V
2 9 V
3 9 V
2 10 V
3 9 V
3 9 V
2 9 V
3 9 V
2 8 V
3 9 V
2 9 V
3 8 V
2 9 V
3 8 V
3 8 V
2 8 V
3 7 V
2 8 V
3 7 V
2 7 V
3 7 V
2 7 V
3 6 V
3 7 V
2 6 V
3 5 V
2 6 V
3 5 V
2 5 V
3 5 V
3 4 V
2 4 V
3 4 V
2 4 V
3 3 V
2 3 V
3 3 V
2 3 V
3 2 V
3 2 V
2 2 V
3 2 V
2 1 V
3 1 V
2 1 V
3 0 V
2 0 V
3 0 V
3 0 V
2 0 V
3 -1 V
2 -1 V
3 -1 V
2 -1 V
3 -2 V
2 -1 V
3 -2 V
3 -2 V
2 -3 V
3 -2 V
2 -3 V
3 -3 V
2 -3 V
3 -3 V
3 -3 V
2 -4 V
3 -3 V
2 -4 V
3 -4 V
2 -4 V
3 -4 V
2 -4 V
stroke 5201 1560 M
3 -5 V
3 -4 V
2 -5 V
3 -4 V
2 -5 V
3 -5 V
2 -5 V
3 -5 V
2 -5 V
3 -5 V
3 -5 V
2 -5 V
3 -5 V
2 -5 V
3 -5 V
2 -6 V
3 -5 V
2 -5 V
3 -5 V
3 -6 V
2 -5 V
3 -5 V
2 -6 V
3 -5 V
2 -5 V
3 -5 V
2 -5 V
3 -6 V
3 -5 V
2 -5 V
3 -5 V
2 -5 V
3 -4 V
2 -5 V
3 -5 V
3 -5 V
2 -4 V
3 -5 V
2 -4 V
3 -4 V
2 -4 V
3 -4 V
2 -4 V
3 -4 V
3 -4 V
2 -4 V
3 -3 V
2 -3 V
3 -4 V
2 -3 V
3 -3 V
2 -2 V
3 -3 V
3 -2 V
2 -3 V
3 -2 V
2 -1 V
3 -2 V
2 -2 V
3 -1 V
2 -1 V
3 -1 V
3 -1 V
2 0 V
3 0 V
2 0 V
3 0 V
2 1 V
3 1 V
3 1 V
2 1 V
3 2 V
2 2 V
3 2 V
2 3 V
3 3 V
2 4 V
3 4 V
3 4 V
2 5 V
3 5 V
2 6 V
3 6 V
2 7 V
3 8 V
2 8 V
3 9 V
3 9 V
2 10 V
3 11 V
2 12 V
3 13 V
2 13 V
3 15 V
2 16 V
3 17 V
3 18 V
2 19 V
3 21 V
2 23 V
3 25 V
2 26 V
3 28 V
3 31 V
stroke 5468 1690 M
2 33 V
3 36 V
2 38 V
3 42 V
2 45 V
3 50 V
2 53 V
3 58 V
3 63 V
2 68 V
3 75 V
2 82 V
3 88 V
2 97 V
3 105 V
2 115 V
3 124 V
3 134 V
2 145 V
3 156 V
2 165 V
3 174 V
2 181 V
3 187 V
2 189 V
3 189 V
3 186 V
2 180 V
3 171 V
2 162 V
3 149 V
2 137 V
3 124 V
3 111 V
2 98 V
3 85 V
2 73 V
3 62 V
2 50 V
3 41 V
2 30 V
3 21 V
3 13 V
2 5 V
3 -3 V
2 -10 V
3 -16 V
2 -23 V
3 -27 V
2 -33 V
3 -38 V
3 -42 V
2 -46 V
3 -50 V
2 -53 V
3 -57 V
2 -59 V
3 -61 V
2 -64 V
3 -66 V
3 -68 V
2 -69 V
3 -71 V
2 -72 V
3 -74 V
2 -74 V
3 -75 V
2 -75 V
3 -76 V
3 -77 V
2 -77 V
3 -77 V
2 -77 V
3 -77 V
2 -77 V
3 -76 V
3 -77 V
2 -75 V
3 -76 V
2 -75 V
3 -74 V
2 -74 V
3 -73 V
2 -73 V
3 -71 V
3 -71 V
2 -70 V
3 -69 V
2 -68 V
3 -67 V
2 -65 V
3 -65 V
2 -64 V
3 -63 V
3 -62 V
2 -60 V
3 -59 V
2 -59 V
3 -57 V
2 -56 V
3 -54 V
2 -54 V
3 -52 V
3 -51 V
stroke 5734 2406 M
2 -50 V
3 -48 V
2 -48 V
3 -46 V
2 -45 V
3 -44 V
3 -43 V
2 -41 V
3 -41 V
2 -39 V
3 -38 V
2 -37 V
3 -35 V
2 -35 V
3 -34 V
3 -32 V
2 -31 V
3 -31 V
2 -29 V
3 -28 V
2 -27 V
3 -27 V
2 -25 V
3 -24 V
3 -23 V
2 -22 V
3 -22 V
2 -20 V
3 -20 V
2 -18 V
3 -18 V
2 -17 V
3 -16 V
3 -16 V
2 -14 V
3 -14 V
2 -12 V
3 -13 V
2 -11 V
3 -10 V
3 -10 V
2 -9 V
3 -9 V
2 -8 V
3 -7 V
2 -6 V
3 -6 V
2 -5 V
3 -4 V
3 -4 V
2 -3 V
3 -3 V
2 -1 V
3 -2 V
2 -1 V
3 0 V
2 0 V
3 1 V
3 2 V
2 1 V
3 3 V
2 3 V
3 3 V
2 4 V
3 4 V
2 4 V
3 5 V
3 6 V
2 5 V
3 6 V
2 7 V
3 6 V
2 7 V
3 8 V
2 7 V
3 8 V
3 8 V
2 8 V
3 8 V
2 9 V
3 9 V
2 8 V
3 9 V
3 9 V
2 9 V
3 9 V
2 9 V
3 9 V
2 10 V
3 9 V
2 9 V
3 9 V
3 9 V
2 8 V
3 9 V
2 9 V
3 8 V
2 9 V
3 8 V
2 8 V
3 8 V
3 7 V
2 8 V
3 7 V
stroke 6000 1513 M
2 7 V
3 7 V
2 7 V
3 6 V
2 7 V
3 6 V
3 5 V
2 6 V
3 5 V
2 5 V
3 5 V
2 4 V
3 4 V
3 4 V
2 4 V
3 3 V
2 3 V
3 3 V
2 3 V
3 2 V
2 2 V
3 2 V
3 2 V
2 1 V
3 1 V
2 1 V
3 0 V
2 0 V
3 0 V
2 0 V
3 0 V
3 -1 V
2 -1 V
3 -1 V
2 -1 V
3 -2 V
2 -1 V
3 -2 V
2 -2 V
3 -3 V
3 -2 V
2 -3 V
3 -3 V
2 -3 V
3 -3 V
2 -3 V
3 -4 V
3 -3 V
2 -4 V
3 -4 V
2 -4 V
3 -4 V
2 -4 V
3 -5 V
2 -4 V
3 -5 V
3 -4 V
2 -5 V
3 -5 V
2 -5 V
3 -5 V
2 -5 V
3 -5 V
2 -5 V
3 -5 V
3 -5 V
2 -5 V
3 -5 V
2 -6 V
3 -5 V
2 -5 V
3 -5 V
2 -6 V
3 -5 V
3 -5 V
2 -6 V
3 -5 V
2 -5 V
3 -5 V
2 -5 V
3 -6 V
3 -5 V
2 -5 V
3 -5 V
2 -5 V
3 -4 V
2 -5 V
3 -5 V
2 -5 V
3 -4 V
3 -5 V
2 -4 V
3 -4 V
2 -4 V
3 -4 V
2 -4 V
3 -4 V
2 -4 V
3 -4 V
3 -3 V
2 -3 V
3 -4 V
2 -3 V
3 -3 V
stroke 6266 1322 M
2 -2 V
3 -3 V
2 -2 V
3 -3 V
3 -2 V
2 -1 V
3 -2 V
2 -2 V
3 -1 V
2 -1 V
3 -1 V
2 -1 V
3 0 V
3 0 V
2 0 V
3 0 V
2 1 V
3 1 V
2 1 V
3 1 V
3 2 V
2 2 V
3 2 V
2 3 V
3 3 V
2 4 V
3 4 V
2 4 V
3 5 V
3 5 V
2 6 V
3 6 V
2 7 V
3 8 V
2 8 V
3 9 V
2 9 V
3 10 V
3 11 V
2 12 V
3 13 V
2 13 V
3 15 V
2 16 V
3 17 V
2 18 V
3 19 V
3 21 V
2 23 V
3 25 V
2 26 V
3 28 V
2 31 V
3 33 V
3 36 V
2 38 V
3 42 V
2 45 V
3 50 V
2 53 V
3 58 V
2 63 V
3 68 V
3 75 V
2 82 V
3 88 V
2 97 V
3 105 V
2 115 V
3 124 V
2 134 V
3 145 V
3 156 V
2 165 V
3 174 V
2 181 V
3 187 V
2 189 V
3 189 V
2 186 V
3 180 V
3 171 V
2 162 V
3 149 V
2 137 V
3 124 V
2 111 V
3 98 V
3 85 V
2 73 V
3 62 V
2 50 V
3 41 V
2 30 V
3 21 V
2 13 V
3 5 V
3 -3 V
2 -10 V
3 -16 V
2 -23 V
3 -27 V
2 -33 V
3 -38 V
stroke 6532 5930 M
2 -42 V
3 -46 V
3 -50 V
2 -53 V
3 -57 V
2 -59 V
3 -61 V
2 -64 V
3 -66 V
2 -68 V
3 -69 V
3 -71 V
2 -72 V
3 -74 V
2 -74 V
3 -75 V
2 -75 V
3 -76 V
3 -77 V
2 -77 V
3 -77 V
2 -77 V
3 -77 V
2 -77 V
3 -76 V
2 -77 V
3 -75 V
3 -76 V
2 -75 V
3 -74 V
2 -74 V
3 -73 V
2 -73 V
3 -71 V
2 -71 V
3 -70 V
3 -69 V
2 -68 V
3 -67 V
2 -65 V
3 -65 V
2 -64 V
3 -63 V
2 -62 V
3 -60 V
3 -59 V
2 -59 V
3 -57 V
2 -56 V
3 -54 V
2 -54 V
3 -52 V
2 -51 V
3 -50 V
3 -48 V
2 -48 V
3 -46 V
2 -45 V
3 -44 V
2 -43 V
3 -41 V
3 -41 V
2 -39 V
3 -38 V
2 -37 V
3 -35 V
2 -35 V
3 -34 V
2 -32 V
3 -31 V
3 -31 V
2 -29 V
3 -28 V
2 -27 V
3 -27 V
2 -25 V
3 -24 V
2 -23 V
3 -22 V
3 -22 V
2 -20 V
3 -20 V
2 -18 V
3 -18 V
2 -17 V
3 -16 V
2 -16 V
3 -14 V
3 -14 V
2 -12 V
3 -13 V
2 -11 V
3 -10 V
2 -10 V
3 -9 V
3 -9 V
2 -8 V
3 -7 V
2 -6 V
3 -6 V
2 -5 V
3 -4 V
2 -4 V
3 -3 V
stroke 6798 1191 M
3 -3 V
2 -1 V
3 -2 V
2 -1 V
3 0 V
2 0 V
3 1 V
2 2 V
3 1 V
3 3 V
2 3 V
3 3 V
2 4 V
3 4 V
2 4 V
3 5 V
2 6 V
3 5 V
3 6 V
2 7 V
3 6 V
2 7 V
3 8 V
2 7 V
3 8 V
3 8 V
2 8 V
3 8 V
2 9 V
3 9 V
2 8 V
3 9 V
2 9 V
3 9 V
3 9 V
2 9 V
3 9 V
2 10 V
3 9 V
2 9 V
3 9 V
2 9 V
3 8 V
3 9 V
2 9 V
3 8 V
2 9 V
3 8 V
2 8 V
3 8 V
2 7 V
3 8 V
3 7 V
2 7 V
3 7 V
2 7 V
3 6 V
2 7 V
3 6 V
2 5 V
3 6 V
3 5 V
2 5 V
3 5 V
2 4 V
3 4 V
2 4 V
3 4 V
3 3 V
2 3 V
3 3 V
2 3 V
3 2 V
2 2 V
3 2 V
2 2 V
3 1 V
3 1 V
2 1 V
3 0 V
2 0 V
3 0 V
2 0 V
3 0 V
2 -1 V
3 -1 V
3 -1 V
2 -1 V
3 -2 V
2 -1 V
3 -2 V
2 -2 V
3 -3 V
2 -2 V
3 -3 V
3 -3 V
2 -3 V
3 -3 V
2 -3 V
3 -4 V
2 -3 V
3 -4 V
3 -4 V
2 -4 V
stroke 7064 1568 M
3 -4 V
2 -4 V
3 -5 V
2 -4 V
3 -5 V
2 -4 V
3 -5 V
3 -5 V
2 -5 V
3 -5 V
2 -5 V
3 -5 V
2 -5 V
3 -5 V
2 -5 V
3 -5 V
3 -5 V
2 -6 V
3 -5 V
2 -5 V
3 -5 V
2 -6 V
3 -5 V
2 -5 V
3 -6 V
3 -5 V
2 -5 V
3 -5 V
2 -5 V
3 -6 V
2 -5 V
3 -5 V
3 -5 V
2 -5 V
3 -4 V
2 -5 V
3 -5 V
2 -5 V
3 -4 V
2 -5 V
3 -4 V
3 -4 V
2 -4 V
3 -4 V
2 -4 V
3 -4 V
2 -4 V
3 -4 V
2 -3 V
3 -3 V
3 -4 V
2 -3 V
3 -3 V
2 -2 V
3 -3 V
2 -2 V
3 -3 V
2 -2 V
3 -1 V
3 -2 V
2 -2 V
3 -1 V
2 -1 V
3 -1 V
2 -1 V
3 0 V
3 0 V
2 0 V
3 0 V
2 1 V
3 1 V
2 1 V
3 1 V
2 2 V
3 2 V
3 2 V
2 3 V
3 3 V
2 4 V
3 4 V
2 4 V
3 5 V
2 5 V
3 6 V
3 6 V
2 7 V
3 8 V
2 8 V
3 9 V
2 9 V
3 10 V
2 11 V
3 12 V
3 13 V
2 13 V
3 15 V
2 16 V
3 17 V
2 18 V
3 19 V
2 21 V
3 23 V
3 25 V
2 26 V
stroke 7330 1631 M
3 28 V
2 31 V
3 33 V
2 36 V
3 38 V
3 42 V
2 45 V
3 50 V
2 53 V
3 58 V
2 63 V
3 68 V
2 75 V
3 82 V
3 88 V
2 97 V
3 105 V
2 115 V
3 124 V
2 134 V
3 145 V
2 156 V
3 165 V
3 174 V
2 181 V
3 187 V
2 189 V
3 189 V
2 186 V
3 180 V
2 171 V
3 162 V
3 149 V
2 137 V
3 124 V
2 111 V
3 98 V
2 85 V
3 73 V
3 62 V
2 50 V
3 41 V
2 30 V
3 21 V
2 13 V
3 5 V
2 -3 V
3 -10 V
3 -16 V
2 -23 V
3 -27 V
2 -33 V
3 -38 V
2 -42 V
3 -46 V
2 -50 V
3 -53 V
3 -57 V
2 -59 V
3 -61 V
2 -64 V
3 -66 V
2 -68 V
3 -69 V
2 -71 V
3 -72 V
3 -73 V
2 -75 V
3 -75 V
2 -75 V
3 -76 V
2 -77 V
3 -77 V
3 -77 V
2 -77 V
3 -77 V
2 -77 V
3 -76 V
2 -76 V
3 -76 V
2 -76 V
3 -75 V
3 -74 V
2 -74 V
3 -73 V
2 -73 V
3 -71 V
2 -71 V
3 -70 V
2 -69 V
3 -68 V
3 -67 V
2 -65 V
3 -65 V
2 -64 V
3 -63 V
2 -62 V
3 -60 V
2 -59 V
3 -59 V
3 -57 V
2 -56 V
3 -54 V
2 -54 V
stroke 7596 2509 M
3 -52 V
2 -51 V
3 -50 V
3 -48 V
2 -48 V
3 -46 V
2 -45 V
3 -44 V
2 -43 V
3 -41 V
2 -41 V
3 -39 V
3 -38 V
2 -37 V
3 -35 V
2 -35 V
3 -34 V
2 -32 V
3 -31 V
2 -31 V
3 -29 V
3 -28 V
2 -27 V
3 -27 V
2 -25 V
3 -24 V
2 -23 V
3 -22 V
2 -22 V
3 -20 V
3 -20 V
2 -18 V
3 -18 V
2 -17 V
3 -16 V
2 -16 V
3 -14 V
2 -14 V
3 -12 V
3 -13 V
2 -11 V
3 -10 V
2 -10 V
3 -9 V
2 -9 V
3 -8 V
3 -7 V
2 -6 V
3 -6 V
2 -5 V
3 -4 V
2 -4 V
3 -3 V
2 -3 V
3 -1 V
3 -2 V
2 -1 V
3 0 V
2 0 V
3 1 V
2 2 V
3 1 V
2 3 V
3 3 V
3 3 V
2 4 V
3 4 V
2 4 V
3 5 V
2 6 V
3 5 V
2 6 V
3 7 V
3 6 V
2 7 V
3 8 V
2 7 V
3 8 V
2 8 V
3 8 V
3 8 V
2 9 V
3 9 V
2 8 V
3 9 V
2 9 V
3 9 V
2 9 V
3 9 V
3 9 V
2 10 V
3 9 V
2 9 V
3 9 V
2 9 V
3 8 V
2 9 V
3 9 V
3 8 V
2 9 V
3 8 V
2 8 V
3 8 V
2 7 V
stroke 7862 1498 M
3 8 V
2 7 V
3 7 V
3 7 V
2 7 V
3 6 V
2 7 V
3 6 V
2 5 V
3 6 V
3 5 V
2 5 V
3 5 V
2 4 V
3 4 V
2 4 V
3 4 V
2 3 V
3 3 V
3 3 V
2 3 V
3 2 V
2 2 V
3 2 V
2 2 V
3 1 V
2 1 V
3 1 V
3 0 V
2 0 V
3 0 V
2 0 V
3 0 V
2 -1 V
3 -1 V
2 -1 V
3 -1 V
3 -2 V
2 -1 V
3 -2 V
2 -2 V
3 -3 V
2 -2 V
3 -3 V
2 -3 V
3 -3 V
3 -3 V
2 -3 V
3 -4 V
2 -3 V
3 -4 V
2 -4 V
3 -4 V
3 -4 V
2 -4 V
3 -5 V
2 -4 V
3 -5 V
2 -4 V
3 -5 V
2 -5 V
3 -5 V
3 -5 V
2 -5 V
3 -5 V
2 -5 V
3 -5 V
2 -5 V
3 -5 V
2 -5 V
3 -6 V
3 -5 V
2 -5 V
3 -5 V
2 -6 V
3 -5 V
2 -5 V
3 -6 V
2 -5 V
3 -5 V
3 -5 V
2 -5 V
3 -6 V
2 -5 V
3 -5 V
2 -5 V
3 -5 V
3 -4 V
2 -5 V
3 -5 V
2 -5 V
3 -4 V
2 -5 V
3 -4 V
2 -4 V
3 -4 V
3 -4 V
2 -4 V
3 -4 V
2 -4 V
3 -4 V
2 -3 V
3 -3 V
2 -4 V
stroke 8128 1328 M
3 -3 V
3 -3 V
2 -2 V
3 -3 V
2 -2 V
3 -3 V
2 -2 V
3 -1 V
2 -2 V
3 -2 V
3 -1 V
2 -1 V
3 -1 V
2 -1 V
3 0 V
2 0 V
3 0 V
3 0 V
2 1 V
3 1 V
2 1 V
3 1 V
2 2 V
3 2 V
2 2 V
3 3 V
3 3 V
2 4 V
3 4 V
2 4 V
3 5 V
2 5 V
3 6 V
2 6 V
3 7 V
3 8 V
2 8 V
3 9 V
2 9 V
3 10 V
2 11 V
3 12 V
2 13 V
3 13 V
3 15 V
2 16 V
3 17 V
2 18 V
3 19 V
2 21 V
3 23 V
3 25 V
2 26 V
3 28 V
2 31 V
3 33 V
2 36 V
3 38 V
2 42 V
3 45 V
3 50 V
2 53 V
3 58 V
2 63 V
3 68 V
2 75 V
3 82 V
2 88 V
3 97 V
3 105 V
2 115 V
3 124 V
2 134 V
3 145 V
2 156 V
3 165 V
2 174 V
3 181 V
3 187 V
2 189 V
3 189 V
2 186 V
3 180 V
2 171 V
3 162 V
2 149 V
3 137 V
3 124 V
2 111 V
3 98 V
2 85 V
3 73 V
2 62 V
3 50 V
3 41 V
2 30 V
3 21 V
2 13 V
3 5 V
2 -3 V
3 -10 V
2 -16 V
3 -23 V
3 -27 V
stroke 8395 6001 M
2 -33 V
3 -38 V
2 -42 V
3 -46 V
2 -50 V
3 -53 V
2 -57 V
3 -59 V
3 -61 V
2 -64 V
3 -66 V
2 -68 V
3 -69 V
2 -71 V
3 -72 V
2 -74 V
3 -74 V
3 -75 V
2 -75 V
3 -76 V
2 -77 V
3 -77 V
2 -77 V
3 -77 V
3 -77 V
2 -77 V
3 -76 V
2 -77 V
3 -75 V
2 -76 V
3 -75 V
2 -74 V
3 -74 V
3 -73 V
2 -73 V
3 -71 V
2 -71 V
3 -70 V
2 -69 V
3 -68 V
2 -67 V
3 -65 V
3 -65 V
2 -64 V
3 -63 V
2 -62 V
3 -60 V
2 -59 V
3 -59 V
2 -57 V
3 -56 V
3 -54 V
2 -54 V
3 -52 V
2 -51 V
3 -50 V
2 -48 V
3 -48 V
3 -46 V
2 -45 V
3 -44 V
2 -43 V
3 -41 V
2 -41 V
3 -39 V
2 -38 V
3 -37 V
3 -35 V
2 -35 V
3 -34 V
2 -32 V
3 -31 V
2 -31 V
3 -29 V
2 -28 V
3 -27 V
3 -27 V
2 -25 V
3 -24 V
2 -23 V
3 -22 V
2 -22 V
3 -20 V
2 -20 V
3 -18 V
3 -18 V
2 -17 V
3 -16 V
2 -16 V
3 -14 V
2 -14 V
3 -12 V
2 -13 V
3 -11 V
3 -10 V
2 -10 V
3 -9 V
2 -9 V
3 -8 V
2 -7 V
3 -6 V
3 -6 V
2 -5 V
3 -4 V
stroke 8661 1198 M
2 -4 V
3 -3 V
2 -3 V
3 -1 V
2 -2 V
3 -1 V
3 0 V
2 0 V
3 1 V
2 2 V
3 1 V
2 3 V
3 3 V
2 3 V
3 4 V
3 4 V
2 4 V
3 5 V
2 6 V
3 5 V
2 6 V
3 7 V
2 6 V
3 7 V
3 8 V
2 7 V
3 8 V
2 8 V
3 8 V
2 8 V
3 9 V
3 9 V
2 8 V
3 9 V
2 9 V
3 9 V
2 9 V
3 9 V
2 9 V
3 10 V
3 9 V
2 9 V
3 9 V
2 9 V
3 8 V
2 9 V
3 9 V
2 8 V
3 9 V
3 8 V
2 8 V
3 8 V
2 7 V
3 8 V
2 7 V
3 7 V
2 7 V
3 7 V
3 6 V
2 7 V
3 6 V
2 5 V
3 6 V
2 5 V
3 5 V
3 5 V
2 4 V
3 4 V
2 4 V
3 4 V
2 3 V
3 3 V
2 3 V
3 3 V
3 2 V
2 2 V
3 2 V
2 2 V
3 1 V
2 1 V
3 1 V
2 0 V
3 0 V
3 0 V
2 0 V
3 0 V
2 -1 V
3 -1 V
2 -1 V
3 -1 V
2 -2 V
3 -1 V
3 -2 V
2 -2 V
3 -3 V
2 -2 V
3 -3 V
2 -3 V
3 -3 V
3 -3 V
2 -3 V
3 -4 V
2 -3 V
3 -4 V
stroke 8927 1576 M
2 -4 V
3 -4 V
2 -4 V
3 -4 V
3 -5 V
2 -4 V
3 -5 V
2 -4 V
3 -5 V
2 -5 V
3 -5 V
2 -5 V
3 -5 V
3 -5 V
2 -5 V
3 -5 V
2 -5 V
3 -5 V
2 -5 V
3 -6 V
2 -5 V
3 -5 V
3 -5 V
2 -6 V
3 -5 V
2 -5 V
3 -6 V
2 -5 V
3 -5 V
2 -5 V
3 -5 V
3 -6 V
2 -5 V
3 -5 V
2 -5 V
3 -5 V
2 -4 V
3 -5 V
3 -5 V
2 -5 V
3 -4 V
2 -5 V
3 -4 V
2 -4 V
3 -4 V
2 -4 V
3 -4 V
3 -4 V
2 -4 V
3 -4 V
2 -3 V
3 -3 V
2 -4 V
3 -3 V
2 -3 V
3 -2 V
3 -3 V
2 -2 V
3 -3 V
2 -2 V
3 -1 V
2 -2 V
3 -2 V
2 -1 V
3 -1 V
3 -1 V
2 -1 V
3 0 V
2 0 V
3 0 V
2 0 V
3 1 V
3 1 V
2 1 V
3 1 V
2 2 V
3 2 V
2 2 V
3 3 V
2 3 V
3 4 V
3 4 V
2 4 V
3 5 V
2 5 V
3 6 V
2 6 V
3 7 V
2 8 V
3 8 V
3 9 V
2 9 V
3 10 V
2 11 V
3 12 V
2 13 V
3 13 V
2 15 V
3 16 V
3 17 V
2 18 V
3 19 V
2 21 V
3 23 V
stroke 9193 1580 M
2 25 V
3 26 V
3 28 V
2 31 V
3 33 V
2 36 V
3 38 V
2 42 V
3 45 V
2 50 V
3 53 V
3 58 V
2 63 V
3 68 V
2 75 V
3 82 V
2 88 V
3 97 V
2 105 V
3 115 V
3 124 V
2 134 V
3 145 V
2 156 V
3 165 V
2 174 V
3 181 V
2 187 V
3 189 V
3 189 V
2 186 V
3 180 V
2 171 V
3 162 V
2 149 V
3 137 V
3 124 V
2 111 V
3 98 V
2 85 V
3 73 V
2 62 V
3 50 V
2 41 V
3 30 V
3 21 V
2 13 V
3 5 V
2 -3 V
3 -10 V
2 -16 V
3 -23 V
2 -27 V
3 -33 V
3 -38 V
2 -42 V
3 -46 V
2 -50 V
3 -53 V
2 -57 V
3 -59 V
2 -61 V
3 -64 V
3 -66 V
2 -68 V
3 -69 V
2 -71 V
3 -72 V
2 -74 V
3 -74 V
2 -75 V
3 -75 V
3 -76 V
2 -77 V
3 -77 V
2 -77 V
3 -77 V
2 -77 V
3 -77 V
3 -76 V
2 -77 V
3 -75 V
2 -76 V
3 -75 V
2 -74 V
3 -74 V
2 -73 V
3 -73 V
3 -71 V
2 -71 V
3 -70 V
2 -69 V
3 -68 V
2 -67 V
3 -65 V
2 -65 V
3 -64 V
3 -63 V
2 -62 V
3 -60 V
2 -59 V
3 -59 V
2 -57 V
3 -56 V
stroke 9459 2617 M
2 -54 V
3 -54 V
3 -52 V
2 -51 V
3 -50 V
2 -48 V
3 -48 V
2 -46 V
3 -45 V
3 -44 V
2 -43 V
3 -41 V
2 -41 V
3 -39 V
2 -38 V
3 -37 V
2 -35 V
3 -35 V
3 -34 V
2 -32 V
3 -31 V
2 -31 V
3 -29 V
2 -28 V
3 -27 V
2 -27 V
3 -25 V
3 -24 V
2 -23 V
3 -22 V
2 -22 V
3 -20 V
2 -20 V
3 -18 V
2 -18 V
3 -17 V
3 -16 V
2 -16 V
3 -14 V
2 -14 V
3 -12 V
2 -13 V
3 -11 V
3 -10 V
2 -10 V
3 -9 V
2 -9 V
3 -8 V
2 -7 V
3 -6 V
2 -6 V
3 -5 V
3 -4 V
2 -4 V
3 -3 V
2 -3 V
3 -1 V
2 -2 V
3 -1 V
2 0 V
3 0 V
3 1 V
2 2 V
3 1 V
2 3 V
3 3 V
2 3 V
3 4 V
2 4 V
3 4 V
3 5 V
2 6 V
3 5 V
2 6 V
3 7 V
2 6 V
3 7 V
2 8 V
3 7 V
3 8 V
2 8 V
3 8 V
2 8 V
3 9 V
2 9 V
3 8 V
3 9 V
2 9 V
3 9 V
2 9 V
3 9 V
2 9 V
3 10 V
2 9 V
3 9 V
3 9 V
2 9 V
3 8 V
2 9 V
3 9 V
2 8 V
3 9 V
2 8 V
3 8 V
stroke 9725 1483 M
3 8 V
2 7 V
3 8 V
2 7 V
3 7 V
2 7 V
3 7 V
2 6 V
3 7 V
3 6 V
2 5 V
3 6 V
2 5 V
3 5 V
2 5 V
3 4 V
3 4 V
2 4 V
3 4 V
2 3 V
3 3 V
2 3 V
3 3 V
2 2 V
3 2 V
3 2 V
2 2 V
3 1 V
2 1 V
3 1 V
2 0 V
3 0 V
2 0 V
3 0 V
3 0 V
2 -1 V
3 -1 V
2 -1 V
3 -1 V
2 -2 V
3 -1 V
2 -2 V
3 -2 V
3 -3 V
2 -2 V
3 -3 V
2 -3 V
3 -3 V
2 -3 V
3 -3 V
3 -4 V
2 -3 V
3 -4 V
2 -4 V
3 -4 V
2 -4 V
3 -4 V
2 -5 V
3 -4 V
3 -5 V
2 -4 V
3 -5 V
2 -5 V
3 -5 V
2 -5 V
3 -5 V
2 -5 V
3 -5 V
3 -5 V
2 -5 V
3 -5 V
2 -5 V
3 -6 V
2 -5 V
3 -5 V
2 -5 V
3 -6 V
3 -5 V
2 -5 V
3 -6 V
2 -5 V
3 -5 V
2 -5 V
3 -5 V
3 -6 V
2 -5 V
3 -5 V
2 -5 V
3 -5 V
2 -4 V
3 -5 V
2 -5 V
3 -5 V
3 -4 V
2 -5 V
3 -4 V
2 -4 V
3 -4 V
2 -4 V
3 -4 V
2 -4 V
3 -4 V
3 -4 V
2 -3 V
stroke 9991 1335 M
3 -3 V
2 -4 V
3 -3 V
2 -3 V
3 -2 V
2 -3 V
3 -2 V
3 -3 V
2 -2 V
3 -1 V
2 -2 V
3 -2 V
2 -1 V
3 -1 V
2 -1 V
3 -1 V
3 0 V
2 0 V
3 0 V
2 0 V
3 1 V
2 1 V
3 1 V
3 1 V
2 2 V
3 2 V
2 2 V
3 3 V
2 3 V
3 4 V
2 4 V
3 4 V
3 5 V
2 5 V
3 6 V
2 6 V
3 7 V
2 8 V
3 8 V
2 9 V
3 9 V
3 10 V
2 11 V
3 12 V
2 13 V
3 13 V
2 15 V
3 16 V
2 17 V
3 18 V
3 19 V
2 21 V
3 23 V
2 25 V
3 26 V
2 28 V
3 31 V
3 33 V
2 36 V
3 38 V
2 42 V
3 45 V
2 50 V
3 53 V
2 58 V
3 63 V
3 68 V
2 75 V
3 82 V
2 88 V
3 97 V
2 105 V
3 115 V
2 124 V
3 134 V
3 145 V
2 156 V
3 165 V
2 174 V
3 181 V
2 187 V
3 189 V
2 189 V
3 186 V
3 180 V
2 171 V
3 162 V
2 149 V
3 137 V
2 124 V
3 111 V
3 98 V
2 85 V
3 73 V
2 62 V
3 50 V
2 41 V
3 30 V
2 21 V
3 13 V
3 5 V
2 -3 V
3 -10 V
2 -16 V
stroke 10257 6051 M
3 -23 V
2 -27 V
3 -33 V
2 -38 V
3 -42 V
3 -46 V
2 -50 V
3 -53 V
2 -57 V
3 -59 V
2 -61 V
3 -64 V
2 -66 V
3 -68 V
3 -69 V
2 -71 V
3 -72 V
2 -73 V
3 -75 V
2 -75 V
3 -75 V
2 -76 V
3 -77 V
3 -77 V
2 -77 V
3 -77 V
2 -77 V
3 -77 V
2 -76 V
3 -76 V
3 -76 V
2 -76 V
3 -75 V
2 -74 V
3 -74 V
2 -73 V
3 -73 V
2 -71 V
3 -71 V
3 -70 V
2 -69 V
3 -68 V
2 -67 V
3 -65 V
2 -65 V
3 -64 V
2 -63 V
3 -62 V
3 -60 V
2 -59 V
3 -59 V
2 -57 V
3 -56 V
2 -54 V
3 -54 V
2 -52 V
3 -51 V
3 -50 V
2 -48 V
3 -48 V
2 -46 V
3 -45 V
2 -44 V
3 -43 V
3 -41 V
2 -41 V
3 -39 V
2 -38 V
3 -37 V
2 -35 V
3 -35 V
2 -34 V
3 -32 V
3 -31 V
2 -31 V
3 -29 V
2 -28 V
3 -27 V
2 -27 V
3 -25 V
2 -24 V
3 -23 V
3 -22 V
2 -22 V
3 -20 V
2 -20 V
3 -18 V
2 -18 V
3 -17 V
2 -16 V
3 -16 V
3 -14 V
2 -14 V
3 -12 V
2 -13 V
3 -11 V
2 -10 V
3 -10 V
3 -9 V
2 -9 V
3 -8 V
2 -7 V
3 -6 V
2 -6 V
stroke 10523 1207 M
3 -5 V
2 -4 V
3 -4 V
3 -3 V
2 -3 V
3 -1 V
2 -2 V
3 -1 V
2 0 V
3 0 V
2 1 V
3 2 V
3 1 V
2 3 V
3 3 V
2 3 V
3 4 V
2 4 V
3 4 V
2 5 V
3 6 V
3 5 V
2 6 V
3 7 V
2 6 V
3 7 V
2 8 V
3 7 V
3 8 V
2 8 V
3 8 V
2 8 V
3 9 V
2 9 V
3 8 V
2 9 V
3 9 V
3 9 V
2 9 V
3 9 V
2 9 V
3 10 V
2 9 V
3 9 V
2 9 V
3 9 V
3 8 V
2 9 V
3 9 V
2 8 V
3 9 V
2 8 V
3 8 V
2 8 V
3 7 V
3 8 V
2 7 V
3 7 V
2 7 V
3 7 V
2 6 V
3 7 V
2 6 V
3 5 V
3 6 V
2 5 V
3 5 V
2 5 V
3 4 V
2 4 V
3 4 V
3 4 V
2 3 V
3 3 V
2 3 V
3 3 V
2 2 V
3 2 V
2 2 V
3 2 V
3 1 V
2 1 V
3 1 V
2 0 V
3 0 V
2 0 V
3 0 V
2 0 V
3 -1 V
3 -1 V
2 -1 V
3 -1 V
2 -2 V
3 -1 V
2 -2 V
3 -2 V
2 -3 V
3 -2 V
3 -3 V
2 -3 V
3 -3 V
2 -3 V
3 -3 V
2 -4 V
stroke 10789 1583 M
3 -3 V
3 -4 V
2 -4 V
3 -4 V
2 -4 V
3 -4 V
2 -5 V
3 -4 V
2 -5 V
3 -4 V
3 -5 V
2 -5 V
3 -5 V
2 -5 V
3 -5 V
2 -5 V
3 -5 V
2 -5 V
3 -5 V
3 -5 V
2 -5 V
3 -6 V
2 -5 V
3 -5 V
2 -5 V
3 -6 V
2 -5 V
3 -5 V
3 -6 V
2 -5 V
3 -5 V
2 -5 V
3 -5 V
2 -6 V
3 -5 V
3 -5 V
2 -5 V
3 -5 V
2 -4 V
3 -5 V
2 -5 V
3 -5 V
2 -4 V
3 -5 V
3 -4 V
2 -4 V
3 -4 V
2 -4 V
3 -4 V
2 -4 V
3 -4 V
2 -4 V
3 -3 V
3 -3 V
2 -4 V
3 -3 V
2 -3 V
3 -2 V
2 -3 V
3 -2 V
2 -3 V
3 -2 V
3 -1 V
2 -2 V
3 -2 V
2 -1 V
3 -1 V
2 -1 V
3 -1 V
3 0 V
2 0 V
3 0 V
2 0 V
3 1 V
2 1 V
3 1 V
2 1 V
3 2 V
3 2 V
2 2 V
3 3 V
2 3 V
3 4 V
2 4 V
3 4 V
2 5 V
3 5 V
3 6 V
2 6 V
3 7 V
2 8 V
3 8 V
2 9 V
3 9 V
2 10 V
3 11 V
3 12 V
2 13 V
3 13 V
2 15 V
3 16 V
2 17 V
3 18 V
2 19 V
stroke 11055 1536 M
3 21 V
3 23 V
2 25 V
3 26 V
2 28 V
3 31 V
2 33 V
3 36 V
3 38 V
2 42 V
3 45 V
2 50 V
3 53 V
2 58 V
3 63 V
2 68 V
3 75 V
3 82 V
2 88 V
3 97 V
2 105 V
3 115 V
2 124 V
3 134 V
2 145 V
3 156 V
3 165 V
2 174 V
3 181 V
2 187 V
3 189 V
2 189 V
3 186 V
2 180 V
3 171 V
3 162 V
2 149 V
3 137 V
2 124 V
3 111 V
2 98 V
3 85 V
3 73 V
2 62 V
3 50 V
2 41 V
3 30 V
2 21 V
3 13 V
2 5 V
3 -3 V
3 -10 V
2 -16 V
3 -23 V
2 -27 V
3 -33 V
2 -38 V
3 -42 V
2 -46 V
3 -50 V
3 -53 V
2 -57 V
3 -59 V
2 -61 V
3 -64 V
2 -66 V
3 -68 V
2 -69 V
3 -71 V
3 -72 V
2 -74 V
3 -74 V
2 -75 V
3 -75 V
2 -76 V
3 -77 V
3 -77 V
2 -77 V
3 -77 V
2 -77 V
3 -77 V
2 -76 V
3 -77 V
2 -75 V
3 -76 V
3 -75 V
2 -74 V
3 -74 V
2 -73 V
3 -73 V
2 -71 V
3 -71 V
2 -70 V
3 -69 V
3 -68 V
2 -67 V
3 -65 V
2 -65 V
3 -64 V
2 -63 V
3 -62 V
2 -60 V
3 -59 V
3 -59 V
stroke 11322 2730 M
2 -57 V
3 -56 V
2 -54 V
3 -54 V
2 -52 V
3 -51 V
2 -50 V
3 -48 V
3 -48 V
2 -46 V
3 -45 V
2 -44 V
3 -43 V
2 -41 V
3 -41 V
3 -39 V
2 -38 V
3 -37 V
2 -35 V
3 -35 V
2 -34 V
3 -32 V
2 -31 V
3 -31 V
3 -29 V
2 -28 V
3 -27 V
2 -27 V
3 -25 V
2 -24 V
3 -23 V
2 -22 V
3 -22 V
3 -20 V
2 -20 V
3 -18 V
2 -18 V
3 -17 V
2 -16 V
3 -16 V
2 -14 V
3 -14 V
3 -12 V
2 -13 V
3 -11 V
2 -10 V
3 -10 V
2 -9 V
3 -9 V
3 -8 V
2 -7 V
3 -6 V
2 -6 V
3 -5 V
2 -4 V
3 -4 V
2 -3 V
3 -3 V
3 -1 V
2 -2 V
3 -1 V
2 0 V
3 0 V
2 1 V
3 2 V
2 1 V
3 3 V
3 3 V
2 3 V
3 4 V
2 4 V
3 4 V
2 5 V
3 6 V
2 5 V
3 6 V
3 7 V
2 6 V
3 7 V
2 8 V
3 7 V
2 8 V
3 8 V
3 8 V
2 8 V
3 9 V
2 9 V
3 8 V
2 9 V
3 9 V
2 9 V
3 9 V
3 9 V
2 9 V
3 10 V
2 9 V
3 9 V
2 9 V
3 9 V
2 8 V
3 9 V
3 9 V
2 8 V
3 9 V
stroke 11588 1467 M
2 8 V
3 8 V
2 8 V
3 7 V
2 8 V
3 7 V
3 7 V
2 7 V
3 7 V
2 6 V
3 7 V
2 6 V
3 5 V
3 6 V
2 5 V
3 5 V
2 5 V
3 4 V
2 4 V
3 4 V
2 4 V
3 3 V
3 3 V
2 3 V
3 3 V
2 2 V
3 2 V
2 2 V
3 2 V
2 1 V
3 1 V
3 1 V
2 0 V
3 0 V
2 0 V
3 0 V
2 0 V
3 -1 V
2 -1 V
3 -1 V
3 -1 V
2 -2 V
3 -1 V
2 -2 V
3 -2 V
2 -3 V
3 -2 V
2 -3 V
3 -3 V
3 -3 V
2 -3 V
3 -3 V
2 -4 V
3 -3 V
2 -4 V
3 -4 V
3 -4 V
2 -4 V
3 -4 V
2 -5 V
3 -4 V
2 -5 V
3 -4 V
2 -5 V
3 -5 V
3 -5 V
2 -5 V
3 -5 V
2 -5 V
3 -5 V
2 -5 V
3 -5 V
2 -5 V
3 -5 V
3 -6 V
2 -5 V
3 -5 V
2 -5 V
3 -6 V
2 -5 V
3 -5 V
2 -6 V
3 -5 V
3 -5 V
2 -5 V
3 -5 V
2 -6 V
3 -5 V
2 -5 V
3 -5 V
3 -5 V
2 -4 V
3 -5 V
2 -5 V
3 -5 V
2 -4 V
3 -5 V
2 -4 V
3 -4 V
3 -4 V
2 -4 V
3 -4 V
2 -4 V
3 -4 V
stroke 11854 1342 M
2 -4 V
3 -3 V
2 -3 V
3 -4 V
3 -3 V
2 -3 V
3 -2 V
2 -3 V
3 -2 V
2 -3 V
3 -2 V
2 -1 V
3 -2 V
3 -2 V
2 -1 V
3 -1 V
2 -1 V
3 -1 V
2 0 V
3 0 V
3 0 V
2 0 V
3 1 V
2 1 V
3 1 V
2 1 V
3 2 V
2 2 V
3 2 V
3 3 V
2 3 V
3 4 V
2 4 V
3 4 V
2 5 V
3 5 V
2 6 V
3 6 V
3 7 V
2 8 V
3 8 V
2 9 V
3 9 V
2 10 V
3 11 V
2 12 V
3 13 V
3 13 V
2 15 V
3 16 V
2 17 V
3 18 V
2 19 V
3 21 V
2 23 V
3 25 V
3 26 V
2 28 V
3 31 V
2 33 V
3 36 V
2 38 V
3 42 V
3 45 V
2 50 V
3 53 V
2 58 V
3 63 V
2 68 V
3 75 V
2 82 V
3 88 V
3 97 V
2 105 V
3 115 V
2 124 V
3 134 V
2 145 V
3 156 V
2 165 V
3 174 V
3 181 V
2 187 V
3 189 V
2 189 V
3 186 V
2 180 V
3 171 V
2 162 V
3 149 V
3 137 V
2 124 V
3 111 V
2 98 V
3 85 V
2 73 V
3 62 V
3 50 V
2 41 V
3 30 V
2 21 V
3 13 V
2 5 V
3 -3 V
stroke 12120 6077 M
2 -10 V
3 -16 V
3 -23 V
2 -27 V
3 -33 V
2 -38 V
3 -42 V
2 -46 V
3 -50 V
2 -53 V
3 -57 V
3 -59 V
2 -61 V
3 -64 V
2 -66 V
3 -68 V
2 -69 V
3 -71 V
2 -72 V
3 -74 V
3 -74 V
2 -75 V
3 -75 V
2 -76 V
3 -77 V
2 -77 V
3 -77 V
3 -77 V
2 -77 V
3 -77 V
2 -76 V
3 -77 V
2 -75 V
3 -76 V
2 -75 V
3 -74 V
3 -74 V
2 -73 V
3 -73 V
2 -71 V
3 -71 V
2 -70 V
3 -69 V
2 -68 V
3 -67 V
3 -65 V
2 -65 V
3 -64 V
2 -63 V
3 -62 V
2 -60 V
3 -59 V
2 -59 V
3 -57 V
3 -56 V
2 -54 V
3 -54 V
2 -52 V
3 -51 V
2 -50 V
3 -48 V
3 -48 V
2 -46 V
3 -45 V
2 -44 V
3 -43 V
2 -41 V
3 -41 V
2 -39 V
3 -38 V
3 -37 V
2 -35 V
3 -35 V
2 -34 V
3 -32 V
2 -31 V
3 -31 V
2 -29 V
3 -28 V
3 -27 V
2 -27 V
3 -25 V
2 -24 V
3 -23 V
2 -22 V
3 -22 V
2 -20 V
3 -20 V
3 -18 V
2 -18 V
3 -17 V
2 -16 V
3 -16 V
2 -14 V
3 -14 V
2 -12 V
3 -13 V
3 -11 V
2 -10 V
3 -10 V
2 -9 V
3 -9 V
2 -8 V
3 -7 V
stroke 12386 1219 M
3 -6 V
2 -6 V
3 -5 V
2 -4 V
3 -4 V
2 -3 V
3 -3 V
2 -1 V
3 -2 V
3 -1 V
2 0 V
3 0 V
2 1 V
3 2 V
2 1 V
3 3 V
2 3 V
3 3 V
3 4 V
2 4 V
3 4 V
2 5 V
3 6 V
2 5 V
3 6 V
2 7 V
3 6 V
3 7 V
2 8 V
3 7 V
2 8 V
3 8 V
2 8 V
3 8 V
3 9 V
2 9 V
3 8 V
2 9 V
3 9 V
2 9 V
3 9 V
2 9 V
3 9 V
3 10 V
2 9 V
3 9 V
2 9 V
3 9 V
2 8 V
3 9 V
2 9 V
3 8 V
3 9 V
2 8 V
3 8 V
2 8 V
3 7 V
2 8 V
3 7 V
2 7 V
3 7 V
3 7 V
2 6 V
3 7 V
2 6 V
3 5 V
2 6 V
3 5 V
3 5 V
2 5 V
3 4 V
2 4 V
3 4 V
2 4 V
3 3 V
2 3 V
3 3 V
3 3 V
2 2 V
3 2 V
2 2 V
3 2 V
2 1 V
3 1 V
2 1 V
3 0 V
3 0 V
2 0 V
3 0 V
2 0 V
3 -1 V
2 -1 V
3 -1 V
2 -1 V
3 -2 V
3 -1 V
2 -2 V
3 -2 V
2 -3 V
3 -2 V
2 -3 V
3 -3 V
3 -3 V
2 -3 V
stroke 12652 1590 M
3 -3 V
2 -4 V
3 -3 V
2 -4 V
3 -4 V
2 -4 V
3 -4 V
3 -4 V
2 -5 V
3 -4 V
2 -5 V
3 -4 V
2 -5 V
3 -5 V
2 -5 V
3 -5 V
3 -5 V
2 -5 V
3 -5 V
2 -5 V
3 -5 V
2 -5 V
3 -5 V
2 -6 V
3 -5 V
3 -5 V
2 -5 V
3 -6 V
2 -5 V
3 -5 V
2 -6 V
3 -5 V
2 -5 V
3 -5 V
3 -5 V
2 -6 V
3 -5 V
2 -5 V
3 -5 V
2 -5 V
3 -4 V
3 -5 V
2 -5 V
3 -5 V
2 -4 V
3 -5 V
2 -4 V
3 -4 V
2 -4 V
3 -4 V
3 -4 V
2 -4 V
3 -4 V
2 -4 V
3 -3 V
2 -3 V
3 -4 V
2 -3 V
3 -3 V
3 -2 V
2 -3 V
3 -2 V
2 -3 V
3 -2 V
2 -1 V
3 -2 V
2 -2 V
3 -1 V
3 -1 V
2 -1 V
3 -1 V
2 0 V
3 0 V
2 0 V
3 0 V
3 1 V
2 1 V
3 1 V
2 1 V
3 2 V
2 2 V
3 2 V
2 3 V
3 3 V
3 4 V
2 4 V
3 4 V
2 5 V
3 5 V
2 6 V
3 6 V
2 7 V
3 8 V
3 8 V
2 9 V
3 9 V
2 10 V
3 11 V
2 12 V
3 13 V
2 13 V
3 15 V
3 16 V
2 17 V
stroke 12918 1499 M
3 18 V
2 19 V
3 21 V
2 23 V
3 25 V
3 26 V
2 28 V
3 31 V
2 33 V
3 36 V
2 38 V
3 42 V
2 45 V
3 50 V
3 53 V
2 58 V
3 63 V
2 68 V
3 75 V
2 82 V
3 88 V
2 97 V
3 105 V
3 115 V
2 124 V
3 134 V
2 145 V
3 156 V
2 165 V
3 174 V
2 181 V
3 187 V
3 189 V
2 189 V
3 186 V
2 180 V
3 171 V
2 162 V
3 149 V
2 137 V
3 124 V
3 111 V
2 98 V
3 85 V
2 73 V
3 62 V
2 50 V
3 41 V
3 30 V
2 21 V
3 13 V
2 5 V
3 -3 V
2 -10 V
3 -16 V
2 -23 V
3 -27 V
3 -33 V
2 -38 V
3 -42 V
2 -46 V
3 -50 V
2 -53 V
3 -57 V
2 -59 V
3 -61 V
3 -64 V
2 -66 V
3 -68 V
2 -69 V
3 -71 V
2 -72 V
3 -73 V
2 -75 V
3 -75 V
3 -75 V
2 -76 V
3 -77 V
2 -77 V
3 -77 V
2 -77 V
3 -77 V
3 -77 V
2 -76 V
3 -76 V
2 -76 V
3 -76 V
2 -75 V
3 -74 V
2 -74 V
3 -73 V
3 -73 V
2 -71 V
3 -71 V
2 -70 V
3 -69 V
2 -68 V
3 -67 V
2 -65 V
3 -65 V
3 -64 V
2 -63 V
3 -62 V
2 -60 V
stroke 13184 2848 M
3 -59 V
2 -59 V
3 -57 V
2 -56 V
3 -54 V
3 -54 V
2 -52 V
3 -51 V
2 -50 V
3 -48 V
2 -48 V
3 -46 V
3 -45 V
2 -44 V
3 -43 V
2 -41 V
3 -41 V
2 -39 V
3 -38 V
2 -37 V
3 -35 V
3 -35 V
2 -34 V
3 -32 V
2 -31 V
3 -31 V
2 -29 V
3 -28 V
2 -27 V
3 -27 V
3 -25 V
2 -24 V
3 -23 V
2 -22 V
3 -22 V
2 -20 V
3 -20 V
2 -18 V
3 -18 V
3 -17 V
2 -16 V
3 -16 V
2 -14 V
3 -14 V
2 -12 V
3 -13 V
3 -11 V
2 -10 V
3 -10 V
2 -9 V
3 -9 V
2 -8 V
3 -7 V
2 -6 V
3 -6 V
3 -5 V
2 -4 V
3 -4 V
2 -3 V
3 -3 V
2 -1 V
3 -2 V
2 -1 V
3 0 V
3 0 V
2 1 V
3 2 V
2 1 V
3 3 V
2 3 V
3 3 V
2 4 V
3 4 V
3 4 V
2 5 V
3 6 V
2 5 V
3 6 V
2 7 V
3 6 V
2 7 V
3 8 V
3 7 V
2 8 V
3 8 V
2 8 V
3 8 V
2 9 V
3 9 V
3 8 V
2 9 V
3 9 V
2 9 V
3 9 V
2 9 V
3 9 V
2 10 V
3 9 V
3 9 V
2 9 V
3 9 V
2 8 V
3 9 V
2 9 V
stroke 13450 1450 M
3 8 V
2 9 V
3 8 V
3 8 V
2 8 V
3 7 V
2 8 V
3 7 V
2 7 V
3 7 V
2 7 V
3 6 V
3 7 V
2 6 V
3 5 V
2 6 V
3 5 V
2 5 V
3 5 V
3 4 V
2 4 V
3 4 V
2 4 V
3 3 V
2 3 V
3 3 V
2 3 V
3 2 V
3 2 V
2 2 V
3 2 V
2 1 V
3 1 V
2 1 V
3 0 V
2 0 V
3 0 V
3 0 V
2 0 V
3 -1 V
2 -1 V
3 -1 V
2 -1 V
3 -2 V
2 -1 V
3 -2 V
3 -2 V
2 -3 V
3 -2 V
2 -3 V
3 -3 V
2 -3 V
3 -3 V
3 -3 V
2 -4 V
3 -3 V
2 -4 V
3 -4 V
2 -4 V
3 -4 V
2 -4 V
3 -5 V
3 -4 V
2 -5 V
3 -4 V
2 -5 V
3 -5 V
2 -5 V
3 -5 V
2 -5 V
3 -5 V
3 -5 V
2 -5 V
3 -5 V
2 -5 V
3 -5 V
2 -6 V
3 -5 V
2 -5 V
3 -5 V
3 -6 V
2 -5 V
3 -5 V
2 -6 V
3 -5 V
2 -5 V
3 -5 V
2 -5 V
3 -6 V
3 -5 V
2 -5 V
3 -5 V
2 -5 V
3 -4 V
2 -5 V
3 -5 V
3 -5 V
2 -4 V
3 -5 V
2 -4 V
3 -4 V
2 -4 V
3 -4 V
2 -4 V
stroke 13716 1350 M
3 -4 V
3 -4 V
2 -4 V
3 -3 V
2 -3 V
3 -4 V
2 -3 V
3 -3 V
2 -2 V
3 -3 V
3 -2 V
2 -3 V
3 -2 V
2 -1 V
3 -2 V
2 -2 V
3 -1 V
2 -1 V
3 -1 V
3 -1 V
2 0 V
3 0 V
2 0 V
3 0 V
2 1 V
3 1 V
3 1 V
2 1 V
3 2 V
2 2 V
3 2 V
2 3 V
3 3 V
2 4 V
3 4 V
3 4 V
2 5 V
3 5 V
2 6 V
3 6 V
2 7 V
3 8 V
2 8 V
3 9 V
3 9 V
2 10 V
3 11 V
2 12 V
3 13 V
2 13 V
3 15 V
2 16 V
3 17 V
3 18 V
2 19 V
3 21 V
2 23 V
3 25 V
2 26 V
3 28 V
3 31 V
2 33 V
3 36 V
2 38 V
3 42 V
2 45 V
3 50 V
2 53 V
3 58 V
3 63 V
2 68 V
3 75 V
2 82 V
3 88 V
2 97 V
3 105 V
2 115 V
3 124 V
3 134 V
2 145 V
3 156 V
2 165 V
3 174 V
2 181 V
3 187 V
2 189 V
3 189 V
3 186 V
2 180 V
3 171 V
2 162 V
3 149 V
2 137 V
3 124 V
3 111 V
2 98 V
3 85 V
2 73 V
3 62 V
2 50 V
3 41 V
2 30 V
3 21 V
3 13 V
stroke 13983 6075 M
2 5 V
3 -3 V
2 -10 V
3 -16 V
2 -23 V
3 -27 V
2 -33 V
stroke
LTb
LCb setrgbcolor
1210 6539 N
0 -5835 V
12793 0 V
0 5835 V
-12793 0 V
Z stroke
1.000 UP
1.000 UL
LTb
stroke
grestore
end
showpage
%%Trailer
