\relax 
\bibcite{LaTeX}{1}
\bibcite{LaTeXD}{2}
\bibcite{METAFONT}{3}
\@writefile{lof}{\contentsline {figure}{\numberline {1}{\ignorespaces Riddled basin of attraction indicating towards plausible unstable invariant subsets on the synchronisation manifold of the coupled oscillator system.}}{1}}
\newlabel{fig1label}{{1}{1}}
