\relax 
\providecommand\tcolorbox@label[2]{}
\newlabel{eq: Model}{{}{2}}
\@writefile{lof}{\contentsline {figure}{\numberline {1}{\ignorespaces Coupling the FHN units\relax }}{2}}
\@writefile{lof}{\contentsline {figure}{\numberline {2}{\ignorespaces The $x$- and $y-$ coordinates of the stable and unstable fixed points for varying coupling strengths. Here $M=M_1+M_2$.\relax }}{2}}
