%!PS-Adobe-3.0 EPSF-3.0
%%Creator: (MATLAB, The Mathworks, Inc. Version 9.0.0.341360 \(R2016a\). Operating System: Linux)
%%Title: /home/arindam/Dropbox/PhD/FHN/3D_Fixed_Points.eps
%%CreationDate: 2016-06-07T11:45:48
%%Pages: (atend)
%%BoundingBox: 0 0 1439 730
%%LanguageLevel: 3
%%EndComments
%%BeginProlog
%%BeginResource: procset (Apache XML Graphics Std ProcSet) 1.2 0
%%Version: 1.2 0
%%Copyright: (Copyright 2001-2003,2010 The Apache Software Foundation. License terms: http://www.apache.org/licenses/LICENSE-2.0)
/bd{bind def}bind def
/ld{load def}bd
/GR/grestore ld
/M/moveto ld
/LJ/setlinejoin ld
/C/curveto ld
/f/fill ld
/LW/setlinewidth ld
/GC/setgray ld
/t/show ld
/N/newpath ld
/CT/concat ld
/cp/closepath ld
/S/stroke ld
/L/lineto ld
/CC/setcmykcolor ld
/A/ashow ld
/GS/gsave ld
/RC/setrgbcolor ld
/RM/rmoveto ld
/ML/setmiterlimit ld
/re {4 2 roll M
1 index 0 rlineto
0 exch rlineto
neg 0 rlineto
cp } bd
/_ctm matrix def
/_tm matrix def
/BT { _ctm currentmatrix pop matrix _tm copy pop 0 0 moveto } bd
/ET { _ctm setmatrix } bd
/iTm { _ctm setmatrix _tm concat } bd
/Tm { _tm astore pop iTm 0 0 moveto } bd
/ux 0.0 def
/uy 0.0 def
/F {
  /Tp exch def
  /Tf exch def
  Tf findfont Tp scalefont setfont
  /cf Tf def  /cs Tp def
} bd
/ULS {currentpoint /uy exch def /ux exch def} bd
/ULE {
  /Tcx currentpoint pop def
  gsave
  newpath
  cf findfont cs scalefont dup
  /FontMatrix get 0 get /Ts exch def /FontInfo get dup
  /UnderlinePosition get Ts mul /To exch def
  /UnderlineThickness get Ts mul /Tt exch def
  ux uy To add moveto  Tcx uy To add lineto
  Tt setlinewidth stroke
  grestore
} bd
/OLE {
  /Tcx currentpoint pop def
  gsave
  newpath
  cf findfont cs scalefont dup
  /FontMatrix get 0 get /Ts exch def /FontInfo get dup
  /UnderlinePosition get Ts mul /To exch def
  /UnderlineThickness get Ts mul /Tt exch def
  ux uy To add cs add moveto Tcx uy To add cs add lineto
  Tt setlinewidth stroke
  grestore
} bd
/SOE {
  /Tcx currentpoint pop def
  gsave
  newpath
  cf findfont cs scalefont dup
  /FontMatrix get 0 get /Ts exch def /FontInfo get dup
  /UnderlinePosition get Ts mul /To exch def
  /UnderlineThickness get Ts mul /Tt exch def
  ux uy To add cs 10 mul 26 idiv add moveto Tcx uy To add cs 10 mul 26 idiv add lineto
  Tt setlinewidth stroke
  grestore
} bd
/QT {
/Y22 exch store
/X22 exch store
/Y21 exch store
/X21 exch store
currentpoint
/Y21 load 2 mul add 3 div exch
/X21 load 2 mul add 3 div exch
/X21 load 2 mul /X22 load add 3 div
/Y21 load 2 mul /Y22 load add 3 div
/X22 load /Y22 load curveto
} bd
/SSPD {
dup length /d exch dict def
{
/v exch def
/k exch def
currentpagedevice k known {
/cpdv currentpagedevice k get def
v cpdv ne {
/upd false def
/nullv v type /nulltype eq def
/nullcpdv cpdv type /nulltype eq def
nullv nullcpdv or
{
/upd true def
} {
/sametype v type cpdv type eq def
sametype {
v type /arraytype eq {
/vlen v length def
/cpdvlen cpdv length def
vlen cpdvlen eq {
0 1 vlen 1 sub {
/i exch def
/obj v i get def
/cpdobj cpdv i get def
obj cpdobj ne {
/upd true def
exit
} if
} for
} {
/upd true def
} ifelse
} {
v type /dicttype eq {
v {
/dv exch def
/dk exch def
/cpddv cpdv dk get def
dv cpddv ne {
/upd true def
exit
} if
} forall
} {
/upd true def
} ifelse
} ifelse
} if
} ifelse
upd true eq {
d k v put
} if
} if
} if
} forall
d length 0 gt {
d setpagedevice
} if
} bd
%%EndResource
%%BeginResource: procset (Apache XML Graphics EPS ProcSet) 1.0 0
%%Version: 1.0 0
%%Copyright: (Copyright 2002-2003 The Apache Software Foundation. License terms: http://www.apache.org/licenses/LICENSE-2.0)
/BeginEPSF { %def
/b4_Inc_state save def         % Save state for cleanup
/dict_count countdictstack def % Count objects on dict stack
/op_count count 1 sub def      % Count objects on operand stack
userdict begin                 % Push userdict on dict stack
/showpage { } def              % Redefine showpage, { } = null proc
0 setgray 0 setlinecap         % Prepare graphics state
1 setlinewidth 0 setlinejoin
10 setmiterlimit [ ] 0 setdash newpath
/languagelevel where           % If level not equal to 1 then
{pop languagelevel             % set strokeadjust and
1 ne                           % overprint to their defaults.
{false setstrokeadjust false setoverprint
} if
} if
} bd
/EndEPSF { %def
count op_count sub {pop} repeat            % Clean up stacks
countdictstack dict_count sub {end} repeat
b4_Inc_state restore
} bd
%%EndResource
%FOPBeginFontDict
%%IncludeResource: font Courier-Bold
%%IncludeResource: font Helvetica
%%IncludeResource: font Courier-BoldOblique
%%IncludeResource: font Courier-Oblique
%%IncludeResource: font Times-Roman
%%IncludeResource: font Helvetica-BoldOblique
%%IncludeResource: font Helvetica-Bold
%%IncludeResource: font Helvetica-Oblique
%%IncludeResource: font Times-BoldItalic
%%IncludeResource: font Courier
%%IncludeResource: font Times-Italic
%%IncludeResource: font Times-Bold
%%IncludeResource: font Symbol
%%IncludeResource: font ZapfDingbats
%FOPEndFontDict
%%BeginResource: encoding WinAnsiEncoding
/WinAnsiEncoding [
/.notdef /.notdef /.notdef /.notdef /.notdef
/.notdef /.notdef /.notdef /.notdef /.notdef
/.notdef /.notdef /.notdef /.notdef /.notdef
/.notdef /.notdef /.notdef /.notdef /.notdef
/.notdef /.notdef /.notdef /.notdef /.notdef
/.notdef /.notdef /.notdef /.notdef /.notdef
/.notdef /.notdef /space /exclam /quotedbl
/numbersign /dollar /percent /ampersand /quotesingle
/parenleft /parenright /asterisk /plus /comma
/hyphen /period /slash /zero /one
/two /three /four /five /six
/seven /eight /nine /colon /semicolon
/less /equal /greater /question /at
/A /B /C /D /E
/F /G /H /I /J
/K /L /M /N /O
/P /Q /R /S /T
/U /V /W /X /Y
/Z /bracketleft /backslash /bracketright /asciicircum
/underscore /quoteleft /a /b /c
/d /e /f /g /h
/i /j /k /l /m
/n /o /p /q /r
/s /t /u /v /w
/x /y /z /braceleft /bar
/braceright /asciitilde /bullet /Euro /bullet
/quotesinglbase /florin /quotedblbase /ellipsis /dagger
/daggerdbl /circumflex /perthousand /Scaron /guilsinglleft
/OE /bullet /Zcaron /bullet /bullet
/quoteleft /quoteright /quotedblleft /quotedblright /bullet
/endash /emdash /asciitilde /trademark /scaron
/guilsinglright /oe /bullet /zcaron /Ydieresis
/space /exclamdown /cent /sterling /currency
/yen /brokenbar /section /dieresis /copyright
/ordfeminine /guillemotleft /logicalnot /sfthyphen /registered
/macron /degree /plusminus /twosuperior /threesuperior
/acute /mu /paragraph /middot /cedilla
/onesuperior /ordmasculine /guillemotright /onequarter /onehalf
/threequarters /questiondown /Agrave /Aacute /Acircumflex
/Atilde /Adieresis /Aring /AE /Ccedilla
/Egrave /Eacute /Ecircumflex /Edieresis /Igrave
/Iacute /Icircumflex /Idieresis /Eth /Ntilde
/Ograve /Oacute /Ocircumflex /Otilde /Odieresis
/multiply /Oslash /Ugrave /Uacute /Ucircumflex
/Udieresis /Yacute /Thorn /germandbls /agrave
/aacute /acircumflex /atilde /adieresis /aring
/ae /ccedilla /egrave /eacute /ecircumflex
/edieresis /igrave /iacute /icircumflex /idieresis
/eth /ntilde /ograve /oacute /ocircumflex
/otilde /odieresis /divide /oslash /ugrave
/uacute /ucircumflex /udieresis /yacute /thorn
/ydieresis
] def
%%EndResource
%FOPBeginFontReencode
/Courier-Bold findfont
dup length dict begin
  {1 index /FID ne {def} {pop pop} ifelse} forall
  /Encoding WinAnsiEncoding def
  currentdict
end
/Courier-Bold exch definefont pop
/Helvetica findfont
dup length dict begin
  {1 index /FID ne {def} {pop pop} ifelse} forall
  /Encoding WinAnsiEncoding def
  currentdict
end
/Helvetica exch definefont pop
/Courier-BoldOblique findfont
dup length dict begin
  {1 index /FID ne {def} {pop pop} ifelse} forall
  /Encoding WinAnsiEncoding def
  currentdict
end
/Courier-BoldOblique exch definefont pop
/Courier-Oblique findfont
dup length dict begin
  {1 index /FID ne {def} {pop pop} ifelse} forall
  /Encoding WinAnsiEncoding def
  currentdict
end
/Courier-Oblique exch definefont pop
/Times-Roman findfont
dup length dict begin
  {1 index /FID ne {def} {pop pop} ifelse} forall
  /Encoding WinAnsiEncoding def
  currentdict
end
/Times-Roman exch definefont pop
/Helvetica-BoldOblique findfont
dup length dict begin
  {1 index /FID ne {def} {pop pop} ifelse} forall
  /Encoding WinAnsiEncoding def
  currentdict
end
/Helvetica-BoldOblique exch definefont pop
/Helvetica-Bold findfont
dup length dict begin
  {1 index /FID ne {def} {pop pop} ifelse} forall
  /Encoding WinAnsiEncoding def
  currentdict
end
/Helvetica-Bold exch definefont pop
/Helvetica-Oblique findfont
dup length dict begin
  {1 index /FID ne {def} {pop pop} ifelse} forall
  /Encoding WinAnsiEncoding def
  currentdict
end
/Helvetica-Oblique exch definefont pop
/Times-BoldItalic findfont
dup length dict begin
  {1 index /FID ne {def} {pop pop} ifelse} forall
  /Encoding WinAnsiEncoding def
  currentdict
end
/Times-BoldItalic exch definefont pop
/Courier findfont
dup length dict begin
  {1 index /FID ne {def} {pop pop} ifelse} forall
  /Encoding WinAnsiEncoding def
  currentdict
end
/Courier exch definefont pop
/Times-Italic findfont
dup length dict begin
  {1 index /FID ne {def} {pop pop} ifelse} forall
  /Encoding WinAnsiEncoding def
  currentdict
end
/Times-Italic exch definefont pop
/Times-Bold findfont
dup length dict begin
  {1 index /FID ne {def} {pop pop} ifelse} forall
  /Encoding WinAnsiEncoding def
  currentdict
end
/Times-Bold exch definefont pop
%FOPEndFontReencode
%%EndProlog
%%Page: 1 1
%%PageBoundingBox: 0 0 1439 730
%%BeginPageSetup
[1 0 0 -1 0 730] CT
%%EndPageSetup
GS
[0.75 0 0 0.75 0 0.25] CT
N
0 0 M
1918 0 L
1918 973 L
0 973 L
0 0 L
cp
clip
1 GC
N
0 0 1918 973 re
f
GR
GS
[0.75 0 0 0.75 0 0.25] CT
1 GC
N
0 0 1918 973 re
f
GR
GS
[0.75 0 0 0.75 0 0.25] CT
1 GC
N
370.829 866 M
1736 863.628 L
1614.171 837.053 L
249 839.424 L
cp
f
GR
GS
[0.75 0 0 0.75 0 0.25] CT
1 GC
N
249 839.424 M
1614.171 837.053 L
1614.171 73 L
249 75.372 L
cp
f
GR
GS
[0.75 0 0 0.75 0 0.25] CT
1 GC
N
1614.171 837.053 M
1736 863.628 L
1736 99.576 L
1614.171 73 L
cp
f
GR
GS
[0.75 0 0 0.75 0 0.25] CT
0.873 GC
1 LJ
0.667 LW
N
370.829 866 M
249 839.424 L
S
GR
GS
[0.75 0 0 0.75 0 0.25] CT
0.873 GC
1 LJ
0.667 LW
N
565.853 865.661 M
444.024 839.086 L
S
GR
GS
[0.75 0 0 0.75 0 0.25] CT
0.873 GC
1 LJ
0.667 LW
N
760.878 865.322 M
639.049 838.747 L
S
GR
GS
[0.75 0 0 0.75 0 0.25] CT
0.873 GC
1 LJ
0.667 LW
N
955.902 864.984 M
834.073 838.408 L
S
GR
GS
[0.75 0 0 0.75 0 0.25] CT
0.873 GC
1 LJ
0.667 LW
N
1150.927 864.645 M
1029.098 838.069 L
S
GR
GS
[0.75 0 0 0.75 0 0.25] CT
0.873 GC
1 LJ
0.667 LW
N
1345.951 864.306 M
1224.122 837.73 L
S
GR
GS
[0.75 0 0 0.75 0 0.25] CT
0.873 GC
1 LJ
0.667 LW
N
1540.976 863.967 M
1419.147 837.391 L
S
GR
GS
[0.75 0 0 0.75 0 0.25] CT
0.873 GC
1 LJ
0.667 LW
N
1736 863.628 M
1614.171 837.053 L
S
GR
GS
[0.75 0 0 0.75 0 0.25] CT
0.873 GC
1 LJ
0.667 LW
N
249 839.424 M
249 75.372 L
S
GR
GS
[0.75 0 0 0.75 0 0.25] CT
0.873 GC
1 LJ
0.667 LW
N
444.024 839.086 M
444.024 75.033 L
S
GR
GS
[0.75 0 0 0.75 0 0.25] CT
0.873 GC
1 LJ
0.667 LW
N
639.049 838.747 M
639.049 74.694 L
S
GR
GS
[0.75 0 0 0.75 0 0.25] CT
0.873 GC
1 LJ
0.667 LW
N
834.073 838.408 M
834.073 74.355 L
S
GR
GS
[0.75 0 0 0.75 0 0.25] CT
0.873 GC
1 LJ
0.667 LW
N
1029.098 838.069 M
1029.098 74.016 L
S
GR
GS
[0.75 0 0 0.75 0 0.25] CT
0.873 GC
1 LJ
0.667 LW
N
1224.122 837.73 M
1224.122 73.678 L
S
GR
GS
[0.75 0 0 0.75 0 0.25] CT
0.873 GC
1 LJ
0.667 LW
N
1419.147 837.391 M
1419.147 73.339 L
S
GR
GS
[0.75 0 0 0.75 0 0.25] CT
0.873 GC
1 LJ
0.667 LW
N
1614.171 837.053 M
1614.171 73 L
S
GR
GS
[0.75 0 0 0.75 0 0.25] CT
0.873 GC
1 LJ
0.667 LW
N
1736 863.628 M
370.829 866 L
S
GR
GS
[0.75 0 0 0.75 0 0.25] CT
0.873 GC
1 LJ
0.667 LW
N
1675.086 850.341 M
309.914 852.712 L
S
GR
GS
[0.75 0 0 0.75 0 0.25] CT
0.873 GC
1 LJ
0.667 LW
N
1614.171 837.053 M
249 839.424 L
S
GR
GS
[0.75 0 0 0.75 0 0.25] CT
0.873 GC
1 LJ
0.667 LW
N
1736 99.576 M
1736 863.628 L
S
GR
GS
[0.75 0 0 0.75 0 0.25] CT
0.873 GC
1 LJ
0.667 LW
N
1675.086 86.288 M
1675.086 850.341 L
S
GR
GS
[0.75 0 0 0.75 0 0.25] CT
0.873 GC
1 LJ
0.667 LW
N
1614.171 73 M
1614.171 837.053 L
S
GR
GS
[0.75 0 0 0.75 0 0.25] CT
0.873 GC
1 LJ
0.667 LW
N
1614.171 837.053 M
249 839.424 L
S
GR
GS
[0.75 0 0 0.75 0 0.25] CT
0.873 GC
1 LJ
0.667 LW
N
1614.171 727.902 M
249 730.274 L
S
GR
GS
[0.75 0 0 0.75 0 0.25] CT
0.873 GC
1 LJ
0.667 LW
N
1614.171 618.752 M
249 621.124 L
S
GR
GS
[0.75 0 0 0.75 0 0.25] CT
0.873 GC
1 LJ
0.667 LW
N
1614.171 509.602 M
249 511.973 L
S
GR
GS
[0.75 0 0 0.75 0 0.25] CT
0.873 GC
1 LJ
0.667 LW
N
1614.171 400.451 M
249 402.823 L
S
GR
GS
[0.75 0 0 0.75 0 0.25] CT
0.873 GC
1 LJ
0.667 LW
N
1614.171 291.301 M
249 293.672 L
S
GR
GS
[0.75 0 0 0.75 0 0.25] CT
0.873 GC
1 LJ
0.667 LW
N
1614.171 182.15 M
249 184.522 L
S
GR
GS
[0.75 0 0 0.75 0 0.25] CT
0.873 GC
1 LJ
0.667 LW
N
1614.171 73 M
249 75.372 L
S
GR
GS
[0.75 0 0 0.75 0 0.25] CT
0.873 GC
1 LJ
0.667 LW
N
1736 863.628 M
1614.171 837.053 L
S
GR
GS
[0.75 0 0 0.75 0 0.25] CT
0.873 GC
1 LJ
0.667 LW
N
1736 754.478 M
1614.171 727.902 L
S
GR
GS
[0.75 0 0 0.75 0 0.25] CT
0.873 GC
1 LJ
0.667 LW
N
1736 645.328 M
1614.171 618.752 L
S
GR
GS
[0.75 0 0 0.75 0 0.25] CT
0.873 GC
1 LJ
0.667 LW
N
1736 536.177 M
1614.171 509.602 L
S
GR
GS
[0.75 0 0 0.75 0 0.25] CT
0.873 GC
1 LJ
0.667 LW
N
1736 427.027 M
1614.171 400.451 L
S
GR
GS
[0.75 0 0 0.75 0 0.25] CT
0.873 GC
1 LJ
0.667 LW
N
1736 317.876 M
1614.171 291.301 L
S
GR
GS
[0.75 0 0 0.75 0 0.25] CT
0.873 GC
1 LJ
0.667 LW
N
1736 208.726 M
1614.171 182.15 L
S
GR
GS
[0.75 0 0 0.75 0 0.25] CT
0.873 GC
1 LJ
0.667 LW
N
1736 99.576 M
1614.171 73 L
S
GR
GS
[0.75 0 0 0.75 157.83301 623.5103] CT
0.149 GC
/Helvetica 13.333 F
GS
[1 0 0 1 0 0] CT
-26 4.5 moveto 
1 -1 scale
(-0.4) t 
GR
GR
GS
[0.75 0 0 0.75 157.83301 541.64751] CT
0.149 GC
/Helvetica 13.333 F
GS
[1 0 0 1 0 0] CT
-26 4.5 moveto 
1 -1 scale
(-0.2) t 
GR
GR
GS
[0.75 0 0 0.75 157.83301 459.78471] CT
0.149 GC
/Helvetica 13.333 F
GS
[1 0 0 1 0 0] CT
-9 4.5 moveto 
1 -1 scale
(0) t 
GR
GR
GS
[0.75 0 0 0.75 157.83301 377.92194] CT
0.149 GC
/Helvetica 13.333 F
GS
[1 0 0 1 0 0] CT
-21 4.5 moveto 
1 -1 scale
(0.2) t 
GR
GR
GS
[0.75 0 0 0.75 157.83301 296.05915] CT
0.149 GC
/Helvetica 13.333 F
GS
[1 0 0 1 0 0] CT
-21 4.5 moveto 
1 -1 scale
(0.4) t 
GR
GR
GS
[0.75 0 0 0.75 157.83301 214.19636] CT
0.149 GC
/Helvetica 13.333 F
GS
[1 0 0 1 0 0] CT
-21 4.5 moveto 
1 -1 scale
(0.6) t 
GR
GR
GS
[0.75 0 0 0.75 157.83301 132.33358] CT
0.149 GC
/Helvetica 13.333 F
GS
[1 0 0 1 0 0] CT
-21 4.5 moveto 
1 -1 scale
(0.8) t 
GR
GR
GS
[0.75 0 0 0.75 157.83301 50.47079] CT
0.149 GC
/Helvetica 13.333 F
GS
[1 0 0 1 0 0] CT
-9 4.5 moveto 
1 -1 scale
(1) t 
GR
GR
GS
[0.75 0 0 0.75 0 0.25] CT
0.149 GC
2 setlinecap
1 LJ
0.667 LW
N
249 839.424 M
215.655 832.15 L
S
GR
GS
[0.75 0 0 0.75 0 0.25] CT
0.149 GC
1 setlinecap
1 LJ
0.667 LW
N
249 730.274 M
215.655 723 L
S
GR
GS
[0.75 0 0 0.75 0 0.25] CT
0.149 GC
1 setlinecap
1 LJ
0.667 LW
N
249 621.124 M
215.655 613.85 L
S
GR
GS
[0.75 0 0 0.75 0 0.25] CT
0.149 GC
1 setlinecap
1 LJ
0.667 LW
N
249 511.973 M
215.655 504.699 L
S
GR
GS
[0.75 0 0 0.75 0 0.25] CT
0.149 GC
1 setlinecap
1 LJ
0.667 LW
N
249 402.823 M
215.655 395.549 L
S
GR
GS
[0.75 0 0 0.75 0 0.25] CT
0.149 GC
1 setlinecap
1 LJ
0.667 LW
N
249 293.672 M
215.655 286.398 L
S
GR
GS
[0.75 0 0 0.75 0 0.25] CT
0.149 GC
1 setlinecap
1 LJ
0.667 LW
N
249 184.522 M
215.655 177.248 L
S
GR
GS
[0.75 0 0 0.75 0 0.25] CT
0.149 GC
2 setlinecap
1 LJ
0.667 LW
N
249 75.372 M
215.655 68.098 L
S
GR
GS
[0.75 0 0 0.75 0 0.25] CT
0.506 GC
N
325.143 856.034 M
249 839.424 L
1614.171 73 L
1690.314 89.61 L
cp
f
GR
GS
[0.75 0 0 0.75 0 0.25] CT
2 setlinecap
1 LJ
0.667 LW
N
249 839.424 M
1614.171 73 L
S
GR
GS
[0.75 0 0 0.75 0 0.25] CT
2 setlinecap
1 LJ
0.667 LW
N
1690.314 89.61 M
1614.171 73 L
S
GR
GS
[0.75 0 0 0.75 186.75 659.41522] CT
0.149 GC
/Helvetica 13.333 F
GS
[1 0 0 1 0 0] CT
-21 13 moveto 
1 -1 scale
(0.2) t 
GR
GR
GS
[0.75 0 0 0.75 0 0.25] CT
0.149 GC
2 setlinecap
1 LJ
0.667 LW
N
249 839.424 M
249 873.554 L
S
GR
GS
[0.75 0 0 0.75 0 0.25] CT
0.149 GC
2 setlinecap
1 LJ
0.667 LW
N
370.829 866 M
249 839.424 L
S
GR
GS
[0.75 0 0 0.75 0 0.25] CT
2 setlinecap
1 LJ
0.667 LW
N
325.143 856.034 M
249 839.424 L
S
GR
GS
[0.75 0 0 0.75 0 0.25] CT
0.149 GC
2 setlinecap
1 LJ
0.667 LW
N
249 839.424 M
249 75.372 L
S
GR
GS
[0.75 0 0 0.75 0 0.25] CT
N
1302.5 698.5 M
1299.167 692.727 L
1296.726 695.167 L
cp
f
GR
GS
[0.75 0 0 0.75 0 0.25] CT
N
1302.5 698.5 M
1309.167 698.5 L
1308.274 695.167 L
cp
f
GR
GS
[0.75 0 0 0.75 0 0.25] CT
N
1302.5 698.5 M
1308.274 695.167 L
1305.833 692.727 L
cp
f
GR
GS
[0.75 0 0 0.75 0 0.25] CT
N
1302.5 698.5 M
1305.833 692.727 L
1302.5 691.833 L
cp
f
GR
GS
[0.75 0 0 0.75 0 0.25] CT
N
1302.5 698.5 M
1302.5 691.833 L
1299.167 692.727 L
cp
f
GR
GS
[0.75 0 0 0.75 0 0.25] CT
N
1302.5 698.5 M
1296.726 695.167 L
1295.833 698.5 L
cp
f
GR
GS
[0.75 0 0 0.75 0 0.25] CT
N
1302.5 698.5 M
1308.274 701.833 L
1309.167 698.5 L
cp
f
GR
GS
[0.75 0 0 0.75 0 0.25] CT
2 setlinecap
1 LJ
N
1308.274 701.833 M
1309.167 698.5 L
S
GR
GS
[0.75 0 0 0.75 0 0.25] CT
N
1302.5 698.5 M
1305.833 704.273 L
1308.274 701.833 L
cp
f
GR
GS
[0.75 0 0 0.75 0 0.25] CT
2 setlinecap
1 LJ
N
1305.833 704.273 M
1308.274 701.833 L
S
GR
GS
[0.75 0 0 0.75 0 0.25] CT
N
1302.5 698.5 M
1302.5 705.167 L
1305.833 704.273 L
cp
f
GR
GS
[0.75 0 0 0.75 0 0.25] CT
2 setlinecap
1 LJ
N
1302.5 705.167 M
1305.833 704.273 L
S
GR
GS
[0.75 0 0 0.75 0 0.25] CT
N
1302.5 698.5 M
1299.167 704.273 L
1302.5 705.167 L
cp
f
GR
GS
[0.75 0 0 0.75 0 0.25] CT
2 setlinecap
1 LJ
N
1299.167 704.273 M
1302.5 705.167 L
S
GR
GS
[0.75 0 0 0.75 0 0.25] CT
N
1302.5 698.5 M
1296.726 701.833 L
1299.167 704.273 L
cp
f
GR
GS
[0.75 0 0 0.75 0 0.25] CT
2 setlinecap
1 LJ
N
1296.726 701.833 M
1299.167 704.273 L
S
GR
GS
[0.75 0 0 0.75 0 0.25] CT
N
1302.5 698.5 M
1295.833 698.5 L
1296.726 701.833 L
cp
f
GR
GS
[0.75 0 0 0.75 0 0.25] CT
2 setlinecap
1 LJ
N
1295.833 698.5 M
1296.726 701.833 L
S
GR
GS
[0.75 0 0 0.75 0 0.25] CT
2 setlinecap
1 LJ
N
1296.726 695.167 M
1295.833 698.5 L
S
GR
GS
[0.75 0 0 0.75 0 0.25] CT
2 setlinecap
1 LJ
N
1299.167 692.727 M
1296.726 695.167 L
S
GR
GS
[0.75 0 0 0.75 0 0.25] CT
2 setlinecap
1 LJ
N
1302.5 691.833 M
1299.167 692.727 L
S
GR
GS
[0.75 0 0 0.75 0 0.25] CT
2 setlinecap
1 LJ
N
1305.833 692.727 M
1302.5 691.833 L
S
GR
GS
[0.75 0 0 0.75 0 0.25] CT
2 setlinecap
1 LJ
N
1308.274 695.167 M
1305.833 692.727 L
S
GR
GS
[0.75 0 0 0.75 0 0.25] CT
1 LJ
N
1309.167 698.5 M
1308.274 695.167 L
S
GR
GS
[0.75 0 0 0.75 0 0.25] CT
1 LJ
N
981.167 671.5 M
980.273 668.167 L
S
GR
GS
[0.75 0 0 0.75 0 0.25] CT
1 setlinecap
1 LJ
N
980.273 668.167 M
977.833 665.727 L
S
GR
GS
[0.75 0 0 0.75 0 0.25] CT
1 setlinecap
1 LJ
N
974.5 664.833 M
971.167 665.727 L
S
GR
GS
[0.75 0 0 0.75 0 0.25] CT
1 setlinecap
1 LJ
N
971.167 665.727 M
968.727 668.167 L
S
GR
GS
[0.75 0 0 0.75 0 0.25] CT
1 setlinecap
1 LJ
N
968.727 668.167 M
967.833 671.5 L
S
GR
GS
[0.75 0 0 0.75 0 0.25] CT
1 setlinecap
1 LJ
N
967.833 671.5 M
968.727 674.833 L
S
GR
GS
[0.75 0 0 0.75 0 0.25] CT
1 setlinecap
1 LJ
N
968.727 674.833 M
971.167 677.273 L
S
GR
GS
[0.75 0 0 0.75 0 0.25] CT
1 setlinecap
1 LJ
N
971.167 677.273 M
974.5 678.167 L
S
GR
GS
[0.75 0 0 0.75 0 0.25] CT
1 setlinecap
1 LJ
N
974.5 678.167 M
977.833 677.273 L
S
GR
GS
[0.75 0 0 0.75 0 0.25] CT
1 setlinecap
1 LJ
N
977.833 677.273 M
980.273 674.833 L
S
GR
GS
[0.75 0 0 0.75 0 0.25] CT
1 LJ
N
980.273 674.833 M
981.167 671.5 L
S
GR
GS
[0.75 0 0 0.75 0 0.25] CT
1 setlinecap
1 LJ
N
977.833 665.727 M
974.5 664.833 L
S
GR
GS
[0.75 0 0 0.75 0 0.25] CT
N
557.5 270.5 M
560.833 264.727 L
557.5 263.833 L
cp
f
GR
GS
[0.75 0 0 0.75 0 0.25] CT
1 setlinecap
1 LJ
N
560.833 264.727 M
557.5 263.833 L
S
GR
GS
[0.75 0 0 0.75 0 0.25] CT
N
557.5 270.5 M
554.167 276.273 L
557.5 277.167 L
cp
f
GR
GS
[0.75 0 0 0.75 0 0.25] CT
1 setlinecap
1 LJ
N
554.167 276.273 M
557.5 277.167 L
S
GR
GS
[0.75 0 0 0.75 0 0.25] CT
N
557.5 270.5 M
563.273 267.167 L
560.833 264.727 L
cp
f
GR
GS
[0.75 0 0 0.75 0 0.25] CT
1 setlinecap
1 LJ
N
563.273 267.167 M
560.833 264.727 L
S
GR
GS
[0.75 0 0 0.75 0 0.25] CT
N
557.5 270.5 M
564.167 270.5 L
563.273 267.167 L
cp
f
GR
GS
[0.75 0 0 0.75 0 0.25] CT
1 setlinecap
1 LJ
N
564.167 270.5 M
563.273 267.167 L
S
GR
GS
[0.75 0 0 0.75 0 0.25] CT
N
557.5 270.5 M
563.273 273.833 L
564.167 270.5 L
cp
f
GR
GS
[0.75 0 0 0.75 0 0.25] CT
N
557.5 270.5 M
560.833 276.273 L
563.273 273.833 L
cp
f
GR
GS
[0.75 0 0 0.75 0 0.25] CT
N
557.5 270.5 M
557.5 277.167 L
560.833 276.273 L
cp
f
GR
GS
[0.75 0 0 0.75 0 0.25] CT
N
557.5 270.5 M
557.5 263.833 L
554.167 264.727 L
cp
f
GR
GS
[0.75 0 0 0.75 0 0.25] CT
1 setlinecap
1 LJ
N
557.5 263.833 M
554.167 264.727 L
S
GR
GS
[0.75 0 0 0.75 0 0.25] CT
N
557.5 270.5 M
554.167 264.727 L
551.727 267.167 L
cp
f
GR
GS
[0.75 0 0 0.75 0 0.25] CT
1 setlinecap
1 LJ
N
554.167 264.727 M
551.727 267.167 L
S
GR
GS
[0.75 0 0 0.75 0 0.25] CT
N
557.5 270.5 M
551.727 267.167 L
550.833 270.5 L
cp
f
GR
GS
[0.75 0 0 0.75 0 0.25] CT
1 setlinecap
1 LJ
N
551.727 267.167 M
550.833 270.5 L
S
GR
GS
[0.75 0 0 0.75 0 0.25] CT
N
557.5 270.5 M
550.833 270.5 L
551.727 273.833 L
cp
f
GR
GS
[0.75 0 0 0.75 0 0.25] CT
1 setlinecap
1 LJ
N
550.833 270.5 M
551.727 273.833 L
S
GR
GS
[0.75 0 0 0.75 0 0.25] CT
N
557.5 270.5 M
551.727 273.833 L
554.167 276.273 L
cp
f
GR
GS
[0.75 0 0 0.75 0 0.25] CT
1 setlinecap
1 LJ
N
551.727 273.833 M
554.167 276.273 L
S
GR
GS
[0.75 0 0 0.75 0 0.25] CT
1 setlinecap
1 LJ
N
557.5 277.167 M
560.833 276.273 L
S
GR
GS
[0.75 0 0 0.75 0 0.25] CT
1 setlinecap
1 LJ
N
560.833 276.273 M
563.273 273.833 L
S
GR
GS
[0.75 0 0 0.75 0 0.25] CT
1 LJ
N
563.273 273.833 M
564.167 270.5 L
S
GR
GS
[0.75 0 0 0.75 0 0.25] CT
1 LJ
N
627.273 471.833 M
628.167 468.5 L
S
GR
GS
[0.75 0 0 0.75 0 0.25] CT
1 setlinecap
1 LJ
N
624.833 474.273 M
627.273 471.833 L
S
GR
GS
[0.75 0 0 0.75 0 0.25] CT
1 LJ
N
628.167 468.5 M
627.273 465.167 L
S
GR
GS
[0.75 0 0 0.75 0 0.25] CT
1 setlinecap
1 LJ
N
627.273 465.167 M
624.833 462.727 L
S
GR
GS
[0.75 0 0 0.75 0 0.25] CT
1 setlinecap
1 LJ
N
624.833 462.727 M
621.5 461.833 L
S
GR
GS
[0.75 0 0 0.75 0 0.25] CT
1 setlinecap
1 LJ
N
621.5 461.833 M
618.167 462.727 L
S
GR
GS
[0.75 0 0 0.75 0 0.25] CT
1 setlinecap
1 LJ
N
618.167 462.727 M
615.727 465.167 L
S
GR
GS
[0.75 0 0 0.75 0 0.25] CT
1 setlinecap
1 LJ
N
615.727 465.167 M
614.833 468.5 L
S
GR
GS
[0.75 0 0 0.75 0 0.25] CT
1 setlinecap
1 LJ
N
614.833 468.5 M
615.727 471.833 L
S
GR
GS
[0.75 0 0 0.75 0 0.25] CT
1 setlinecap
1 LJ
N
615.727 471.833 M
618.167 474.273 L
S
GR
GS
[0.75 0 0 0.75 0 0.25] CT
1 setlinecap
1 LJ
N
618.167 474.273 M
621.5 475.167 L
S
GR
GS
[0.75 0 0 0.75 0 0.25] CT
1 setlinecap
1 LJ
N
621.5 475.167 M
624.833 474.273 L
S
GR
GS
[0.75 0 0 0.75 232.43582 669.3811] CT
0.149 GC
/Helvetica 13.333 F
GS
[1 0 0 1 0 0] CT
-9 13 moveto 
1 -1 scale
(0) t 
GR
GR
GS
[0.75 0 0 0.75 0 0.25] CT
0.149 GC
1 setlinecap
1 LJ
0.667 LW
N
309.914 852.712 M
309.914 886.841 L
S
GR
GS
[0.75 0 0 0.75 0 0.25] CT
1 LJ
0.667 LW
N
325.143 856.034 M
1690.314 89.61 L
S
GR
GS
[0.75 0 0 0.75 1302 677.5683] CT
0.149 GC
/Helvetica 13.333 F
GS
[1 0 0 1 0 0] CT
-4.5 13 moveto 
1 -1 scale
(1) t 
GR
GR
GS
[0.75 0 0 0.75 0 0.25] CT
0.149 GC
1 LJ
0.667 LW
N
1736 863.628 M
1736 897.758 L
S
GR
GS
[0.75 0 0 0.75 0 0.25] CT
0.149 GC
1 LJ
0.667 LW
N
370.829 866 M
1736 863.628 L
S
GR
GS
[0.75 0 0 0.75 1155.73169 677.8224] CT
0.149 GC
/Helvetica 13.333 F
GS
[1 0 0 1 0 0] CT
-10.5 13 moveto 
1 -1 scale
(0.8) t 
GR
GR
GS
[0.75 0 0 0.75 0 0.25] CT
0.149 GC
1 setlinecap
1 LJ
0.667 LW
N
1540.976 863.967 M
1540.976 898.096 L
S
GR
GS
[0.75 0 0 0.75 1009.46338 678.07651] CT
0.149 GC
/Helvetica 13.333 F
GS
[1 0 0 1 0 0] CT
-10.5 13 moveto 
1 -1 scale
(0.6) t 
GR
GR
GS
[0.75 0 0 0.75 0 0.25] CT
0.149 GC
1 setlinecap
1 LJ
0.667 LW
N
1345.951 864.306 M
1345.951 898.435 L
S
GR
GS
[0.75 0 0 0.75 863.19498 678.33061] CT
0.149 GC
/Helvetica 13.333 F
GS
[1 0 0 1 0 0] CT
-10.5 13 moveto 
1 -1 scale
(0.4) t 
GR
GR
GS
[0.75 0 0 0.75 0 0.25] CT
0.149 GC
1 setlinecap
1 LJ
0.667 LW
N
1150.927 864.645 M
1150.927 898.774 L
S
GR
GS
[0.75 0 0 0.75 716.92667 678.58472] CT
0.149 GC
/Helvetica 13.333 F
GS
[1 0 0 1 0 0] CT
-10.5 13 moveto 
1 -1 scale
(0.2) t 
GR
GR
GS
[0.75 0 0 0.75 0 0.25] CT
0.149 GC
1 setlinecap
1 LJ
0.667 LW
N
955.902 864.984 M
955.902 899.113 L
S
GR
GS
[0.75 0 0 0.75 570.65836 678.83878] CT
0.149 GC
/Helvetica 13.333 F
GS
[1 0 0 1 0 0] CT
-4.5 13 moveto 
1 -1 scale
(0) t 
GR
GR
GS
[0.75 0 0 0.75 0 0.25] CT
0.149 GC
1 setlinecap
1 LJ
0.667 LW
N
760.878 865.322 M
760.878 899.452 L
S
GR
GS
[0.75 0 0 0.75 424.39 679.09288] CT
0.149 GC
/Helvetica 13.333 F
GS
[1 0 0 1 0 0] CT
-13 13 moveto 
1 -1 scale
(-0.2) t 
GR
GR
GS
[0.75 0 0 0.75 0 0.25] CT
0.149 GC
1 setlinecap
1 LJ
0.667 LW
N
565.853 865.661 M
565.853 899.791 L
S
GR
GS
[0.75 0 0 0.75 278.12167 679.34698] CT
0.149 GC
/Helvetica 13.333 F
GS
[1 0 0 1 0 0] CT
-13 13 moveto 
1 -1 scale
(-0.4) t 
GR
GR
GS
[0.75 0 0 0.75 278.12167 679.34698] CT
0.149 GC
/Helvetica 13.333 F
GS
[1 0 0 1 0 0] CT
-26 13 moveto 
1 -1 scale
(-0.2) t 
GR
GR
GS
[0.75 0 0 0.75 0 0.25] CT
0.149 GC
2 setlinecap
1 LJ
0.667 LW
N
370.829 866 M
370.829 900.129 L
S
GR
GS
[0.75 0 0 0.75 0 0.25] CT
0.149 GC
2 setlinecap
1 LJ
0.667 LW
N
370.829 866 M
370.829 900.129 L
S
GR
%%Trailer
%%Pages: 1
%%EOF
