%!PS-Adobe-3.0 EPSF-3.0
%%Creator: (MATLAB, The Mathworks, Inc. Version 9.0.0.341360 \(R2016a\). Operating System: Linux)
%%Title: /home/arindam/Dropbox/PhD/FHN/Invariant_Manifold.eps
%%CreationDate: 2016-06-07T11:41:50
%%Pages: (atend)
%%BoundingBox: 0 0 1439 698
%%LanguageLevel: 3
%%EndComments
%%BeginProlog
%%BeginResource: procset (Apache XML Graphics Std ProcSet) 1.2 0
%%Version: 1.2 0
%%Copyright: (Copyright 2001-2003,2010 The Apache Software Foundation. License terms: http://www.apache.org/licenses/LICENSE-2.0)
/bd{bind def}bind def
/ld{load def}bd
/GR/grestore ld
/M/moveto ld
/LJ/setlinejoin ld
/C/curveto ld
/f/fill ld
/LW/setlinewidth ld
/GC/setgray ld
/t/show ld
/N/newpath ld
/CT/concat ld
/cp/closepath ld
/S/stroke ld
/L/lineto ld
/CC/setcmykcolor ld
/A/ashow ld
/GS/gsave ld
/RC/setrgbcolor ld
/RM/rmoveto ld
/ML/setmiterlimit ld
/re {4 2 roll M
1 index 0 rlineto
0 exch rlineto
neg 0 rlineto
cp } bd
/_ctm matrix def
/_tm matrix def
/BT { _ctm currentmatrix pop matrix _tm copy pop 0 0 moveto } bd
/ET { _ctm setmatrix } bd
/iTm { _ctm setmatrix _tm concat } bd
/Tm { _tm astore pop iTm 0 0 moveto } bd
/ux 0.0 def
/uy 0.0 def
/F {
  /Tp exch def
  /Tf exch def
  Tf findfont Tp scalefont setfont
  /cf Tf def  /cs Tp def
} bd
/ULS {currentpoint /uy exch def /ux exch def} bd
/ULE {
  /Tcx currentpoint pop def
  gsave
  newpath
  cf findfont cs scalefont dup
  /FontMatrix get 0 get /Ts exch def /FontInfo get dup
  /UnderlinePosition get Ts mul /To exch def
  /UnderlineThickness get Ts mul /Tt exch def
  ux uy To add moveto  Tcx uy To add lineto
  Tt setlinewidth stroke
  grestore
} bd
/OLE {
  /Tcx currentpoint pop def
  gsave
  newpath
  cf findfont cs scalefont dup
  /FontMatrix get 0 get /Ts exch def /FontInfo get dup
  /UnderlinePosition get Ts mul /To exch def
  /UnderlineThickness get Ts mul /Tt exch def
  ux uy To add cs add moveto Tcx uy To add cs add lineto
  Tt setlinewidth stroke
  grestore
} bd
/SOE {
  /Tcx currentpoint pop def
  gsave
  newpath
  cf findfont cs scalefont dup
  /FontMatrix get 0 get /Ts exch def /FontInfo get dup
  /UnderlinePosition get Ts mul /To exch def
  /UnderlineThickness get Ts mul /Tt exch def
  ux uy To add cs 10 mul 26 idiv add moveto Tcx uy To add cs 10 mul 26 idiv add lineto
  Tt setlinewidth stroke
  grestore
} bd
/QT {
/Y22 exch store
/X22 exch store
/Y21 exch store
/X21 exch store
currentpoint
/Y21 load 2 mul add 3 div exch
/X21 load 2 mul add 3 div exch
/X21 load 2 mul /X22 load add 3 div
/Y21 load 2 mul /Y22 load add 3 div
/X22 load /Y22 load curveto
} bd
/SSPD {
dup length /d exch dict def
{
/v exch def
/k exch def
currentpagedevice k known {
/cpdv currentpagedevice k get def
v cpdv ne {
/upd false def
/nullv v type /nulltype eq def
/nullcpdv cpdv type /nulltype eq def
nullv nullcpdv or
{
/upd true def
} {
/sametype v type cpdv type eq def
sametype {
v type /arraytype eq {
/vlen v length def
/cpdvlen cpdv length def
vlen cpdvlen eq {
0 1 vlen 1 sub {
/i exch def
/obj v i get def
/cpdobj cpdv i get def
obj cpdobj ne {
/upd true def
exit
} if
} for
} {
/upd true def
} ifelse
} {
v type /dicttype eq {
v {
/dv exch def
/dk exch def
/cpddv cpdv dk get def
dv cpddv ne {
/upd true def
exit
} if
} forall
} {
/upd true def
} ifelse
} ifelse
} if
} ifelse
upd true eq {
d k v put
} if
} if
} if
} forall
d length 0 gt {
d setpagedevice
} if
} bd
%%EndResource
%%BeginResource: procset (Apache XML Graphics EPS ProcSet) 1.0 0
%%Version: 1.0 0
%%Copyright: (Copyright 2002-2003 The Apache Software Foundation. License terms: http://www.apache.org/licenses/LICENSE-2.0)
/BeginEPSF { %def
/b4_Inc_state save def         % Save state for cleanup
/dict_count countdictstack def % Count objects on dict stack
/op_count count 1 sub def      % Count objects on operand stack
userdict begin                 % Push userdict on dict stack
/showpage { } def              % Redefine showpage, { } = null proc
0 setgray 0 setlinecap         % Prepare graphics state
1 setlinewidth 0 setlinejoin
10 setmiterlimit [ ] 0 setdash newpath
/languagelevel where           % If level not equal to 1 then
{pop languagelevel             % set strokeadjust and
1 ne                           % overprint to their defaults.
{false setstrokeadjust false setoverprint
} if
} if
} bd
/EndEPSF { %def
count op_count sub {pop} repeat            % Clean up stacks
countdictstack dict_count sub {end} repeat
b4_Inc_state restore
} bd
%%EndResource
%FOPBeginFontDict
%%IncludeResource: font Courier-Bold
%%IncludeResource: font Helvetica
%%IncludeResource: font Courier-BoldOblique
%%IncludeResource: font Courier-Oblique
%%IncludeResource: font Times-Roman
%%IncludeResource: font Helvetica-BoldOblique
%%IncludeResource: font Helvetica-Bold
%%IncludeResource: font Helvetica-Oblique
%%IncludeResource: font Times-BoldItalic
%%IncludeResource: font Courier
%%IncludeResource: font Times-Italic
%%IncludeResource: font Times-Bold
%%IncludeResource: font Symbol
%%IncludeResource: font ZapfDingbats
%FOPEndFontDict
%%BeginResource: encoding WinAnsiEncoding
/WinAnsiEncoding [
/.notdef /.notdef /.notdef /.notdef /.notdef
/.notdef /.notdef /.notdef /.notdef /.notdef
/.notdef /.notdef /.notdef /.notdef /.notdef
/.notdef /.notdef /.notdef /.notdef /.notdef
/.notdef /.notdef /.notdef /.notdef /.notdef
/.notdef /.notdef /.notdef /.notdef /.notdef
/.notdef /.notdef /space /exclam /quotedbl
/numbersign /dollar /percent /ampersand /quotesingle
/parenleft /parenright /asterisk /plus /comma
/hyphen /period /slash /zero /one
/two /three /four /five /six
/seven /eight /nine /colon /semicolon
/less /equal /greater /question /at
/A /B /C /D /E
/F /G /H /I /J
/K /L /M /N /O
/P /Q /R /S /T
/U /V /W /X /Y
/Z /bracketleft /backslash /bracketright /asciicircum
/underscore /quoteleft /a /b /c
/d /e /f /g /h
/i /j /k /l /m
/n /o /p /q /r
/s /t /u /v /w
/x /y /z /braceleft /bar
/braceright /asciitilde /bullet /Euro /bullet
/quotesinglbase /florin /quotedblbase /ellipsis /dagger
/daggerdbl /circumflex /perthousand /Scaron /guilsinglleft
/OE /bullet /Zcaron /bullet /bullet
/quoteleft /quoteright /quotedblleft /quotedblright /bullet
/endash /emdash /asciitilde /trademark /scaron
/guilsinglright /oe /bullet /zcaron /Ydieresis
/space /exclamdown /cent /sterling /currency
/yen /brokenbar /section /dieresis /copyright
/ordfeminine /guillemotleft /logicalnot /sfthyphen /registered
/macron /degree /plusminus /twosuperior /threesuperior
/acute /mu /paragraph /middot /cedilla
/onesuperior /ordmasculine /guillemotright /onequarter /onehalf
/threequarters /questiondown /Agrave /Aacute /Acircumflex
/Atilde /Adieresis /Aring /AE /Ccedilla
/Egrave /Eacute /Ecircumflex /Edieresis /Igrave
/Iacute /Icircumflex /Idieresis /Eth /Ntilde
/Ograve /Oacute /Ocircumflex /Otilde /Odieresis
/multiply /Oslash /Ugrave /Uacute /Ucircumflex
/Udieresis /Yacute /Thorn /germandbls /agrave
/aacute /acircumflex /atilde /adieresis /aring
/ae /ccedilla /egrave /eacute /ecircumflex
/edieresis /igrave /iacute /icircumflex /idieresis
/eth /ntilde /ograve /oacute /ocircumflex
/otilde /odieresis /divide /oslash /ugrave
/uacute /ucircumflex /udieresis /yacute /thorn
/ydieresis
] def
%%EndResource
%FOPBeginFontReencode
/Courier-Bold findfont
dup length dict begin
  {1 index /FID ne {def} {pop pop} ifelse} forall
  /Encoding WinAnsiEncoding def
  currentdict
end
/Courier-Bold exch definefont pop
/Helvetica findfont
dup length dict begin
  {1 index /FID ne {def} {pop pop} ifelse} forall
  /Encoding WinAnsiEncoding def
  currentdict
end
/Helvetica exch definefont pop
/Courier-BoldOblique findfont
dup length dict begin
  {1 index /FID ne {def} {pop pop} ifelse} forall
  /Encoding WinAnsiEncoding def
  currentdict
end
/Courier-BoldOblique exch definefont pop
/Courier-Oblique findfont
dup length dict begin
  {1 index /FID ne {def} {pop pop} ifelse} forall
  /Encoding WinAnsiEncoding def
  currentdict
end
/Courier-Oblique exch definefont pop
/Times-Roman findfont
dup length dict begin
  {1 index /FID ne {def} {pop pop} ifelse} forall
  /Encoding WinAnsiEncoding def
  currentdict
end
/Times-Roman exch definefont pop
/Helvetica-BoldOblique findfont
dup length dict begin
  {1 index /FID ne {def} {pop pop} ifelse} forall
  /Encoding WinAnsiEncoding def
  currentdict
end
/Helvetica-BoldOblique exch definefont pop
/Helvetica-Bold findfont
dup length dict begin
  {1 index /FID ne {def} {pop pop} ifelse} forall
  /Encoding WinAnsiEncoding def
  currentdict
end
/Helvetica-Bold exch definefont pop
/Helvetica-Oblique findfont
dup length dict begin
  {1 index /FID ne {def} {pop pop} ifelse} forall
  /Encoding WinAnsiEncoding def
  currentdict
end
/Helvetica-Oblique exch definefont pop
/Times-BoldItalic findfont
dup length dict begin
  {1 index /FID ne {def} {pop pop} ifelse} forall
  /Encoding WinAnsiEncoding def
  currentdict
end
/Times-BoldItalic exch definefont pop
/Courier findfont
dup length dict begin
  {1 index /FID ne {def} {pop pop} ifelse} forall
  /Encoding WinAnsiEncoding def
  currentdict
end
/Courier exch definefont pop
/Times-Italic findfont
dup length dict begin
  {1 index /FID ne {def} {pop pop} ifelse} forall
  /Encoding WinAnsiEncoding def
  currentdict
end
/Times-Italic exch definefont pop
/Times-Bold findfont
dup length dict begin
  {1 index /FID ne {def} {pop pop} ifelse} forall
  /Encoding WinAnsiEncoding def
  currentdict
end
/Times-Bold exch definefont pop
%FOPEndFontReencode
%%EndProlog
%%Page: 1 1
%%PageBoundingBox: 0 0 1439 698
%%BeginPageSetup
[1 0 0 -1 0 698] CT
%%EndPageSetup
GS
[0.75 0 0 0.75 0 0.5] CT
1 GC
N
0 0 1918 930 re
f
GR
GS
[0.75 0 0 0.75 0 0.5] CT
1 GC
N
0 0 1918 930 re
f
GR
GS
[0.75 0 0 0.75 0 0.5] CT
1 GC
N
894.616 828 M
1736 680.771 L
1090.384 488.898 L
249 636.127 L
cp
f
GR
GS
[0.75 0 0 0.75 0 0.5] CT
1 GC
N
249 636.127 M
1090.384 488.898 L
1090.384 70 L
249 217.229 L
cp
f
GR
GS
[0.75 0 0 0.75 0 0.5] CT
1 GC
N
1090.384 488.898 M
1736 680.771 L
1736 261.873 L
1090.384 70 L
cp
f
GR
GS
[0.75 0 0 0.75 0 0.5] CT
0.873 GC
1 LJ
0.667 LW
N
894.616 828 M
249 636.127 L
S
GR
GS
[0.75 0 0 0.75 0 0.5] CT
0.873 GC
1 LJ
0.667 LW
N
1014.814 806.967 M
369.198 615.094 L
S
GR
GS
[0.75 0 0 0.75 0 0.5] CT
0.873 GC
1 LJ
0.667 LW
N
1135.012 785.934 M
489.395 594.061 L
S
GR
GS
[0.75 0 0 0.75 0 0.5] CT
0.873 GC
1 LJ
0.667 LW
N
1255.209 764.902 M
609.593 573.029 L
S
GR
GS
[0.75 0 0 0.75 0 0.5] CT
0.873 GC
1 LJ
0.667 LW
N
1375.407 743.869 M
729.791 551.996 L
S
GR
GS
[0.75 0 0 0.75 0 0.5] CT
0.873 GC
1 LJ
0.667 LW
N
1495.605 722.836 M
849.988 530.963 L
S
GR
GS
[0.75 0 0 0.75 0 0.5] CT
0.873 GC
1 LJ
0.667 LW
N
1615.802 701.803 M
970.186 509.93 L
S
GR
GS
[0.75 0 0 0.75 0 0.5] CT
0.873 GC
1 LJ
0.667 LW
N
1736 680.771 M
1090.384 488.898 L
S
GR
GS
[0.75 0 0 0.75 0 0.5] CT
0.873 GC
1 LJ
0.667 LW
N
249 636.127 M
249 217.229 L
S
GR
GS
[0.75 0 0 0.75 0 0.5] CT
0.873 GC
1 LJ
0.667 LW
N
369.198 615.094 M
369.198 196.197 L
S
GR
GS
[0.75 0 0 0.75 0 0.5] CT
0.873 GC
1 LJ
0.667 LW
N
489.395 594.061 M
489.395 175.164 L
S
GR
GS
[0.75 0 0 0.75 0 0.5] CT
0.873 GC
1 LJ
0.667 LW
N
609.593 573.029 M
609.593 154.131 L
S
GR
GS
[0.75 0 0 0.75 0 0.5] CT
0.873 GC
1 LJ
0.667 LW
N
729.791 551.996 M
729.791 133.098 L
S
GR
GS
[0.75 0 0 0.75 0 0.5] CT
0.873 GC
1 LJ
0.667 LW
N
849.988 530.963 M
849.988 112.066 L
S
GR
GS
[0.75 0 0 0.75 0 0.5] CT
0.873 GC
1 LJ
0.667 LW
N
970.186 509.93 M
970.186 91.033 L
S
GR
GS
[0.75 0 0 0.75 0 0.5] CT
0.873 GC
1 LJ
0.667 LW
N
1090.384 488.898 M
1090.384 70 L
S
GR
GS
[0.75 0 0 0.75 0 0.5] CT
0.873 GC
1 LJ
0.667 LW
N
1736 680.771 M
894.616 828 L
S
GR
GS
[0.75 0 0 0.75 0 0.5] CT
0.873 GC
1 LJ
0.667 LW
N
1606.877 642.396 M
765.493 789.625 L
S
GR
GS
[0.75 0 0 0.75 0 0.5] CT
0.873 GC
1 LJ
0.667 LW
N
1477.753 604.021 M
636.37 751.251 L
S
GR
GS
[0.75 0 0 0.75 0 0.5] CT
0.873 GC
1 LJ
0.667 LW
N
1348.63 565.647 M
507.247 712.876 L
S
GR
GS
[0.75 0 0 0.75 0 0.5] CT
0.873 GC
1 LJ
0.667 LW
N
1219.507 527.272 M
378.123 674.502 L
S
GR
GS
[0.75 0 0 0.75 0 0.5] CT
0.873 GC
1 LJ
0.667 LW
N
1090.384 488.898 M
249 636.127 L
S
GR
GS
[0.75 0 0 0.75 0 0.5] CT
0.873 GC
1 LJ
0.667 LW
N
1736 261.873 M
1736 680.771 L
S
GR
GS
[0.75 0 0 0.75 0 0.5] CT
0.873 GC
1 LJ
0.667 LW
N
1606.877 223.498 M
1606.877 642.396 L
S
GR
GS
[0.75 0 0 0.75 0 0.5] CT
0.873 GC
1 LJ
0.667 LW
N
1477.753 185.124 M
1477.753 604.021 L
S
GR
GS
[0.75 0 0 0.75 0 0.5] CT
0.873 GC
1 LJ
0.667 LW
N
1348.63 146.749 M
1348.63 565.647 L
S
GR
GS
[0.75 0 0 0.75 0 0.5] CT
0.873 GC
1 LJ
0.667 LW
N
1219.507 108.375 M
1219.507 527.272 L
S
GR
GS
[0.75 0 0 0.75 0 0.5] CT
0.873 GC
1 LJ
0.667 LW
N
1090.384 70 M
1090.384 488.898 L
S
GR
GS
[0.75 0 0 0.75 0 0.5] CT
0.873 GC
1 LJ
0.667 LW
N
1090.384 488.898 M
249 636.127 L
S
GR
GS
[0.75 0 0 0.75 0 0.5] CT
0.873 GC
1 LJ
0.667 LW
N
1090.384 429.055 M
249 576.284 L
S
GR
GS
[0.75 0 0 0.75 0 0.5] CT
0.873 GC
1 LJ
0.667 LW
N
1090.384 369.213 M
249 516.442 L
S
GR
GS
[0.75 0 0 0.75 0 0.5] CT
0.873 GC
1 LJ
0.667 LW
N
1090.384 309.37 M
249 456.599 L
S
GR
GS
[0.75 0 0 0.75 0 0.5] CT
0.873 GC
1 LJ
0.667 LW
N
1090.384 249.528 M
249 396.757 L
S
GR
GS
[0.75 0 0 0.75 0 0.5] CT
0.873 GC
1 LJ
0.667 LW
N
1090.384 189.685 M
249 336.914 L
S
GR
GS
[0.75 0 0 0.75 0 0.5] CT
0.873 GC
1 LJ
0.667 LW
N
1090.384 129.843 M
249 277.072 L
S
GR
GS
[0.75 0 0 0.75 0 0.5] CT
0.873 GC
1 LJ
0.667 LW
N
1090.384 70 M
249 217.229 L
S
GR
GS
[0.75 0 0 0.75 0 0.5] CT
0.873 GC
1 LJ
0.667 LW
N
1736 680.771 M
1090.384 488.898 L
S
GR
GS
[0.75 0 0 0.75 0 0.5] CT
0.873 GC
1 LJ
0.667 LW
N
1736 620.928 M
1090.384 429.055 L
S
GR
GS
[0.75 0 0 0.75 0 0.5] CT
0.873 GC
1 LJ
0.667 LW
N
1736 561.086 M
1090.384 369.213 L
S
GR
GS
[0.75 0 0 0.75 0 0.5] CT
0.873 GC
1 LJ
0.667 LW
N
1736 501.243 M
1090.384 309.37 L
S
GR
GS
[0.75 0 0 0.75 0 0.5] CT
0.873 GC
1 LJ
0.667 LW
N
1736 441.401 M
1090.384 249.528 L
S
GR
GS
[0.75 0 0 0.75 0 0.5] CT
0.873 GC
1 LJ
0.667 LW
N
1736 381.558 M
1090.384 189.685 L
S
GR
GS
[0.75 0 0 0.75 0 0.5] CT
0.873 GC
1 LJ
0.667 LW
N
1736 321.716 M
1090.384 129.843 L
S
GR
GS
[0.75 0 0 0.75 0 0.5] CT
0.873 GC
1 LJ
0.667 LW
N
1736 261.873 M
1090.384 70 L
S
GR
GS
[0.75 0 0 0.75 165.64658 471.32344] CT
0.149 GC
/Helvetica 26.667 F
GS
[1 0 0 1 0 0] CT
-53 9.5 moveto 
1 -1 scale
(-0.4) t 
GR
GR
GS
[0.75 0 0 0.75 0 0.5] CT
0.506 GC
N
894.616 828 M
249 636.127 L
1090.384 70 L
1736 261.873 L
cp
f
GR
GS
[0.75 0 0 0.75 0 0.5] CT
1 LJ
0.667 LW
N
1736 261.873 M
1090.384 70 L
S
GR
GS
[0.75 0 0 0.75 0 0.5] CT
1 LJ
0.667 LW
N
249 636.127 M
1090.384 70 L
S
GR
GS
[0.75 0 0 0.75 0 0.5] CT
0.149 GC
1 LJ
0.667 LW
N
249 636.127 M
228.531 630.044 L
S
GR
GS
[0.75 0 0 0.75 0 0.5] CT
1 LJ
0.667 LW
N
894.616 828 M
249 636.127 L
S
GR
GS
[0.75 0 0 0.75 0 0.5] CT
0.149 GC
1 LJ
0.667 LW
N
894.616 828 M
249 636.127 L
S
GR
GS
[0.75 0 0 0.75 0 0.5] CT
0.149 GC
1 LJ
0.667 LW
N
249 636.127 M
249 217.229 L
S
GR
GS
[0.75 0 0 0.75 0 0.5] CT
0.149 GC
1 LJ
0.667 LW
N
249 636.127 M
227.965 639.808 L
S
GR
GS
[0.75 0 0 0.75 165.06385 481.38998] CT
0.149 GC
/Helvetica 26.667 F
GS
[1 0 0 1 0 0] CT
-43 26 moveto 
1 -1 scale
(0.2) t 
GR
GR
GS
[0.75 0 0 0.75 165.64658 426.44154] CT
0.149 GC
/Helvetica 26.667 F
GS
[1 0 0 1 0 0] CT
-53 9.5 moveto 
1 -1 scale
(-0.2) t 
GR
GR
GS
[0.75 0 0 0.75 0 0.5] CT
0.149 GC
1 setlinecap
1 LJ
0.667 LW
N
249 576.284 M
228.531 570.201 L
S
GR
GS
[0.75 0 0 0.75 165.64658 381.55965] CT
0.149 GC
/Helvetica 26.667 F
GS
[1 0 0 1 0 0] CT
-18 9.5 moveto 
1 -1 scale
(0) t 
GR
GR
GS
[0.75 0 0 0.75 0 0.5] CT
0.149 GC
1 setlinecap
1 LJ
0.667 LW
N
249 516.442 M
228.531 510.359 L
S
GR
GS
[0.75 0 0 0.75 0 0.5] CT
0.149 GC
1 setlinecap
1 LJ
0.667 LW
N
378.123 674.502 M
357.089 678.182 L
S
GR
GS
[0.75 0 0 0.75 261.9063 510.17091] CT
0.149 GC
/Helvetica 26.667 F
GS
[1 0 0 1 0 0] CT
-61 26 moveto 
1 -1 scale
(0.15) t 
GR
GR
GS
[0.75 0 0 0.75 0 0.5] CT
0.149 GC
2 setlinecap
1 LJ
0.667 LW
N
894.616 828 M
1736 680.771 L
S
GR
GS
[0.75 0 0 0.75 0 0.5] CT
0.149 GC
2 setlinecap
1 LJ
0.667 LW
N
1736 680.771 M
1756.469 686.854 L
S
GR
GS
[0.75 0 0 0.75 165.64658 336.67777] CT
0.149 GC
/Helvetica 26.667 F
GS
[1 0 0 1 0 0] CT
-43 9.5 moveto 
1 -1 scale
(0.2) t 
GR
GR
GS
[0.75 0 0 0.75 1323.10336 517.34979] CT
0.149 GC
/Helvetica 26.667 F
GS
[1 0 0 1 0 0] CT
0 26 moveto 
1 -1 scale
(1) t 
GR
GR
GS
[0.75 0 0 0.75 0 0.5] CT
0.149 GC
1 setlinecap
1 LJ
0.667 LW
N
249 456.599 M
228.531 450.516 L
S
GR
GS
[0.75 0 0 0.75 0 0.5] CT
0.149 GC
1 setlinecap
1 LJ
0.667 LW
N
1615.802 701.803 M
1636.272 707.887 L
S
GR
GS
[0 -0.75 0.75 0 107.25 333.5] CT
0.149 GC
/Helvetica 29.333 F
GS
[1 0 0 1 0 0] CT
0 0 moveto 
1 -1 scale
(x) t 
GR
GR
GS
[0 -0.75 0.75 0 117.75 320] CT
0.149 GC
/Helvetica 22.667 F
GS
[1 0 0 1 0 0] CT
0 0 moveto 
1 -1 scale
(2) t 
GR
GR
GS
[0.75 0 0 0.75 165.64658 291.79588] CT
0.149 GC
/Helvetica 26.667 F
GS
[1 0 0 1 0 0] CT
-43 9.5 moveto 
1 -1 scale
(0.4) t 
GR
GR
GS
[0.75 0 0 0.75 0 0.5] CT
0.149 GC
1 setlinecap
1 LJ
0.667 LW
N
249 396.757 M
228.531 390.674 L
S
GR
GS
[0.75 0 0 0.75 1232.95514 533.12437] CT
0.149 GC
/Helvetica 26.667 F
GS
[1 0 0 1 0 0] CT
0 26 moveto 
1 -1 scale
(0.8) t 
GR
GR
GS
[0.75 0 0 0.75 0 0.5] CT
0.149 GC
1 setlinecap
1 LJ
0.667 LW
N
507.247 712.876 M
486.212 716.557 L
S
GR
GS
[0.75 0 0 0.75 358.74875 538.95189] CT
0.149 GC
/Helvetica 26.667 F
GS
[1 0 0 1 0 0] CT
-43 26 moveto 
1 -1 scale
(0.1) t 
GR
GR
GS
[0.75 0 0 0.75 0 0.5] CT
0.149 GC
1 setlinecap
1 LJ
0.667 LW
N
1495.605 722.836 M
1516.074 728.92 L
S
GR
GS
[0.75 0 0 0.75 165.64658 246.91398] CT
0.149 GC
/Helvetica 26.667 F
GS
[1 0 0 1 0 0] CT
-43 9.5 moveto 
1 -1 scale
(0.6) t 
GR
GR
GS
[0.75 0 0 0.75 0 0.5] CT
0.149 GC
1 setlinecap
1 LJ
0.667 LW
N
249 336.914 M
228.531 330.831 L
S
GR
GS
[0.75 0 0 0.75 1142.80692 548.89891] CT
0.149 GC
/Helvetica 26.667 F
GS
[1 0 0 1 0 0] CT
0 26 moveto 
1 -1 scale
(0.6) t 
GR
GR
GS
[0.75 0 0 0.75 432.75 646.25] CT
0.149 GC
/Helvetica 29.333 F
GS
[1 0 0 1 0 0] CT
0 0 moveto 
1 -1 scale
(y) t 
GR
GR
GS
[0.75 0 0 0.75 446.25 656.75] CT
0.149 GC
/Helvetica 22.667 F
GS
[1 0 0 1 0 0] CT
0 0 moveto 
1 -1 scale
(1) t 
GR
GR
GS
[0.75 0 0 0.75 0 0.5] CT
0.149 GC
1 setlinecap
1 LJ
0.667 LW
N
1375.407 743.869 M
1395.876 749.952 L
S
GR
GS
[0.75 0 0 0.75 165.64658 202.0321] CT
0.149 GC
/Helvetica 26.667 F
GS
[1 0 0 1 0 0] CT
-43 9.5 moveto 
1 -1 scale
(0.8) t 
GR
GR
GS
[0.75 0 0 0.75 0 0.5] CT
0.149 GC
1 setlinecap
1 LJ
0.667 LW
N
249 277.072 M
228.531 270.988 L
S
GR
GS
[0.75 0 0 0.75 0 0.5] CT
0.149 GC
1 setlinecap
1 LJ
0.667 LW
N
636.37 751.251 M
615.335 754.932 L
S
GR
GS
[0.75 0 0 0.75 1052.65869 564.67349] CT
0.149 GC
/Helvetica 26.667 F
GS
[1 0 0 1 0 0] CT
0 26 moveto 
1 -1 scale
(0.4) t 
GR
GR
GS
[0.75 0 0 0.75 908.25 655.25] CT
0.149 GC
/Helvetica 29.333 F
GS
[1 0 0 1 0 0] CT
0 0 moveto 
1 -1 scale
(x) t 
GR
GR
GS
[0.75 0 0 0.75 921.75 665.75] CT
0.149 GC
/Helvetica 22.667 F
GS
[1 0 0 1 0 0] CT
0 0 moveto 
1 -1 scale
(1) t 
GR
GR
GS
[0.75 0 0 0.75 455.59122 567.73282] CT
0.149 GC
/Helvetica 26.667 F
GS
[1 0 0 1 0 0] CT
-61 26 moveto 
1 -1 scale
(0.05) t 
GR
GR
GS
[0.75 0 0 0.75 0 0.5] CT
0.149 GC
1 setlinecap
1 LJ
0.667 LW
N
1255.209 764.902 M
1275.679 770.985 L
S
GR
GS
[0.75 0 0 0.75 165.64658 157.15022] CT
0.149 GC
/Helvetica 26.667 F
GS
[1 0 0 1 0 0] CT
-18 9.5 moveto 
1 -1 scale
(1) t 
GR
GR
GS
[0.75 0 0 0.75 0 0.5] CT
0.149 GC
2 setlinecap
1 LJ
0.667 LW
N
249 217.229 M
228.531 211.146 L
S
GR
GS
[0.75 0 0 0.75 962.51038 580.44807] CT
0.149 GC
/Helvetica 26.667 F
GS
[1 0 0 1 0 0] CT
0 26 moveto 
1 -1 scale
(0.2) t 
GR
GR
GS
[0.75 0 0 0.75 0 0.5] CT
0.149 GC
1 setlinecap
1 LJ
0.667 LW
N
1135.012 785.934 M
1155.481 792.018 L
S
GR
GS
[0.75 0 0 0.75 0 0.5] CT
0.149 GC
1 setlinecap
1 LJ
0.667 LW
N
765.493 789.625 M
744.458 793.306 L
S
GR
GS
[0.75 0 0 0.75 872.36215 596.22266] CT
0.149 GC
/Helvetica 26.667 F
GS
[1 0 0 1 0 0] CT
0 26 moveto 
1 -1 scale
(0) t 
GR
GR
GS
[0.75 0 0 0.75 552.43369 596.51379] CT
0.149 GC
/Helvetica 26.667 F
GS
[1 0 0 1 0 0] CT
-18 26 moveto 
1 -1 scale
(0) t 
GR
GR
GS
[0.75 0 0 0.75 0 0.5] CT
0.149 GC
1 setlinecap
1 LJ
0.667 LW
N
1014.814 806.967 M
1035.283 813.051 L
S
GR
GS
[0.75 0 0 0.75 782.21393 611.99724] CT
0.149 GC
/Helvetica 26.667 F
GS
[1 0 0 1 0 0] CT
0 26 moveto 
1 -1 scale
(-0.2) t 
GR
GR
GS
[0.75 0 0 0.75 0 0.5] CT
1 LJ
0.667 LW
N
894.616 828 M
1736 261.873 L
S
GR
GS
[0.75 0 0 0.75 0 0.5] CT
0.149 GC
1 LJ
0.667 LW
N
894.616 828 M
873.582 831.681 L
S
GR
GS
[0.75 0 0 0.75 0 0.5] CT
0.149 GC
1 LJ
0.667 LW
N
894.616 828 M
915.086 834.083 L
S
GR
GS
[0.75 0 0 0.75 649.27611 625.29477] CT
0.149 GC
/Helvetica 26.667 F
GS
[1 0 0 1 0 0] CT
-70 26 moveto 
1 -1 scale
(-0.05) t 
GR
GR
GS
[0.75 0 0 0.75 692.06566 627.77177] CT
0.149 GC
/Helvetica 26.667 F
GS
[1 0 0 1 0 0] CT
0 26 moveto 
1 -1 scale
(-0.4) t 
GR
GR
GS
[0.75 0 0 0.75 0 0.5] CT
1 LJ
0.667 LW
N
467 149.08 M
861.109 328.081 L
S
GR
GS
[0.75 0 0 0.75 350.25 112.31005] CT
/Helvetica-Bold 26.667 F
GS
[1 0 0 1 0 0] CT
-280 9.5 moveto 
1 -1 scale
(Invariant Manifold) t 
GR
GR
GS
[0.75 0 0 0.75 0 0.5] CT
1 LJ
0.667 LW
N
858.928 321.599 M
869 331.665 L
861.109 328.081 L
858.928 321.599 L
S
GR
GS
[0.75 0 0 0.75 0 0.5] CT
1 LJ
0.667 LW
N
869 331.665 M
854.792 330.704 L
861.109 328.081 L
869 331.665 L
S
GR
GS
[0.75 0 0 0.75 0 0.5] CT
N
858.928 321.599 M
869 331.665 L
861.109 328.081 L
cp
f
GR
GS
[0.75 0 0 0.75 0 0.5] CT
N
869 331.665 M
854.792 330.704 L
861.109 328.081 L
cp
f
GR
%%Trailer
%%Pages: 1
%%EOF
