\relax 
\providecommand\hyper@newdestlabel[2]{}
\providecommand\HyperFirstAtBeginDocument{\AtBeginDocument}
\HyperFirstAtBeginDocument{\ifx\hyper@anchor\@undefined
\global\let\oldcontentsline\contentsline
\gdef\contentsline#1#2#3#4{\oldcontentsline{#1}{#2}{#3}}
\global\let\oldnewlabel\newlabel
\gdef\newlabel#1#2{\newlabelxx{#1}#2}
\gdef\newlabelxx#1#2#3#4#5#6{\oldnewlabel{#1}{{#2}{#3}}}
\AtEndDocument{\ifx\hyper@anchor\@undefined
\let\contentsline\oldcontentsline
\let\newlabel\oldnewlabel
\fi}
\fi}
\global\let\hyper@last\relax 
\gdef\HyperFirstAtBeginDocument#1{#1}
\providecommand\HyField@AuxAddToFields[1]{}
\providecommand\HyField@AuxAddToCoFields[2]{}
\@writefile{toc}{\beamer@endinputifotherversion {3.36pt}}
\@writefile{nav}{\beamer@endinputifotherversion {3.36pt}}
\@writefile{nav}{\headcommand {\slideentry {0}{0}{1}{1/1}{}{0}}}
\@writefile{nav}{\headcommand {\beamer@framepages {1}{1}}}
\@writefile{nav}{\headcommand {\slideentry {0}{0}{2}{2/2}{}{0}}}
\@writefile{nav}{\headcommand {\beamer@framepages {2}{2}}}
\@writefile{nav}{\headcommand {\slideentry {0}{0}{3}{3/3}{}{0}}}
\@writefile{nav}{\headcommand {\beamer@framepages {3}{3}}}
\@writefile{nav}{\headcommand {\slideentry {0}{0}{4}{4/4}{}{0}}}
\@writefile{nav}{\headcommand {\beamer@framepages {4}{4}}}
\@writefile{nav}{\headcommand {\slideentry {0}{0}{5}{5/5}{}{0}}}
\@writefile{nav}{\headcommand {\beamer@framepages {5}{5}}}
\@writefile{nav}{\headcommand {\slideentry {0}{0}{6}{6/6}{}{0}}}
\@writefile{nav}{\headcommand {\beamer@framepages {6}{6}}}
\@writefile{nav}{\headcommand {\slideentry {0}{0}{7}{7/7}{}{0}}}
\@writefile{nav}{\headcommand {\beamer@framepages {7}{7}}}
\@writefile{nav}{\headcommand {\slideentry {0}{0}{8}{8/8}{}{0}}}
\@writefile{nav}{\headcommand {\beamer@framepages {8}{8}}}
\@writefile{nav}{\headcommand {\slideentry {0}{0}{9}{9/9}{}{0}}}
\@writefile{nav}{\headcommand {\beamer@framepages {9}{9}}}
\@writefile{nav}{\headcommand {\slideentry {0}{0}{10}{10/10}{}{0}}}
\@writefile{nav}{\headcommand {\beamer@framepages {10}{10}}}
\@writefile{nav}{\headcommand {\slideentry {0}{0}{11}{11/11}{}{0}}}
\@writefile{nav}{\headcommand {\beamer@framepages {11}{11}}}
\@writefile{nav}{\headcommand {\slideentry {0}{0}{12}{12/12}{}{0}}}
\@writefile{nav}{\headcommand {\beamer@framepages {12}{12}}}
\@writefile{nav}{\headcommand {\slideentry {0}{0}{13}{13/13}{}{0}}}
\@writefile{nav}{\headcommand {\beamer@framepages {13}{13}}}
\@writefile{nav}{\headcommand {\slideentry {0}{0}{14}{14/14}{}{0}}}
\@writefile{nav}{\headcommand {\beamer@framepages {14}{14}}}
\@writefile{nav}{\headcommand {\slideentry {0}{0}{15}{15/15}{}{0}}}
\@writefile{nav}{\headcommand {\beamer@framepages {15}{15}}}
\@writefile{nav}{\headcommand {\slideentry {0}{0}{16}{16/16}{}{0}}}
\@writefile{nav}{\headcommand {\beamer@framepages {16}{16}}}
\@writefile{nav}{\headcommand {\slideentry {0}{0}{17}{17/17}{}{0}}}
\@writefile{nav}{\headcommand {\beamer@framepages {17}{17}}}
\@writefile{nav}{\headcommand {\slideentry {0}{0}{18}{18/18}{}{0}}}
\@writefile{nav}{\headcommand {\beamer@framepages {18}{18}}}
\@writefile{nav}{\headcommand {\slideentry {0}{0}{19}{19/21}{}{0}}}
\@writefile{nav}{\headcommand {\beamer@framepages {19}{21}}}
\@writefile{nav}{\headcommand {\slideentry {0}{0}{20}{22/22}{}{0}}}
\@writefile{nav}{\headcommand {\beamer@framepages {22}{22}}}
\@writefile{nav}{\headcommand {\slideentry {0}{0}{21}{23/23}{}{0}}}
\@writefile{nav}{\headcommand {\beamer@framepages {23}{23}}}
\@writefile{nav}{\headcommand {\slideentry {0}{0}{22}{24/24}{}{0}}}
\@writefile{nav}{\headcommand {\beamer@framepages {24}{24}}}
\@writefile{nav}{\headcommand {\slideentry {0}{0}{23}{25/25}{}{0}}}
\@writefile{nav}{\headcommand {\beamer@framepages {25}{25}}}
\@writefile{nav}{\headcommand {\slideentry {0}{0}{24}{26/26}{}{0}}}
\@writefile{nav}{\headcommand {\beamer@framepages {26}{26}}}
\@writefile{nav}{\headcommand {\slideentry {0}{0}{25}{27/27}{}{0}}}
\@writefile{nav}{\headcommand {\beamer@framepages {27}{27}}}
\@writefile{nav}{\headcommand {\slideentry {0}{0}{26}{28/28}{}{0}}}
\@writefile{nav}{\headcommand {\beamer@framepages {28}{28}}}
\@writefile{nav}{\headcommand {\slideentry {0}{0}{27}{29/29}{}{0}}}
\@writefile{nav}{\headcommand {\beamer@framepages {29}{29}}}
\@writefile{nav}{\headcommand {\slideentry {0}{0}{28}{30/30}{}{0}}}
\@writefile{nav}{\headcommand {\beamer@framepages {30}{30}}}
\@writefile{nav}{\headcommand {\slideentry {0}{0}{29}{31/31}{}{0}}}
\@writefile{nav}{\headcommand {\beamer@framepages {31}{31}}}
\@writefile{nav}{\headcommand {\slideentry {0}{0}{30}{32/32}{}{0}}}
\@writefile{nav}{\headcommand {\beamer@framepages {32}{32}}}
\@writefile{nav}{\headcommand {\slideentry {0}{0}{31}{33/33}{}{0}}}
\@writefile{nav}{\headcommand {\beamer@framepages {33}{33}}}
\@writefile{nav}{\headcommand {\slideentry {0}{0}{32}{34/35}{}{0}}}
\@writefile{nav}{\headcommand {\beamer@framepages {34}{35}}}
\@writefile{nav}{\headcommand {\slideentry {0}{0}{33}{36/36}{}{0}}}
\@writefile{nav}{\headcommand {\beamer@framepages {36}{36}}}
\@writefile{nav}{\headcommand {\slideentry {0}{0}{34}{37/37}{}{0}}}
\@writefile{nav}{\headcommand {\beamer@framepages {37}{37}}}
\@writefile{nav}{\headcommand {\slideentry {0}{0}{35}{38/38}{}{0}}}
\@writefile{nav}{\headcommand {\beamer@framepages {38}{38}}}
\@writefile{nav}{\headcommand {\slideentry {0}{0}{36}{39/39}{}{0}}}
\@writefile{nav}{\headcommand {\beamer@framepages {39}{39}}}
\@writefile{nav}{\headcommand {\slideentry {0}{0}{37}{40/40}{}{0}}}
\@writefile{nav}{\headcommand {\beamer@framepages {40}{40}}}
\@writefile{nav}{\headcommand {\slideentry {0}{0}{38}{41/41}{}{0}}}
\@writefile{nav}{\headcommand {\beamer@framepages {41}{41}}}
\@writefile{nav}{\headcommand {\beamer@partpages {1}{41}}}
\@writefile{nav}{\headcommand {\beamer@subsectionpages {1}{41}}}
\@writefile{nav}{\headcommand {\beamer@sectionpages {1}{41}}}
\@writefile{nav}{\headcommand {\beamer@documentpages {41}}}
\@writefile{nav}{\headcommand {\def \inserttotalframenumber {38}}}
