%!PS-Adobe-3.0 EPSF-3.0
%%Creator: (MATLAB, The Mathworks, Inc. Version 8.5.0.197613 \(R2015a\). Operating System: Linux)
%%Title: /home/arindamsaha/Dropbox/PhD/Cluster/Independent_Osc.eps
%%CreationDate: 2016-05-23T15:52:02
%%Pages: (atend)
%%BoundingBox: 0 0 1391 751
%%LanguageLevel: 2
%%EndComments
%%BeginProlog
%%BeginResource: procset (Apache XML Graphics Std ProcSet) 1.2 0
%%Version: 1.2 0
%%Copyright: (Copyright 2001-2003,2010 The Apache Software Foundation. License terms: http://www.apache.org/licenses/LICENSE-2.0)
/bd{bind def}bind def
/ld{load def}bd
/GR/grestore ld
/M/moveto ld
/LJ/setlinejoin ld
/C/curveto ld
/f/fill ld
/LW/setlinewidth ld
/GC/setgray ld
/t/show ld
/N/newpath ld
/CT/concat ld
/cp/closepath ld
/S/stroke ld
/L/lineto ld
/CC/setcmykcolor ld
/A/ashow ld
/GS/gsave ld
/RC/setrgbcolor ld
/RM/rmoveto ld
/ML/setmiterlimit ld
/re {4 2 roll M
1 index 0 rlineto
0 exch rlineto
neg 0 rlineto
cp } bd
/_ctm matrix def
/_tm matrix def
/BT { _ctm currentmatrix pop matrix _tm copy pop 0 0 moveto } bd
/ET { _ctm setmatrix } bd
/iTm { _ctm setmatrix _tm concat } bd
/Tm { _tm astore pop iTm 0 0 moveto } bd
/ux 0.0 def
/uy 0.0 def
/F {
  /Tp exch def
  /Tf exch def
  Tf findfont Tp scalefont setfont
  /cf Tf def  /cs Tp def
} bd
/ULS {currentpoint /uy exch def /ux exch def} bd
/ULE {
  /Tcx currentpoint pop def
  gsave
  newpath
  cf findfont cs scalefont dup
  /FontMatrix get 0 get /Ts exch def /FontInfo get dup
  /UnderlinePosition get Ts mul /To exch def
  /UnderlineThickness get Ts mul /Tt exch def
  ux uy To add moveto  Tcx uy To add lineto
  Tt setlinewidth stroke
  grestore
} bd
/OLE {
  /Tcx currentpoint pop def
  gsave
  newpath
  cf findfont cs scalefont dup
  /FontMatrix get 0 get /Ts exch def /FontInfo get dup
  /UnderlinePosition get Ts mul /To exch def
  /UnderlineThickness get Ts mul /Tt exch def
  ux uy To add cs add moveto Tcx uy To add cs add lineto
  Tt setlinewidth stroke
  grestore
} bd
/SOE {
  /Tcx currentpoint pop def
  gsave
  newpath
  cf findfont cs scalefont dup
  /FontMatrix get 0 get /Ts exch def /FontInfo get dup
  /UnderlinePosition get Ts mul /To exch def
  /UnderlineThickness get Ts mul /Tt exch def
  ux uy To add cs 10 mul 26 idiv add moveto Tcx uy To add cs 10 mul 26 idiv add lineto
  Tt setlinewidth stroke
  grestore
} bd
/QT {
/Y22 exch store
/X22 exch store
/Y21 exch store
/X21 exch store
currentpoint
/Y21 load 2 mul add 3 div exch
/X21 load 2 mul add 3 div exch
/X21 load 2 mul /X22 load add 3 div
/Y21 load 2 mul /Y22 load add 3 div
/X22 load /Y22 load curveto
} bd
/SSPD {
dup length /d exch dict def
{
/v exch def
/k exch def
currentpagedevice k known {
/cpdv currentpagedevice k get def
v cpdv ne {
/upd false def
/nullv v type /nulltype eq def
/nullcpdv cpdv type /nulltype eq def
nullv nullcpdv or
{
/upd true def
} {
/sametype v type cpdv type eq def
sametype {
v type /arraytype eq {
/vlen v length def
/cpdvlen cpdv length def
vlen cpdvlen eq {
0 1 vlen 1 sub {
/i exch def
/obj v i get def
/cpdobj cpdv i get def
obj cpdobj ne {
/upd true def
exit
} if
} for
} {
/upd true def
} ifelse
} {
v type /dicttype eq {
v {
/dv exch def
/dk exch def
/cpddv cpdv dk get def
dv cpddv ne {
/upd true def
exit
} if
} forall
} {
/upd true def
} ifelse
} ifelse
} if
} ifelse
upd true eq {
d k v put
} if
} if
} if
} forall
d length 0 gt {
d setpagedevice
} if
} bd
%%EndResource
%%BeginResource: procset (Apache XML Graphics EPS ProcSet) 1.0 0
%%Version: 1.0 0
%%Copyright: (Copyright 2002-2003 The Apache Software Foundation. License terms: http://www.apache.org/licenses/LICENSE-2.0)
/BeginEPSF { %def
/b4_Inc_state save def         % Save state for cleanup
/dict_count countdictstack def % Count objects on dict stack
/op_count count 1 sub def      % Count objects on operand stack
userdict begin                 % Push userdict on dict stack
/showpage { } def              % Redefine showpage, { } = null proc
0 setgray 0 setlinecap         % Prepare graphics state
1 setlinewidth 0 setlinejoin
10 setmiterlimit [ ] 0 setdash newpath
/languagelevel where           % If level not equal to 1 then
{pop languagelevel             % set strokeadjust and
1 ne                           % overprint to their defaults.
{false setstrokeadjust false setoverprint
} if
} if
} bd
/EndEPSF { %def
count op_count sub {pop} repeat            % Clean up stacks
countdictstack dict_count sub {end} repeat
b4_Inc_state restore
} bd
%%EndResource
%FOPBeginFontDict
%%IncludeResource: font Courier-Bold
%%IncludeResource: font Helvetica
%%IncludeResource: font Courier-BoldOblique
%%IncludeResource: font Courier-Oblique
%%IncludeResource: font Times-Roman
%%IncludeResource: font Helvetica-BoldOblique
%%IncludeResource: font Helvetica-Bold
%%IncludeResource: font Helvetica-Oblique
%%IncludeResource: font Times-BoldItalic
%%IncludeResource: font Courier
%%IncludeResource: font Times-Italic
%%IncludeResource: font Times-Bold
%%IncludeResource: font Symbol
%%IncludeResource: font ZapfDingbats
%FOPEndFontDict
%%BeginResource: encoding WinAnsiEncoding
/WinAnsiEncoding [
/.notdef /.notdef /.notdef /.notdef /.notdef
/.notdef /.notdef /.notdef /.notdef /.notdef
/.notdef /.notdef /.notdef /.notdef /.notdef
/.notdef /.notdef /.notdef /.notdef /.notdef
/.notdef /.notdef /.notdef /.notdef /.notdef
/.notdef /.notdef /.notdef /.notdef /.notdef
/.notdef /.notdef /space /exclam /quotedbl
/numbersign /dollar /percent /ampersand /quotesingle
/parenleft /parenright /asterisk /plus /comma
/hyphen /period /slash /zero /one
/two /three /four /five /six
/seven /eight /nine /colon /semicolon
/less /equal /greater /question /at
/A /B /C /D /E
/F /G /H /I /J
/K /L /M /N /O
/P /Q /R /S /T
/U /V /W /X /Y
/Z /bracketleft /backslash /bracketright /asciicircum
/underscore /quoteleft /a /b /c
/d /e /f /g /h
/i /j /k /l /m
/n /o /p /q /r
/s /t /u /v /w
/x /y /z /braceleft /bar
/braceright /asciitilde /bullet /Euro /bullet
/quotesinglbase /florin /quotedblbase /ellipsis /dagger
/daggerdbl /circumflex /perthousand /Scaron /guilsinglleft
/OE /bullet /Zcaron /bullet /bullet
/quoteleft /quoteright /quotedblleft /quotedblright /bullet
/endash /emdash /asciitilde /trademark /scaron
/guilsinglright /oe /bullet /zcaron /Ydieresis
/space /exclamdown /cent /sterling /currency
/yen /brokenbar /section /dieresis /copyright
/ordfeminine /guillemotleft /logicalnot /sfthyphen /registered
/macron /degree /plusminus /twosuperior /threesuperior
/acute /mu /paragraph /middot /cedilla
/onesuperior /ordmasculine /guillemotright /onequarter /onehalf
/threequarters /questiondown /Agrave /Aacute /Acircumflex
/Atilde /Adieresis /Aring /AE /Ccedilla
/Egrave /Eacute /Ecircumflex /Edieresis /Igrave
/Iacute /Icircumflex /Idieresis /Eth /Ntilde
/Ograve /Oacute /Ocircumflex /Otilde /Odieresis
/multiply /Oslash /Ugrave /Uacute /Ucircumflex
/Udieresis /Yacute /Thorn /germandbls /agrave
/aacute /acircumflex /atilde /adieresis /aring
/ae /ccedilla /egrave /eacute /ecircumflex
/edieresis /igrave /iacute /icircumflex /idieresis
/eth /ntilde /ograve /oacute /ocircumflex
/otilde /odieresis /divide /oslash /ugrave
/uacute /ucircumflex /udieresis /yacute /thorn
/ydieresis
] def
%%EndResource
%FOPBeginFontReencode
/Courier-Bold findfont
dup length dict begin
  {1 index /FID ne {def} {pop pop} ifelse} forall
  /Encoding WinAnsiEncoding def
  currentdict
end
/Courier-Bold exch definefont pop
/Helvetica findfont
dup length dict begin
  {1 index /FID ne {def} {pop pop} ifelse} forall
  /Encoding WinAnsiEncoding def
  currentdict
end
/Helvetica exch definefont pop
/Courier-BoldOblique findfont
dup length dict begin
  {1 index /FID ne {def} {pop pop} ifelse} forall
  /Encoding WinAnsiEncoding def
  currentdict
end
/Courier-BoldOblique exch definefont pop
/Courier-Oblique findfont
dup length dict begin
  {1 index /FID ne {def} {pop pop} ifelse} forall
  /Encoding WinAnsiEncoding def
  currentdict
end
/Courier-Oblique exch definefont pop
/Times-Roman findfont
dup length dict begin
  {1 index /FID ne {def} {pop pop} ifelse} forall
  /Encoding WinAnsiEncoding def
  currentdict
end
/Times-Roman exch definefont pop
/Helvetica-BoldOblique findfont
dup length dict begin
  {1 index /FID ne {def} {pop pop} ifelse} forall
  /Encoding WinAnsiEncoding def
  currentdict
end
/Helvetica-BoldOblique exch definefont pop
/Helvetica-Bold findfont
dup length dict begin
  {1 index /FID ne {def} {pop pop} ifelse} forall
  /Encoding WinAnsiEncoding def
  currentdict
end
/Helvetica-Bold exch definefont pop
/Helvetica-Oblique findfont
dup length dict begin
  {1 index /FID ne {def} {pop pop} ifelse} forall
  /Encoding WinAnsiEncoding def
  currentdict
end
/Helvetica-Oblique exch definefont pop
/Times-BoldItalic findfont
dup length dict begin
  {1 index /FID ne {def} {pop pop} ifelse} forall
  /Encoding WinAnsiEncoding def
  currentdict
end
/Times-BoldItalic exch definefont pop
/Courier findfont
dup length dict begin
  {1 index /FID ne {def} {pop pop} ifelse} forall
  /Encoding WinAnsiEncoding def
  currentdict
end
/Courier exch definefont pop
/Times-Italic findfont
dup length dict begin
  {1 index /FID ne {def} {pop pop} ifelse} forall
  /Encoding WinAnsiEncoding def
  currentdict
end
/Times-Italic exch definefont pop
/Times-Bold findfont
dup length dict begin
  {1 index /FID ne {def} {pop pop} ifelse} forall
  /Encoding WinAnsiEncoding def
  currentdict
end
/Times-Bold exch definefont pop
%FOPEndFontReencode
%%EndProlog
%%Page: 1 1
%%PageBoundingBox: 0 0 1391 751
%%BeginPageSetup
[1 0 0 -1 0 751] CT
%%EndPageSetup
GS
[0.75 0 0 0.75 0 0.25] CT
N
0 0 M
1855 0 L
1855 1001 L
0 1001 L
0 0 L
cp
clip
1 GC
N
0 0 1855 1001 re
f
GR
GS
[0.75 0 0 0.75 0 0.25] CT
1 GC
N
0 0 1855 1001 re
f
GR
GS
[0.75 0 0 0.75 0 0.25] CT
1 GC
N
1058 891 M
1677 891 L
1677 75 L
1058 75 L
cp
f
GR
GS
[0.75 0 0 0.75 1025.62518 700.24998] CT
0.149 GC
/Helvetica 29 F
GS
[1 0 0 1 0 0] CT
-33 27 moveto 
1 -1 scale
(time) t 
GR
GR
GS
[0.75 0 0 0.75 0 0.25] CT
0.149 GC
2 setlinecap
10.0 ML
N
1058 891 M
1677 891 L
S
GR
GS
[0.75 0 0 0.75 0 0.25] CT
0.149 GC
2 setlinecap
10.0 ML
N
1058 75 M
1677 75 L
S
GR
GS
[0.75 0 0 0.75 0 0.25] CT
0.149 GC
2 setlinecap
10.0 ML
N
1058 891 M
1058 882.84 L
S
GR
GS
[0.75 0 0 0.75 0 0.25] CT
0.149 GC
2 setlinecap
10.0 ML
N
1181.8 891 M
1181.8 882.84 L
S
GR
GS
[0.75 0 0 0.75 0 0.25] CT
0.149 GC
2 setlinecap
10.0 ML
N
1305.6 891 M
1305.6 882.84 L
S
GR
GS
[0.75 0 0 0.75 0 0.25] CT
0.149 GC
2 setlinecap
10.0 ML
N
1429.4 891 M
1429.4 882.84 L
S
GR
GS
[0.75 0 0 0.75 0 0.25] CT
0.149 GC
2 setlinecap
10.0 ML
N
1553.2 891 M
1553.2 882.84 L
S
GR
GS
[0.75 0 0 0.75 0 0.25] CT
0.149 GC
2 setlinecap
10.0 ML
N
1677 891 M
1677 882.84 L
S
GR
GS
[0.75 0 0 0.75 0 0.25] CT
0.149 GC
2 setlinecap
10.0 ML
N
1058 75 M
1058 83.16 L
S
GR
GS
[0.75 0 0 0.75 0 0.25] CT
0.149 GC
2 setlinecap
10.0 ML
N
1181.8 75 M
1181.8 83.16 L
S
GR
GS
[0.75 0 0 0.75 0 0.25] CT
0.149 GC
2 setlinecap
10.0 ML
N
1305.6 75 M
1305.6 83.16 L
S
GR
GS
[0.75 0 0 0.75 0 0.25] CT
0.149 GC
2 setlinecap
10.0 ML
N
1429.4 75 M
1429.4 83.16 L
S
GR
GS
[0.75 0 0 0.75 0 0.25] CT
0.149 GC
2 setlinecap
10.0 ML
N
1553.2 75 M
1553.2 83.16 L
S
GR
GS
[0.75 0 0 0.75 0 0.25] CT
0.149 GC
2 setlinecap
10.0 ML
N
1677 75 M
1677 83.16 L
S
GR
GS
[0.75 0 0 0.75 793.5 674.5] CT
0.149 GC
/Helvetica 27 F
GS
[1 0 0 1 0 0] CT
-9 26 moveto 
1 -1 scale
(0) t 
GR
GR
GS
[0.75 0 0 0.75 886.35004 674.5] CT
0.149 GC
/Helvetica 27 F
GS
[1 0 0 1 0 0] CT
-26 26 moveto 
1 -1 scale
(200) t 
GR
GR
GS
[0.75 0 0 0.75 979.19998 674.5] CT
0.149 GC
/Helvetica 27 F
GS
[1 0 0 1 0 0] CT
-26 26 moveto 
1 -1 scale
(400) t 
GR
GR
GS
[0.75 0 0 0.75 1072.05002 674.5] CT
0.149 GC
/Helvetica 27 F
GS
[1 0 0 1 0 0] CT
-26 26 moveto 
1 -1 scale
(600) t 
GR
GR
GS
[0.75 0 0 0.75 1164.89996 674.5] CT
0.149 GC
/Helvetica 27 F
GS
[1 0 0 1 0 0] CT
-26 26 moveto 
1 -1 scale
(800) t 
GR
GR
GS
[0.75 0 0 0.75 1257.75 674.5] CT
0.149 GC
/Helvetica 27 F
GS
[1 0 0 1 0 0] CT
-34.5 26 moveto 
1 -1 scale
(1000) t 
GR
GR
GS
[0 -0.75 0.75 0 729.75 388] CT
0.149 GC
/Helvetica 29 F
GS
[1 0 0 1 0 0] CT
0 0 moveto 
1 -1 scale
(x) t 
GR
GR
GS
[0 -0.75 0.75 0 740.25 374.5] CT
0.149 GC
/Helvetica 23 F
GS
[1 0 0 1 0 0] CT
0 0 moveto 
1 -1 scale
(i) t 
GR
GR
GS
[0 -0.75 0.75 0 729.75 369.25] CT
0.149 GC
/Helvetica 29 F
GS
[1 0 0 1 0 0] CT
0 0 moveto 
1 -1 scale
(, y) t 
GR
GR
GS
[0 -0.75 0.75 0 740.25 342.25] CT
0.149 GC
/Helvetica 23 F
GS
[1 0 0 1 0 0] CT
0 0 moveto 
1 -1 scale
(i) t 
GR
GR
GS
[0.75 0 0 0.75 0 0.25] CT
0.149 GC
2 setlinecap
10.0 ML
N
1058 891 M
1058 75 L
S
GR
GS
[0.75 0 0 0.75 0 0.25] CT
0.149 GC
2 setlinecap
10.0 ML
N
1677 891 M
1677 75 L
S
GR
GS
[0.75 0 0 0.75 0 0.25] CT
0.149 GC
2 setlinecap
10.0 ML
N
1058 891 M
1066.16 891 L
S
GR
GS
[0.75 0 0 0.75 0 0.25] CT
0.149 GC
2 setlinecap
10.0 ML
N
1058 774.429 M
1066.16 774.429 L
S
GR
GS
[0.75 0 0 0.75 0 0.25] CT
0.149 GC
2 setlinecap
10.0 ML
N
1058 657.857 M
1066.16 657.857 L
S
GR
GS
[0.75 0 0 0.75 0 0.25] CT
0.149 GC
2 setlinecap
10.0 ML
N
1058 541.286 M
1066.16 541.286 L
S
GR
GS
[0.75 0 0 0.75 0 0.25] CT
0.149 GC
2 setlinecap
10.0 ML
N
1058 424.714 M
1066.16 424.714 L
S
GR
GS
[0.75 0 0 0.75 0 0.25] CT
0.149 GC
2 setlinecap
10.0 ML
N
1058 308.143 M
1066.16 308.143 L
S
GR
GS
[0.75 0 0 0.75 0 0.25] CT
0.149 GC
2 setlinecap
10.0 ML
N
1058 191.571 M
1066.16 191.571 L
S
GR
GS
[0.75 0 0 0.75 0 0.25] CT
0.149 GC
2 setlinecap
10.0 ML
N
1058 75 M
1066.16 75 L
S
GR
GS
[0.75 0 0 0.75 0 0.25] CT
0.149 GC
2 setlinecap
10.0 ML
N
1677 891 M
1668.84 891 L
S
GR
GS
[0.75 0 0 0.75 0 0.25] CT
0.149 GC
2 setlinecap
10.0 ML
N
1677 774.429 M
1668.84 774.429 L
S
GR
GS
[0.75 0 0 0.75 0 0.25] CT
0.149 GC
2 setlinecap
10.0 ML
N
1677 657.857 M
1668.84 657.857 L
S
GR
GS
[0.75 0 0 0.75 0 0.25] CT
0.149 GC
2 setlinecap
10.0 ML
N
1677 541.286 M
1668.84 541.286 L
S
GR
GS
[0.75 0 0 0.75 0 0.25] CT
0.149 GC
2 setlinecap
10.0 ML
N
1677 424.714 M
1668.84 424.714 L
S
GR
GS
[0.75 0 0 0.75 0 0.25] CT
0.149 GC
2 setlinecap
10.0 ML
N
1677 308.143 M
1668.84 308.143 L
S
GR
GS
[0.75 0 0 0.75 0 0.25] CT
0.149 GC
2 setlinecap
10.0 ML
N
1677 191.571 M
1668.84 191.571 L
S
GR
GS
[0.75 0 0 0.75 0 0.25] CT
0.149 GC
2 setlinecap
10.0 ML
N
1677 75 M
1668.84 75 L
S
GR
GS
[0.75 0 0 0.75 787.5 668.5] CT
0.149 GC
/Helvetica 27 F
GS
[1 0 0 1 0 0] CT
-53 9.5 moveto 
1 -1 scale
(-0.4) t 
GR
GR
GS
[0.75 0 0 0.75 787.5 581.07144] CT
0.149 GC
/Helvetica 27 F
GS
[1 0 0 1 0 0] CT
-53 9.5 moveto 
1 -1 scale
(-0.2) t 
GR
GR
GS
[0.75 0 0 0.75 787.5 493.64284] CT
0.149 GC
/Helvetica 27 F
GS
[1 0 0 1 0 0] CT
-18 9.5 moveto 
1 -1 scale
(0) t 
GR
GR
GS
[0.75 0 0 0.75 787.5 406.21428] CT
0.149 GC
/Helvetica 27 F
GS
[1 0 0 1 0 0] CT
-43 9.5 moveto 
1 -1 scale
(0.2) t 
GR
GR
GS
[0.75 0 0 0.75 787.5 318.78572] CT
0.149 GC
/Helvetica 27 F
GS
[1 0 0 1 0 0] CT
-43 9.5 moveto 
1 -1 scale
(0.4) t 
GR
GR
GS
[0.75 0 0 0.75 787.5 231.35714] CT
0.149 GC
/Helvetica 27 F
GS
[1 0 0 1 0 0] CT
-43 9.5 moveto 
1 -1 scale
(0.6) t 
GR
GR
GS
[0.75 0 0 0.75 787.5 143.92857] CT
0.149 GC
/Helvetica 27 F
GS
[1 0 0 1 0 0] CT
-43 9.5 moveto 
1 -1 scale
(0.8) t 
GR
GR
GS
[0.75 0 0 0.75 787.5 56.5] CT
0.149 GC
/Helvetica 27 F
GS
[1 0 0 1 0 0] CT
-18 9.5 moveto 
1 -1 scale
(1) t 
GR
GR
GS
[0.75 0 0 0.75 0 0.25] CT
0 0.447 0.741 RC
2 LJ
2.667 LW
N
1058 657.857 M
1058.005 657.811 L
1058.03 657.578 L
1058.154 656.419 L
1058.61 652.223 L
1059.351 645.619 L
1060.359 636.838 L
1061.62 625.811 L
1063.067 612.437 L
1064.545 596.835 L
1065.902 579.112 L
1067.075 558.85 L
1067.63 546.625 L
1068.185 531.887 L
1068.743 513.581 L
1069.382 486.655 L
1070.054 448.488 L
1070.733 395.593 L
1071.425 324.228 L
1071.947 262.558 L
1072.468 203.504 L
1072.99 157.044 L
1073.695 120.047 L
1074.542 103.714 L
1075.389 102.368 L
1076.55 107.135 L
1077.71 114.163 L
1079.852 127.267 L
1081.994 141.113 L
1084.473 157.082 L
1086.953 173.999 L
1089.909 195.217 L
1092.848 219.072 L
1095.542 245.056 L
1098.235 279.228 L
1099.801 307.191 L
1101.034 338.22 L
1101.962 371.503 L
1102.89 420.488 L
1103.64 479.782 L
1104.271 549.576 L
1104.516 582.122 L
1104.762 616.976 L
1104.97 647.328 L
1105.126 670.286 L
1105.283 692.717 L
1105.472 718.363 L
1105.707 747.092 L
1106.006 777.26 L
1106.465 808.891 L
S
GR
GS
[0.75 0 0 0.75 0 0.25] CT
0 0.447 0.741 RC
2 LJ
2.667 LW
N
1106.465 808.891 M
1106.993 827.817 L
1107.52 835.334 L
1108.247 837.508 L
1109.141 835.209 L
1110.035 831.383 L
1112.033 822.682 L
1113.675 815.06 L
1115.26 808.305 L
1116.844 801.474 L
1118.78 793.391 L
1120.716 785.395 L
1123.151 775.71 L
1125.322 767.12 L
1127.885 757.43 L
1130.159 748.939 L
1132.71 739.789 L
1135.169 731.195 L
1136.82 725.546 L
1138.47 720.05 L
1141.672 709.915 L
1144.275 701.905 L
1146.015 696.737 L
1147.755 691.749 L
1150.384 684.583 L
1152.573 678.937 L
1154.364 674.562 L
1155.702 671.449 L
1157.04 668.479 L
1159.25 663.923 L
1161.511 659.751 L
1163.809 656.083 L
1166.125 653.05 L
1168.398 650.795 L
1170.563 649.377 L
1172.561 648.735 L
1174.586 648.747 L
1176.646 649.409 L
1178.705 650.643 L
1180.975 652.504 L
1182.97 654.387 L
1184.75 656.108 L
1186.337 657.574 L
1187.164 658.284 L
1187.99 658.946 L
1189.305 659.883 L
1191.174 660.938 L
1193.465 661.757 L
1195.37 662.056 L
1197.275 662.046 L
S
GR
GS
[0.75 0 0 0.75 0 0.25] CT
0 0.447 0.741 RC
2 LJ
2.667 LW
N
1197.275 662.046 M
1199.551 661.703 L
1201.769 661.112 L
1203.97 660.369 L
1205.265 659.892 L
1206.56 659.404 L
1208.58 658.656 L
1210.554 657.976 L
1212.295 657.445 L
1214.045 656.994 L
1216.39 656.542 L
1219.649 656.224 L
1222.599 656.23 L
1225.043 656.411 L
1227.335 656.689 L
1229.491 657.008 L
1231.523 657.331 L
1233.423 657.628 L
1235.212 657.886 L
1237.176 658.13 L
1239.472 658.351 L
1242.872 658.532 L
1245.746 658.555 L
1248.149 658.498 L
1250.433 658.396 L
1252.631 658.268 L
1254.801 658.128 L
1257.065 657.982 L
1259.5 657.838 L
1262.253 657.706 L
1265.792 657.601 L
1268.675 657.57 L
1271.559 657.583 L
1274.511 657.633 L
1277.346 657.702 L
1280.233 657.779 L
1283.313 657.858 L
1286.839 657.927 L
1291.808 657.973 L
1296.371 657.966 L
1300.113 657.935 L
1303.885 657.895 L
1307.924 657.853 L
1312.747 657.82 L
1317.701 657.81 L
1322.655 657.819 L
1327.583 657.84 L
1332.8 657.861 L
1339.372 657.875 L
1345.248 657.874 L
S
GR
GS
[0.75 0 0 0.75 0 0.25] CT
0 0.447 0.741 RC
2 LJ
2.667 LW
N
1345.248 657.874 M
1351.124 657.865 L
1357.953 657.855 L
1366.927 657.851 L
1376.465 657.855 L
1385.113 657.859 L
1395.548 657.858 L
1405.984 657.857 L
1421.716 657.857 L
1439.347 657.857 L
1459.775 657.857 L
1478.033 657.858 L
1496.292 657.857 L
1513.781 657.857 L
1531.659 657.857 L
1549.537 657.857 L
1568.965 657.857 L
1584.989 657.857 L
1601.013 657.857 L
1624.682 657.857 L
1643.965 657.858 L
1660.482 657.857 L
1677 657.857 L
S
GR
GS
[0.75 0 0 0.75 0 0.25] CT
0.851 0.325 0.098 RC
2 LJ
2.667 LW
N
1058 663.686 M
1058.005 663.685 L
1058.03 663.68 L
1058.154 663.656 L
1058.61 663.554 L
1059.351 663.35 L
1060.359 663 L
1061.62 662.449 L
1063.067 661.663 L
1064.545 660.679 L
1065.902 659.586 L
1067.075 658.45 L
1067.63 657.831 L
1068.185 657.146 L
1068.743 656.373 L
1069.382 655.357 L
1070.054 654.086 L
1070.733 652.51 L
1071.425 650.489 L
1071.947 648.629 L
1072.468 646.466 L
1072.99 644.046 L
1073.695 640.536 L
1074.542 636.198 L
1075.389 631.9 L
1076.55 626.223 L
1077.71 620.823 L
1079.852 611.6 L
1081.994 603.283 L
1084.473 594.727 L
1086.953 587.24 L
1089.909 579.639 L
1092.848 573.428 L
1095.542 568.899 L
1098.235 565.548 L
1099.801 564.227 L
1101.034 563.605 L
1101.962 563.462 L
1102.89 563.711 L
1103.64 564.329 L
1104.271 565.262 L
1104.516 565.757 L
1104.762 566.335 L
1104.97 566.89 L
1105.126 567.351 L
1105.283 567.847 L
1105.472 568.49 L
1105.707 569.351 L
1106.006 570.533 L
1106.465 572.47 L
S
GR
GS
[0.75 0 0 0.75 0 0.25] CT
0.851 0.325 0.098 RC
2 LJ
2.667 LW
N
1106.465 572.47 M
1106.993 574.8 L
1107.52 577.162 L
1108.247 580.385 L
1109.141 584.247 L
1110.035 587.971 L
1112.033 595.782 L
1113.675 601.703 L
1115.26 607.005 L
1116.844 611.933 L
1118.78 617.475 L
1120.716 622.521 L
1123.151 628.215 L
1125.322 632.727 L
1127.885 637.424 L
1130.159 641.07 L
1132.71 644.624 L
1135.169 647.563 L
1136.82 649.29 L
1138.47 650.833 L
1141.672 653.344 L
1144.275 654.967 L
1146.015 655.863 L
1147.755 656.62 L
1150.384 657.522 L
1152.573 658.075 L
1154.364 658.408 L
1155.702 658.593 L
1157.04 658.729 L
1159.25 658.854 L
1161.511 658.874 L
1163.809 658.8 L
1166.125 658.653 L
1168.398 658.458 L
1170.563 658.244 L
1172.561 658.039 L
1174.586 657.839 L
1176.646 657.655 L
1178.705 657.503 L
1180.975 657.383 L
1182.97 657.322 L
1184.75 657.305 L
1186.337 657.316 L
1187.164 657.331 L
1187.99 657.352 L
1189.305 657.394 L
1191.174 657.471 L
1193.465 657.581 L
1195.37 657.676 L
1197.275 657.769 L
S
GR
GS
[0.75 0 0 0.75 0 0.25] CT
0.851 0.325 0.098 RC
2 LJ
2.667 LW
N
1197.275 657.769 M
1199.551 657.869 L
1201.769 657.948 L
1203.97 658.006 L
1205.265 658.031 L
1206.56 658.047 L
1208.58 658.059 L
1210.554 658.056 L
1212.295 658.042 L
1214.045 658.02 L
1216.39 657.982 L
1219.649 657.921 L
1222.599 657.866 L
1225.043 657.827 L
1227.335 657.799 L
1229.491 657.781 L
1231.523 657.771 L
1233.423 657.769 L
1235.212 657.772 L
1237.176 657.781 L
1239.472 657.795 L
1242.872 657.822 L
1245.746 657.845 L
1248.149 657.862 L
1250.433 657.876 L
1252.631 657.885 L
1254.801 657.891 L
1257.065 657.893 L
1259.5 657.891 L
1262.253 657.886 L
1265.792 657.875 L
1268.675 657.866 L
1271.559 657.857 L
1274.511 657.849 L
1277.346 657.845 L
1280.233 657.842 L
1283.313 657.843 L
1286.839 657.846 L
1291.808 657.852 L
1296.371 657.858 L
1300.113 657.861 L
1303.885 657.863 L
1307.924 657.863 L
1312.747 657.861 L
1317.701 657.858 L
1322.655 657.856 L
1327.583 657.855 L
1332.8 657.855 L
1339.372 657.856 L
1345.248 657.857 L
S
GR
GS
[0.75 0 0 0.75 0 0.25] CT
0.851 0.325 0.098 RC
2 LJ
2.667 LW
N
1345.248 657.857 M
1351.124 657.858 L
1357.953 657.858 L
1366.927 657.857 L
1376.465 657.857 L
1385.113 657.857 L
1395.548 657.857 L
1405.984 657.857 L
1421.716 657.857 L
1439.347 657.857 L
1459.775 657.857 L
1478.033 657.857 L
1496.292 657.857 L
1513.781 657.857 L
1531.659 657.857 L
1549.537 657.857 L
1568.965 657.857 L
1584.989 657.857 L
1601.013 657.857 L
1624.682 657.857 L
1643.965 657.857 L
1660.482 657.857 L
1677 657.857 L
S
GR
GS
[0.75 0 0 0.75 0 0.25] CT
0.929 0.694 0.125 RC
2 LJ
2.667 LW
N
1058 657.857 M
1058.005 657.857 L
1058.03 657.857 L
1058.154 657.857 L
1058.61 657.857 L
1059.351 657.857 L
1060.359 657.857 L
1061.62 657.857 L
1063.067 657.857 L
1064.545 657.857 L
1065.902 657.857 L
1067.075 657.857 L
1067.63 657.857 L
1068.185 657.857 L
1068.743 657.857 L
1069.382 657.857 L
1070.054 657.857 L
1070.733 657.857 L
1071.425 657.857 L
1071.947 657.857 L
1072.468 657.857 L
1072.99 657.857 L
1073.695 657.857 L
1074.542 657.857 L
1075.389 657.857 L
1076.55 657.857 L
1077.71 657.857 L
1079.852 657.857 L
1081.994 657.857 L
1084.473 657.857 L
1086.953 657.857 L
1089.909 657.857 L
1092.848 657.857 L
1095.542 657.857 L
1098.235 657.857 L
1099.801 657.857 L
1101.034 657.857 L
1101.962 657.857 L
1102.89 657.857 L
1103.64 657.857 L
1104.271 657.857 L
1104.516 657.857 L
1104.762 657.857 L
1104.97 657.857 L
1105.126 657.857 L
1105.283 657.857 L
1105.472 657.857 L
1105.707 657.857 L
1106.006 657.857 L
1106.465 657.857 L
S
GR
GS
[0.75 0 0 0.75 0 0.25] CT
0.929 0.694 0.125 RC
2 LJ
2.667 LW
N
1106.465 657.857 M
1106.993 657.857 L
1107.52 657.857 L
1108.247 657.857 L
1109.141 657.857 L
1110.035 657.857 L
1112.033 657.857 L
1113.675 657.857 L
1115.26 657.857 L
1116.844 657.857 L
1118.78 657.857 L
1120.716 657.857 L
1123.151 657.857 L
1125.322 657.857 L
1127.885 657.857 L
1130.159 657.857 L
1132.71 657.857 L
1135.169 657.857 L
1136.82 657.857 L
1138.47 657.857 L
1141.672 657.857 L
1144.275 657.857 L
1146.015 657.857 L
1147.755 657.857 L
1150.384 657.857 L
1152.573 657.857 L
1154.364 657.857 L
1155.702 657.857 L
1157.04 657.857 L
1159.25 657.857 L
1161.511 657.857 L
1163.809 657.857 L
1166.125 657.857 L
1168.398 657.857 L
1170.563 657.857 L
1172.561 657.857 L
1174.586 657.857 L
1176.646 657.857 L
1178.705 657.857 L
1180.975 657.857 L
1182.97 657.857 L
1184.75 657.857 L
1186.337 657.857 L
1187.164 657.857 L
1187.99 657.857 L
1189.305 657.857 L
1191.174 657.857 L
1193.465 657.857 L
1195.37 657.857 L
1197.275 657.857 L
S
GR
GS
[0.75 0 0 0.75 0 0.25] CT
0.929 0.694 0.125 RC
2 LJ
2.667 LW
N
1197.275 657.857 M
1199.551 657.857 L
1201.769 657.857 L
1203.97 657.857 L
1205.265 657.857 L
1206.56 657.857 L
1208.58 657.857 L
1210.554 657.857 L
1212.295 657.857 L
1214.045 657.857 L
1216.39 657.857 L
1219.649 657.857 L
1222.599 657.857 L
1225.043 657.857 L
1227.335 657.857 L
1229.491 657.857 L
1231.523 657.857 L
1233.423 657.857 L
1235.212 657.857 L
1237.176 657.857 L
1239.472 657.857 L
1242.872 657.857 L
1245.746 657.857 L
1248.149 657.857 L
1250.433 657.857 L
1252.631 657.857 L
1254.801 657.857 L
1257.065 657.857 L
1259.5 657.857 L
1262.253 657.857 L
1265.792 657.857 L
1268.675 657.857 L
1271.559 657.857 L
1274.511 657.857 L
1277.346 657.857 L
1280.233 657.857 L
1283.313 657.857 L
1286.839 657.857 L
1291.808 657.857 L
1296.371 657.857 L
1300.113 657.857 L
1303.885 657.857 L
1307.924 657.857 L
1312.747 657.857 L
1317.701 657.857 L
1322.655 657.857 L
1327.583 657.857 L
1332.8 657.857 L
1339.372 657.857 L
1345.248 657.857 L
S
GR
GS
[0.75 0 0 0.75 0 0.25] CT
0.929 0.694 0.125 RC
2 LJ
2.667 LW
N
1345.248 657.857 M
1351.124 657.857 L
1357.953 657.857 L
1366.927 657.857 L
1376.465 657.857 L
1385.113 657.857 L
1395.548 657.857 L
1405.984 657.857 L
1421.716 657.857 L
1439.347 657.857 L
1459.775 657.857 L
1478.033 657.857 L
1496.292 657.857 L
1513.781 657.857 L
1531.659 657.857 L
1549.537 657.857 L
1568.965 657.857 L
1584.989 657.857 L
1601.013 657.857 L
1624.682 657.857 L
1643.965 657.857 L
1660.482 657.857 L
1677 657.857 L
S
GR
GS
[0.75 0 0 0.75 0 0.25] CT
0.494 0.184 0.557 RC
2 LJ
2.667 LW
N
1058 657.857 M
1058.005 657.857 L
1058.03 657.857 L
1058.154 657.857 L
1058.61 657.857 L
1059.351 657.857 L
1060.359 657.857 L
1061.62 657.857 L
1063.067 657.857 L
1064.545 657.857 L
1065.902 657.857 L
1067.075 657.857 L
1067.63 657.857 L
1068.185 657.857 L
1068.743 657.857 L
1069.382 657.857 L
1070.054 657.857 L
1070.733 657.857 L
1071.425 657.857 L
1071.947 657.857 L
1072.468 657.857 L
1072.99 657.857 L
1073.695 657.857 L
1074.542 657.857 L
1075.389 657.857 L
1076.55 657.857 L
1077.71 657.857 L
1079.852 657.857 L
1081.994 657.857 L
1084.473 657.857 L
1086.953 657.857 L
1089.909 657.857 L
1092.848 657.857 L
1095.542 657.857 L
1098.235 657.857 L
1099.801 657.857 L
1101.034 657.857 L
1101.962 657.857 L
1102.89 657.857 L
1103.64 657.857 L
1104.271 657.857 L
1104.516 657.857 L
1104.762 657.857 L
1104.97 657.857 L
1105.126 657.857 L
1105.283 657.857 L
1105.472 657.857 L
1105.707 657.857 L
1106.006 657.857 L
1106.465 657.857 L
S
GR
GS
[0.75 0 0 0.75 0 0.25] CT
0.494 0.184 0.557 RC
2 LJ
2.667 LW
N
1106.465 657.857 M
1106.993 657.857 L
1107.52 657.857 L
1108.247 657.857 L
1109.141 657.857 L
1110.035 657.857 L
1112.033 657.857 L
1113.675 657.857 L
1115.26 657.857 L
1116.844 657.857 L
1118.78 657.857 L
1120.716 657.857 L
1123.151 657.857 L
1125.322 657.857 L
1127.885 657.857 L
1130.159 657.857 L
1132.71 657.857 L
1135.169 657.857 L
1136.82 657.857 L
1138.47 657.857 L
1141.672 657.857 L
1144.275 657.857 L
1146.015 657.857 L
1147.755 657.857 L
1150.384 657.857 L
1152.573 657.857 L
1154.364 657.857 L
1155.702 657.857 L
1157.04 657.857 L
1159.25 657.857 L
1161.511 657.857 L
1163.809 657.857 L
1166.125 657.857 L
1168.398 657.857 L
1170.563 657.857 L
1172.561 657.857 L
1174.586 657.857 L
1176.646 657.857 L
1178.705 657.857 L
1180.975 657.857 L
1182.97 657.857 L
1184.75 657.857 L
1186.337 657.857 L
1187.164 657.857 L
1187.99 657.857 L
1189.305 657.857 L
1191.174 657.857 L
1193.465 657.857 L
1195.37 657.857 L
1197.275 657.857 L
S
GR
GS
[0.75 0 0 0.75 0 0.25] CT
0.494 0.184 0.557 RC
2 LJ
2.667 LW
N
1197.275 657.857 M
1199.551 657.857 L
1201.769 657.857 L
1203.97 657.857 L
1205.265 657.857 L
1206.56 657.857 L
1208.58 657.857 L
1210.554 657.857 L
1212.295 657.857 L
1214.045 657.857 L
1216.39 657.857 L
1219.649 657.857 L
1222.599 657.857 L
1225.043 657.857 L
1227.335 657.857 L
1229.491 657.857 L
1231.523 657.857 L
1233.423 657.857 L
1235.212 657.857 L
1237.176 657.857 L
1239.472 657.857 L
1242.872 657.857 L
1245.746 657.857 L
1248.149 657.857 L
1250.433 657.857 L
1252.631 657.857 L
1254.801 657.857 L
1257.065 657.857 L
1259.5 657.857 L
1262.253 657.857 L
1265.792 657.857 L
1268.675 657.857 L
1271.559 657.857 L
1274.511 657.857 L
1277.346 657.857 L
1280.233 657.857 L
1283.313 657.857 L
1286.839 657.857 L
1291.808 657.857 L
1296.371 657.857 L
1300.113 657.857 L
1303.885 657.857 L
1307.924 657.857 L
1312.747 657.857 L
1317.701 657.857 L
1322.655 657.857 L
1327.583 657.857 L
1332.8 657.857 L
1339.372 657.857 L
1345.248 657.857 L
S
GR
GS
[0.75 0 0 0.75 0 0.25] CT
0.494 0.184 0.557 RC
2 LJ
2.667 LW
N
1345.248 657.857 M
1351.124 657.857 L
1357.953 657.857 L
1366.927 657.857 L
1376.465 657.857 L
1385.113 657.857 L
1395.548 657.857 L
1405.984 657.857 L
1421.716 657.857 L
1439.347 657.857 L
1459.775 657.857 L
1478.033 657.857 L
1496.292 657.857 L
1513.781 657.857 L
1531.659 657.857 L
1549.537 657.857 L
1568.965 657.857 L
1584.989 657.857 L
1601.013 657.857 L
1624.682 657.857 L
1643.965 657.857 L
1660.482 657.857 L
1677 657.857 L
S
GR
GS
[0.75 0 0 0.75 1025.62601 52.37501] CT
/Helvetica-Bold 29 F
GS
[1 0 0 1 0 0] CT
-83.5 -7 moveto 
1 -1 scale
(Excitatory) t 
GR
GR
GS
[0.75 0 0 0.75 0 0.25] CT
1 GC
N
241 891 M
860 891 L
860 75 L
241 75 L
cp
f
GR
GS
[0.75 0 0 0.75 412.87523 700.24998] CT
0.149 GC
/Helvetica 29 F
GS
[1 0 0 1 0 0] CT
-33 27 moveto 
1 -1 scale
(time) t 
GR
GR
GS
[0.75 0 0 0.75 0 0.25] CT
0.149 GC
2 setlinecap
10.0 ML
N
241 891 M
860 891 L
S
GR
GS
[0.75 0 0 0.75 0 0.25] CT
0.149 GC
2 setlinecap
10.0 ML
N
241 75 M
860 75 L
S
GR
GS
[0.75 0 0 0.75 0 0.25] CT
0.149 GC
2 setlinecap
10.0 ML
N
241 891 M
241 882.84 L
S
GR
GS
[0.75 0 0 0.75 0 0.25] CT
0.149 GC
2 setlinecap
10.0 ML
N
364.8 891 M
364.8 882.84 L
S
GR
GS
[0.75 0 0 0.75 0 0.25] CT
0.149 GC
2 setlinecap
10.0 ML
N
488.6 891 M
488.6 882.84 L
S
GR
GS
[0.75 0 0 0.75 0 0.25] CT
0.149 GC
2 setlinecap
10.0 ML
N
612.4 891 M
612.4 882.84 L
S
GR
GS
[0.75 0 0 0.75 0 0.25] CT
0.149 GC
2 setlinecap
10.0 ML
N
736.2 891 M
736.2 882.84 L
S
GR
GS
[0.75 0 0 0.75 0 0.25] CT
0.149 GC
2 setlinecap
10.0 ML
N
860 891 M
860 882.84 L
S
GR
GS
[0.75 0 0 0.75 0 0.25] CT
0.149 GC
2 setlinecap
10.0 ML
N
241 75 M
241 83.16 L
S
GR
GS
[0.75 0 0 0.75 0 0.25] CT
0.149 GC
2 setlinecap
10.0 ML
N
364.8 75 M
364.8 83.16 L
S
GR
GS
[0.75 0 0 0.75 0 0.25] CT
0.149 GC
2 setlinecap
10.0 ML
N
488.6 75 M
488.6 83.16 L
S
GR
GS
[0.75 0 0 0.75 0 0.25] CT
0.149 GC
2 setlinecap
10.0 ML
N
612.4 75 M
612.4 83.16 L
S
GR
GS
[0.75 0 0 0.75 0 0.25] CT
0.149 GC
2 setlinecap
10.0 ML
N
736.2 75 M
736.2 83.16 L
S
GR
GS
[0.75 0 0 0.75 0 0.25] CT
0.149 GC
2 setlinecap
10.0 ML
N
860 75 M
860 83.16 L
S
GR
GS
[0.75 0 0 0.75 180.75 674.5] CT
0.149 GC
/Helvetica 27 F
GS
[1 0 0 1 0 0] CT
-9 26 moveto 
1 -1 scale
(0) t 
GR
GR
GS
[0.75 0 0 0.75 273.59999 674.5] CT
0.149 GC
/Helvetica 27 F
GS
[1 0 0 1 0 0] CT
-26 26 moveto 
1 -1 scale
(200) t 
GR
GR
GS
[0.75 0 0 0.75 366.45 674.5] CT
0.149 GC
/Helvetica 27 F
GS
[1 0 0 1 0 0] CT
-26 26 moveto 
1 -1 scale
(400) t 
GR
GR
GS
[0.75 0 0 0.75 459.30002 674.5] CT
0.149 GC
/Helvetica 27 F
GS
[1 0 0 1 0 0] CT
-26 26 moveto 
1 -1 scale
(600) t 
GR
GR
GS
[0.75 0 0 0.75 552.15001 674.5] CT
0.149 GC
/Helvetica 27 F
GS
[1 0 0 1 0 0] CT
-26 26 moveto 
1 -1 scale
(800) t 
GR
GR
GS
[0.75 0 0 0.75 645 674.5] CT
0.149 GC
/Helvetica 27 F
GS
[1 0 0 1 0 0] CT
-34.5 26 moveto 
1 -1 scale
(1000) t 
GR
GR
GS
[0 -0.75 0.75 0 117 388] CT
0.149 GC
/Helvetica 29 F
GS
[1 0 0 1 0 0] CT
0 0 moveto 
1 -1 scale
(x) t 
GR
GR
GS
[0 -0.75 0.75 0 127.5 374.5] CT
0.149 GC
/Helvetica 23 F
GS
[1 0 0 1 0 0] CT
0 0 moveto 
1 -1 scale
(i) t 
GR
GR
GS
[0 -0.75 0.75 0 117 369.25] CT
0.149 GC
/Helvetica 29 F
GS
[1 0 0 1 0 0] CT
0 0 moveto 
1 -1 scale
(, y) t 
GR
GR
GS
[0 -0.75 0.75 0 127.5 342.25] CT
0.149 GC
/Helvetica 23 F
GS
[1 0 0 1 0 0] CT
0 0 moveto 
1 -1 scale
(i) t 
GR
GR
GS
[0.75 0 0 0.75 0 0.25] CT
0.149 GC
2 setlinecap
10.0 ML
N
241 891 M
241 75 L
S
GR
GS
[0.75 0 0 0.75 0 0.25] CT
0.149 GC
2 setlinecap
10.0 ML
N
860 891 M
860 75 L
S
GR
GS
[0.75 0 0 0.75 0 0.25] CT
0.149 GC
2 setlinecap
10.0 ML
N
241 891 M
249.16 891 L
S
GR
GS
[0.75 0 0 0.75 0 0.25] CT
0.149 GC
2 setlinecap
10.0 ML
N
241 800.333 M
249.16 800.333 L
S
GR
GS
[0.75 0 0 0.75 0 0.25] CT
0.149 GC
2 setlinecap
10.0 ML
N
241 709.667 M
249.16 709.667 L
S
GR
GS
[0.75 0 0 0.75 0 0.25] CT
0.149 GC
2 setlinecap
10.0 ML
N
241 619 M
249.16 619 L
S
GR
GS
[0.75 0 0 0.75 0 0.25] CT
0.149 GC
2 setlinecap
10.0 ML
N
241 528.333 M
249.16 528.333 L
S
GR
GS
[0.75 0 0 0.75 0 0.25] CT
0.149 GC
2 setlinecap
10.0 ML
N
241 437.667 M
249.16 437.667 L
S
GR
GS
[0.75 0 0 0.75 0 0.25] CT
0.149 GC
2 setlinecap
10.0 ML
N
241 347 M
249.16 347 L
S
GR
GS
[0.75 0 0 0.75 0 0.25] CT
0.149 GC
2 setlinecap
10.0 ML
N
241 256.333 M
249.16 256.333 L
S
GR
GS
[0.75 0 0 0.75 0 0.25] CT
0.149 GC
2 setlinecap
10.0 ML
N
241 165.667 M
249.16 165.667 L
S
GR
GS
[0.75 0 0 0.75 0 0.25] CT
0.149 GC
2 setlinecap
10.0 ML
N
241 75 M
249.16 75 L
S
GR
GS
[0.75 0 0 0.75 0 0.25] CT
0.149 GC
2 setlinecap
10.0 ML
N
860 891 M
851.84 891 L
S
GR
GS
[0.75 0 0 0.75 0 0.25] CT
0.149 GC
2 setlinecap
10.0 ML
N
860 800.333 M
851.84 800.333 L
S
GR
GS
[0.75 0 0 0.75 0 0.25] CT
0.149 GC
2 setlinecap
10.0 ML
N
860 709.667 M
851.84 709.667 L
S
GR
GS
[0.75 0 0 0.75 0 0.25] CT
0.149 GC
2 setlinecap
10.0 ML
N
860 619 M
851.84 619 L
S
GR
GS
[0.75 0 0 0.75 0 0.25] CT
0.149 GC
2 setlinecap
10.0 ML
N
860 528.333 M
851.84 528.333 L
S
GR
GS
[0.75 0 0 0.75 0 0.25] CT
0.149 GC
2 setlinecap
10.0 ML
N
860 437.667 M
851.84 437.667 L
S
GR
GS
[0.75 0 0 0.75 0 0.25] CT
0.149 GC
2 setlinecap
10.0 ML
N
860 347 M
851.84 347 L
S
GR
GS
[0.75 0 0 0.75 0 0.25] CT
0.149 GC
2 setlinecap
10.0 ML
N
860 256.333 M
851.84 256.333 L
S
GR
GS
[0.75 0 0 0.75 0 0.25] CT
0.149 GC
2 setlinecap
10.0 ML
N
860 165.667 M
851.84 165.667 L
S
GR
GS
[0.75 0 0 0.75 0 0.25] CT
0.149 GC
2 setlinecap
10.0 ML
N
860 75 M
851.84 75 L
S
GR
GS
[0.75 0 0 0.75 174.75 668.5] CT
0.149 GC
/Helvetica 27 F
GS
[1 0 0 1 0 0] CT
-53 9.5 moveto 
1 -1 scale
(-0.8) t 
GR
GR
GS
[0.75 0 0 0.75 174.75 600.50003] CT
0.149 GC
/Helvetica 27 F
GS
[1 0 0 1 0 0] CT
-53 9.5 moveto 
1 -1 scale
(-0.6) t 
GR
GR
GS
[0.75 0 0 0.75 174.75 532.50002] CT
0.149 GC
/Helvetica 27 F
GS
[1 0 0 1 0 0] CT
-53 9.5 moveto 
1 -1 scale
(-0.4) t 
GR
GR
GS
[0.75 0 0 0.75 174.75 464.5] CT
0.149 GC
/Helvetica 27 F
GS
[1 0 0 1 0 0] CT
-53 9.5 moveto 
1 -1 scale
(-0.2) t 
GR
GR
GS
[0.75 0 0 0.75 174.75 396.49998] CT
0.149 GC
/Helvetica 27 F
GS
[1 0 0 1 0 0] CT
-18 9.5 moveto 
1 -1 scale
(0) t 
GR
GR
GS
[0.75 0 0 0.75 174.75 328.49999] CT
0.149 GC
/Helvetica 27 F
GS
[1 0 0 1 0 0] CT
-43 9.5 moveto 
1 -1 scale
(0.2) t 
GR
GR
GS
[0.75 0 0 0.75 174.75 260.5] CT
0.149 GC
/Helvetica 27 F
GS
[1 0 0 1 0 0] CT
-43 9.5 moveto 
1 -1 scale
(0.4) t 
GR
GR
GS
[0.75 0 0 0.75 174.75 192.49998] CT
0.149 GC
/Helvetica 27 F
GS
[1 0 0 1 0 0] CT
-43 9.5 moveto 
1 -1 scale
(0.6) t 
GR
GR
GS
[0.75 0 0 0.75 174.75 124.49999] CT
0.149 GC
/Helvetica 27 F
GS
[1 0 0 1 0 0] CT
-43 9.5 moveto 
1 -1 scale
(0.8) t 
GR
GR
GS
[0.75 0 0 0.75 174.75 56.5] CT
0.149 GC
/Helvetica 27 F
GS
[1 0 0 1 0 0] CT
-18 9.5 moveto 
1 -1 scale
(1) t 
GR
GR
GS
[0.75 0 0 0.75 0 0.25] CT
0 0.447 0.741 RC
2 LJ
2.667 LW
N
241 470.766 M
241.007 475.377 L
241.042 498.567 L
241.104 539.722 L
241.166 580.672 L
241.236 625.84 L
241.319 675.817 L
241.418 726.974 L
241.544 777.43 L
241.78 831.495 L
242.039 851.746 L
242.288 855.595 L
242.681 855.451 L
243.054 853.028 L
243.72 849.59 L
244.354 845.871 L
244.988 843.027 L
245.592 839.034 L
246.133 836.973 L
246.663 833.621 L
247.266 830.961 L
247.906 827.064 L
248.534 824.525 L
249.119 820.877 L
249.725 818.328 L
250.371 814.56 L
251.06 811.681 L
251.716 807.781 L
252.369 805.121 L
253.035 801.34 L
253.76 798.309 L
254.479 794.27 L
255.205 791.332 L
255.919 787.401 L
256.683 784.261 L
257.454 780.14 L
258.261 776.882 L
259.046 772.742 L
259.872 769.418 L
260.7 765.189 L
261.59 761.63 L
262.456 757.276 L
263.374 753.657 L
264.276 749.252 L
265.262 745.382 L
265.943 742.174 L
266.625 739.273 L
267.225 736.708 L
267.574 735.22 L
267.827 734.147 L
S
GR
GS
[0.75 0 0 0.75 0 0.25] CT
0 0.447 0.741 RC
2 LJ
2.667 LW
N
267.827 734.147 M
267.997 733.43 L
268.166 732.714 L
268.335 732.004 L
268.543 731.127 L
268.796 730.066 L
269.123 728.699 L
269.702 726.289 L
270.201 724.222 L
270.699 722.165 L
271.478 718.983 L
272.508 714.809 L
273.698 710.03 L
275.332 703.609 L
276.966 697.116 L
278.312 692.06 L
279.659 686.858 L
281.235 681.055 L
283.079 674.171 L
284.75 668.205 L
286.421 662.186 L
288.47 655.11 L
290.52 647.964 L
292.483 641.398 L
294.446 634.868 L
296.896 626.989 L
299.09 619.94 L
301.632 612.074 L
303.957 604.941 L
306.499 597.36 L
309.015 589.987 L
310.743 584.973 L
312.471 580.046 L
314.632 574 L
317.136 567.118 L
319.303 561.235 L
321.47 555.426 L
323.407 550.284 L
325.759 544.091 L
328.257 537.544 L
330.755 530.979 L
332.304 526.866 L
333.853 522.69 L
335.4 518.42 L
336.854 514.266 L
338.073 510.627 L
339.057 507.549 L
339.548 505.949 L
340.04 504.3 L
340.773 501.733 L
S
GR
GS
[0.75 0 0 0.75 0 0.25] CT
0 0.447 0.741 RC
2 LJ
2.667 LW
N
340.773 501.733 M
341.457 499.198 L
342.119 496.583 L
342.895 493.264 L
343.391 490.969 L
343.887 488.507 L
344.405 485.717 L
345.17 481.099 L
345.879 476.125 L
346.588 470.249 L
347.726 458.066 L
348.734 442.729 L
349.6 423.76 L
350.356 399.931 L
351.042 369.249 L
351.704 327.831 L
352.479 262.198 L
352.975 214.468 L
353.47 170.302 L
353.988 135.463 L
354.749 107.481 L
355.45 98.995 L
356.151 97.85 L
357.201 100.474 L
358.25 104.967 L
359.977 112.662 L
361.705 120.604 L
364.076 131.331 L
366.446 142.523 L
368.718 153.424 L
370.99 164.736 L
373.102 175.811 L
374.626 184.292 L
375.75 190.87 L
376.621 196.214 L
377.492 201.825 L
378.197 206.607 L
378.792 210.841 L
379.163 213.587 L
379.379 215.232 L
379.532 216.411 L
379.684 217.607 L
379.862 219.029 L
380.069 220.711 L
380.275 222.432 L
380.609 225.305 L
381.186 230.551 L
381.7 235.59 L
382.214 241.045 L
383.029 250.781 L
S
GR
GS
[0.75 0 0 0.75 0 0.25] CT
0 0.447 0.741 RC
2 LJ
2.667 LW
N
383.029 250.781 M
383.998 264.785 L
385.337 291.366 L
386.194 316.332 L
387.051 352.81 L
387.759 397.501 L
388.355 450.053 L
388.685 485.54 L
388.922 513.075 L
389.077 531.563 L
389.232 550.005 L
389.396 568.983 L
389.56 586.989 L
389.805 611.18 L
390.113 635.851 L
390.6 661.47 L
391.323 678.207 L
392.081 681.453 L
392.966 679.8 L
394.069 676.009 L
395.702 670.087 L
397.884 662.351 L
399.988 654.877 L
401.857 648.516 L
403.725 642.169 L
406.203 634.075 L
408.298 627.158 L
410.453 620.325 L
412.608 613.584 L
415.097 605.998 L
417.515 598.732 L
420.072 591.225 L
421.731 586.39 L
423.39 581.639 L
425.409 575.962 L
427.823 569.291 L
430.505 562.007 L
432.706 556.094 L
434.562 551.158 L
436.737 545.423 L
439.384 538.481 L
442.216 531.04 L
443.777 526.897 L
445.339 522.689 L
446.887 518.414 L
448.341 514.26 L
449.561 510.62 L
450.585 507.413 L
451.458 504.531 L
452.22 501.874 L
S
GR
GS
[0.75 0 0 0.75 0 0.25] CT
0 0.447 0.741 RC
2 LJ
2.667 LW
N
452.22 501.874 M
452.908 499.331 L
453.569 496.729 L
454.328 493.505 L
454.826 491.214 L
455.325 488.757 L
455.834 486.041 L
456.546 481.807 L
457.276 476.798 L
458.006 470.871 L
459.156 458.791 L
460.172 443.611 L
461.045 424.857 L
461.806 401.322 L
462.494 371.068 L
463.156 330.377 L
463.915 267.025 L
464.413 219.149 L
464.911 174.066 L
465.421 138.479 L
466.136 109.931 L
466.864 99.425 L
467.592 97.778 L
468.804 100.661 L
470.016 106.171 L
472.12 115.56 L
474.224 125.325 L
476.64 136.351 L
479.056 147.849 L
482.128 162.664 L
485.007 177.856 L
486.341 185.456 L
487.674 193.426 L
488.449 198.296 L
489.223 203.39 L
489.877 207.904 L
490.469 212.183 L
490.645 213.504 L
490.822 214.845 L
490.984 216.097 L
491.146 217.368 L
491.316 218.721 L
491.525 220.425 L
491.78 222.545 L
492.11 225.39 L
492.71 230.868 L
493.283 236.543 L
493.856 242.754 L
494.658 252.614 L
495.459 264.345 L
S
GR
GS
[0.75 0 0 0.75 0 0.25] CT
0 0.447 0.741 RC
2 LJ
2.667 LW
N
495.459 264.345 M
496.642 287.046 L
497.55 311.904 L
498.457 348.633 L
499.186 392.998 L
499.787 444.584 L
500.144 482.394 L
500.389 510.675 L
500.553 530.165 L
500.716 549.635 L
500.886 569.248 L
501.095 591.995 L
501.349 616.256 L
501.678 641.001 L
502.271 667.76 L
502.803 677.506 L
503.335 680.593 L
504.207 680.45 L
505.117 677.537 L
506.712 671.881 L
508.437 665.549 L
510.117 659.683 L
511.798 653.781 L
513.698 647.307 L
515.599 640.88 L
518.039 632.921 L
520.175 625.918 L
522.794 617.724 L
525.009 610.774 L
527.591 602.974 L
530.012 595.747 L
532.608 588.19 L
534.748 582.039 L
536.651 576.659 L
539.04 570.04 L
541.694 562.816 L
543.465 558.039 L
545.235 553.311 L
547.442 547.476 L
549.976 540.823 L
552.749 533.552 L
554.562 528.766 L
556.374 523.911 L
557.909 519.708 L
559.436 515.392 L
560.722 511.605 L
561.797 508.285 L
562.708 505.321 L
563.498 502.609 L
564.204 500.046 L
S
GR
GS
[0.75 0 0 0.75 0 0.25] CT
0 0.447 0.741 RC
2 LJ
2.667 LW
N
564.204 500.046 M
564.866 497.487 L
565.568 494.575 L
566.088 492.256 L
566.608 489.77 L
567.098 487.244 L
567.685 483.93 L
568.683 477.373 L
569.548 470.359 L
570.699 458.049 L
571.708 442.689 L
572.573 423.709 L
573.33 399.866 L
574.015 369.164 L
574.677 327.711 L
575.453 261.966 L
575.949 214.243 L
576.445 170.122 L
576.963 135.319 L
577.726 107.363 L
578.432 98.929 L
579.138 97.856 L
580.19 100.543 L
581.243 105.061 L
583.32 114.211 L
585.396 123.921 L
587.691 134.349 L
589.985 145.219 L
593.074 159.926 L
595.895 174.645 L
597.387 182.989 L
598.88 191.755 L
599.707 196.878 L
600.533 202.244 L
601.223 206.949 L
601.815 211.186 L
602.077 213.122 L
602.338 215.104 L
602.493 216.303 L
602.648 217.52 L
602.821 218.901 L
603.034 220.635 L
603.292 222.797 L
603.632 225.734 L
604.303 231.924 L
604.858 237.503 L
605.413 243.604 L
606.432 256.615 L
607.287 270.15 L
608.384 293.255 L
S
GR
GS
[0.75 0 0 0.75 0 0.25] CT
0 0.447 0.741 RC
2 LJ
2.667 LW
N
608.384 293.255 M
609.237 318.878 L
610.091 356.465 L
610.785 401.759 L
611.377 455.354 L
611.631 482.762 L
611.885 512.155 L
612.043 531.006 L
612.202 549.821 L
612.371 569.469 L
612.581 592.239 L
612.835 616.509 L
613.166 641.257 L
613.767 668.11 L
614.346 678.208 L
614.926 680.876 L
615.711 680.25 L
616.495 677.841 L
617.889 672.978 L
619.283 667.844 L
620.942 661.995 L
622.6 656.143 L
624.51 649.6 L
626.42 643.1 L
628.867 635.073 L
630.98 628.09 L
633.657 619.694 L
635.818 612.848 L
638.448 604.871 L
640.823 597.732 L
643.418 590.14 L
645.128 585.173 L
646.838 580.294 L
648.977 574.304 L
651.466 567.457 L
653.491 561.95 L
655.516 556.51 L
657.346 551.641 L
659.656 545.548 L
662.272 538.693 L
665.104 531.256 L
666.653 527.147 L
668.203 522.978 L
669.743 518.736 L
671.214 514.544 L
672.451 510.869 L
673.487 507.635 L
674.37 504.734 L
675.139 502.064 L
675.831 499.518 L
S
GR
GS
[0.75 0 0 0.75 0 0.25] CT
0 0.447 0.741 RC
2 LJ
2.667 LW
N
675.831 499.518 M
676.492 496.931 L
677.231 493.81 L
677.734 491.521 L
678.237 489.065 L
678.738 486.422 L
679.403 482.536 L
680.175 477.347 L
680.946 471.164 L
682.104 459.104 L
683.125 443.988 L
684 425.325 L
684.764 401.916 L
685.454 371.844 L
686.115 331.459 L
686.868 269.021 L
687.367 221.089 L
687.867 175.629 L
688.373 139.731 L
689.072 110.941 L
689.814 99.565 L
690.555 97.745 L
692.017 101.05 L
693.479 108.489 L
696.033 119.448 L
698.192 130.09 L
700.425 140.18 L
702.657 150.902 L
705.801 166.188 L
707.851 177.258 L
709.286 185.365 L
710.366 191.756 L
711.205 196.955 L
712.045 202.407 L
712.731 207.088 L
713.322 211.323 L
713.679 213.983 L
713.879 215.514 L
714.038 216.748 L
714.196 218.001 L
714.386 219.527 L
714.616 221.419 L
714.902 223.831 L
715.308 227.412 L
715.847 232.461 L
716.386 237.917 L
717.144 246.462 L
718.094 259.126 L
719.189 277.915 L
720.183 301.561 L
S
GR
GS
[0.75 0 0 0.75 0 0.25] CT
0 0.447 0.741 RC
2 LJ
2.667 LW
N
720.183 301.561 M
720.975 328.317 L
721.768 367.182 L
722.424 413.926 L
723.015 471.15 L
723.365 511.118 L
723.545 532.521 L
723.724 553.831 L
723.903 574.362 L
724.122 597.592 L
724.389 622.03 L
724.748 646.862 L
725.221 666.812 L
725.695 676.332 L
726.298 680.578 L
726.988 680.6 L
727.677 678.793 L
728.811 674.988 L
729.944 670.835 L
731.602 664.931 L
733.26 659.039 L
735.151 652.507 L
737.043 646.016 L
739.5 637.907 L
741.578 630.963 L
743.689 624.205 L
745.8 617.526 L
748.273 609.912 L
750.649 602.686 L
753.181 595.176 L
755.732 587.748 L
757.824 581.741 L
759.766 576.26 L
762.174 569.595 L
764.843 562.337 L
767.073 556.344 L
768.894 551.494 L
771.148 545.549 L
773.774 538.663 L
776.604 531.228 L
778.156 527.11 L
779.708 522.932 L
781.25 518.682 L
782.719 514.494 L
783.953 510.822 L
784.987 507.592 L
785.869 504.692 L
786.637 502.023 L
787.328 499.476 L
787.989 496.885 L
S
GR
GS
[0.75 0 0 0.75 0 0.25] CT
0 0.447 0.741 RC
2 LJ
2.667 LW
N
787.989 496.885 M
788.731 493.746 L
789.233 491.454 L
789.735 488.996 L
790.237 486.341 L
790.91 482.402 L
791.675 477.233 L
792.44 471.078 L
793.596 459.005 L
794.616 443.867 L
795.49 425.174 L
796.253 401.723 L
796.942 371.592 L
797.603 331.107 L
798.358 268.373 L
798.857 220.459 L
799.356 175.121 L
799.864 139.323 L
800.568 110.612 L
801.305 99.518 L
802.042 97.754 L
803.401 100.91 L
804.759 107.486 L
806.7 116.171 L
808.642 125.136 L
811.101 136.35 L
813.561 148.071 L
816.635 162.916 L
819.52 178.157 L
820.841 185.697 L
822.161 193.602 L
822.931 198.452 L
823.701 203.524 L
824.352 208.025 L
824.944 212.315 L
825.28 214.852 L
825.456 216.206 L
825.631 217.583 L
825.807 218.992 L
826.023 220.753 L
826.286 222.956 L
826.635 225.982 L
827.234 231.501 L
827.833 237.505 L
828.503 244.945 L
829.172 253.38 L
830.11 267.534 L
831.048 285.862 L
831.962 310.445 L
832.876 346.739 L
S
GR
GS
[0.75 0 0 0.75 0 0.25] CT
0 0.447 0.741 RC
2 LJ
2.667 LW
N
832.876 346.739 M
833.613 390.837 L
834.218 441.978 L
834.57 478.9 L
834.826 508.291 L
834.998 528.695 L
835.169 549.112 L
835.338 568.612 L
835.546 591.292 L
835.798 615.527 L
836.124 640.262 L
836.697 666.779 L
837.214 676.926 L
837.73 680.391 L
838.546 680.633 L
839.509 677.788 L
840.852 672.966 L
842.772 666.065 L
844.994 658.229 L
847.255 650.38 L
849.669 642.259 L
851.848 634.948 L
854.434 626.669 L
856.565 619.78 L
858.283 614.39 L
860 609.095 L
S
GR
GS
[0.75 0 0 0.75 0 0.25] CT
0.851 0.325 0.098 RC
2 LJ
2.667 LW
N
241 114.27 M
241.007 114.359 L
241.042 114.813 L
241.104 115.631 L
241.166 116.475 L
241.236 117.463 L
241.319 118.676 L
241.418 120.157 L
241.544 122.117 L
241.78 125.896 L
242.039 130.088 L
242.288 134.134 L
242.681 140.454 L
243.054 146.376 L
243.72 156.742 L
244.354 166.387 L
244.988 175.812 L
245.592 184.61 L
246.133 192.307 L
246.663 199.706 L
247.266 207.959 L
247.906 216.525 L
248.534 224.74 L
249.119 232.214 L
249.725 239.803 L
250.371 247.706 L
251.06 255.923 L
251.716 263.56 L
252.369 270.983 L
253.035 278.373 L
253.76 286.205 L
254.479 293.766 L
255.205 301.205 L
255.919 308.33 L
256.683 315.741 L
257.454 323.007 L
258.261 330.388 L
259.046 337.354 L
259.872 344.47 L
260.7 351.377 L
261.59 358.566 L
262.456 365.335 L
263.374 372.256 L
264.276 378.833 L
265.262 385.755 L
265.943 390.39 L
266.625 394.902 L
267.225 398.774 L
267.574 400.99 L
267.827 402.575 L
S
GR
GS
[0.75 0 0 0.75 0 0.25] CT
0.851 0.325 0.098 RC
2 LJ
2.667 LW
N
267.827 402.575 M
267.997 403.628 L
268.166 404.673 L
268.335 405.706 L
268.543 406.974 L
268.796 408.497 L
269.123 410.444 L
269.702 413.832 L
270.201 416.689 L
270.699 419.489 L
271.478 423.747 L
272.508 429.185 L
273.698 435.188 L
275.332 442.968 L
276.966 450.241 L
278.312 455.872 L
279.659 461.193 L
281.235 467.043 L
283.079 473.404 L
284.75 478.735 L
286.421 483.685 L
288.47 489.265 L
290.52 494.341 L
292.483 498.758 L
294.446 502.772 L
296.896 507.259 L
299.09 510.821 L
301.632 514.451 L
303.957 517.344 L
306.499 520.077 L
309.015 522.381 L
310.743 523.751 L
312.471 524.958 L
314.632 526.254 L
317.136 527.482 L
319.303 528.328 L
321.47 528.988 L
323.407 529.433 L
325.759 529.8 L
328.257 530 L
330.755 530.019 L
332.304 529.946 L
333.853 529.81 L
335.4 529.614 L
336.854 529.376 L
338.073 529.136 L
339.057 528.914 L
339.548 528.794 L
340.04 528.668 L
340.773 528.467 L
S
GR
GS
[0.75 0 0 0.75 0 0.25] CT
0.851 0.325 0.098 RC
2 LJ
2.667 LW
N
340.773 528.467 M
341.457 528.265 L
342.119 528.057 L
342.895 527.794 L
343.391 527.615 L
343.887 527.427 L
344.405 527.219 L
345.17 526.889 L
345.879 526.555 L
346.588 526.188 L
347.726 525.515 L
348.734 524.796 L
349.6 524.044 L
350.356 523.236 L
351.042 522.328 L
351.704 521.223 L
352.479 519.529 L
352.975 518.167 L
353.47 516.584 L
353.988 514.744 L
354.749 511.847 L
355.45 509.112 L
356.151 506.403 L
357.201 502.472 L
358.25 498.71 L
359.977 492.896 L
361.705 487.535 L
364.076 480.879 L
366.446 474.975 L
368.718 469.981 L
370.99 465.596 L
373.102 462.038 L
374.626 459.768 L
375.75 458.252 L
376.621 457.168 L
377.492 456.163 L
378.197 455.409 L
378.792 454.814 L
379.163 454.462 L
379.379 454.264 L
379.532 454.127 L
379.684 453.993 L
379.862 453.84 L
380.069 453.666 L
380.275 453.498 L
380.609 453.236 L
381.186 452.814 L
381.7 452.472 L
382.214 452.164 L
383.029 451.75 L
S
GR
GS
[0.75 0 0 0.75 0 0.25] CT
0.851 0.325 0.098 RC
2 LJ
2.667 LW
N
383.029 451.75 M
383.998 451.39 L
385.337 451.181 L
386.194 451.283 L
387.051 451.65 L
387.759 452.244 L
388.355 453.037 L
388.685 453.625 L
388.922 454.123 L
389.077 454.484 L
389.232 454.874 L
389.396 455.316 L
389.56 455.787 L
389.805 456.54 L
390.113 457.561 L
390.6 459.282 L
391.323 461.94 L
392.081 464.743 L
392.966 467.933 L
394.069 471.752 L
395.702 477.084 L
397.884 483.631 L
399.988 489.358 L
401.857 493.995 L
403.725 498.239 L
406.203 503.304 L
408.298 507.122 L
410.453 510.638 L
412.608 513.768 L
415.097 516.941 L
417.515 519.607 L
420.072 522.018 L
421.731 523.376 L
423.39 524.581 L
425.409 525.855 L
427.823 527.122 L
430.505 528.229 L
432.706 528.922 L
434.562 529.367 L
436.737 529.737 L
439.384 529.983 L
442.216 530.019 L
443.777 529.946 L
445.339 529.81 L
446.887 529.614 L
448.341 529.375 L
449.561 529.135 L
450.585 528.904 L
451.458 528.685 L
452.22 528.478 L
S
GR
GS
[0.75 0 0 0.75 0 0.25] CT
0.851 0.325 0.098 RC
2 LJ
2.667 LW
N
452.22 528.478 M
452.908 528.276 L
453.569 528.068 L
454.328 527.813 L
454.826 527.634 L
455.325 527.445 L
455.834 527.242 L
456.546 526.938 L
457.276 526.598 L
458.006 526.225 L
459.156 525.551 L
460.172 524.834 L
461.045 524.084 L
461.806 523.28 L
462.494 522.379 L
463.156 521.288 L
463.915 519.656 L
464.413 518.31 L
464.911 516.74 L
465.421 514.944 L
466.136 512.234 L
466.864 509.398 L
467.592 506.582 L
468.804 502.05 L
470.016 497.74 L
472.12 490.81 L
474.224 484.539 L
476.64 478.105 L
479.056 472.428 L
482.128 466.235 L
485.007 461.394 L
486.341 459.451 L
487.674 457.697 L
488.449 456.764 L
489.223 455.894 L
489.877 455.209 L
490.469 454.629 L
490.645 454.464 L
490.822 454.301 L
490.984 454.155 L
491.146 454.012 L
491.316 453.865 L
491.525 453.688 L
491.78 453.48 L
492.11 453.222 L
492.71 452.785 L
493.283 452.409 L
493.856 452.075 L
494.658 451.684 L
495.459 451.393 L
S
GR
GS
[0.75 0 0 0.75 0 0.25] CT
0.851 0.325 0.098 RC
2 LJ
2.667 LW
N
495.459 451.393 M
496.642 451.182 L
497.55 451.248 L
498.457 451.597 L
499.186 452.176 L
499.787 452.946 L
500.144 453.568 L
500.389 454.074 L
500.553 454.452 L
500.716 454.862 L
500.886 455.318 L
501.095 455.926 L
501.349 456.72 L
501.678 457.825 L
502.271 459.949 L
502.803 461.916 L
503.335 463.885 L
504.207 467.054 L
505.117 470.252 L
506.712 475.561 L
508.437 480.903 L
510.117 485.721 L
511.798 490.184 L
513.698 494.828 L
515.599 499.07 L
518.039 503.965 L
520.175 507.786 L
522.794 511.92 L
525.009 514.986 L
527.591 518.098 L
530.012 520.607 L
532.608 522.894 L
534.748 524.492 L
536.651 525.711 L
539.04 526.994 L
541.694 528.121 L
543.465 528.713 L
545.235 529.187 L
547.442 529.622 L
549.976 529.924 L
552.749 530.032 L
554.562 529.987 L
556.374 529.856 L
557.909 529.679 L
559.436 529.445 L
560.722 529.203 L
561.797 528.969 L
562.708 528.746 L
563.498 528.536 L
564.204 528.333 L
S
GR
GS
[0.75 0 0 0.75 0 0.25] CT
0.851 0.325 0.098 RC
2 LJ
2.667 LW
N
564.204 528.333 M
564.866 528.129 L
565.568 527.897 L
566.088 527.715 L
566.608 527.523 L
567.098 527.332 L
567.685 527.089 L
568.683 526.636 L
569.548 526.195 L
570.699 525.513 L
571.708 524.794 L
572.573 524.042 L
573.33 523.234 L
574.015 522.326 L
574.677 521.22 L
575.453 519.523 L
575.949 518.159 L
576.445 516.576 L
576.963 514.734 L
577.726 511.827 L
578.432 509.073 L
579.138 506.346 L
580.19 502.406 L
581.243 498.635 L
583.32 491.711 L
585.396 485.432 L
587.691 479.204 L
589.985 473.669 L
593.074 467.244 L
595.895 462.323 L
597.387 460.066 L
598.88 458.048 L
599.707 457.03 L
600.533 456.085 L
601.223 455.351 L
601.815 454.761 L
602.077 454.513 L
602.338 454.273 L
602.493 454.134 L
602.648 453.997 L
602.821 453.848 L
603.034 453.669 L
603.292 453.459 L
603.632 453.194 L
604.303 452.711 L
604.858 452.354 L
605.413 452.036 L
606.432 451.568 L
607.287 451.304 L
608.384 451.179 L
S
GR
GS
[0.75 0 0 0.75 0 0.25] CT
0.851 0.325 0.098 RC
2 LJ
2.667 LW
N
608.384 451.179 M
609.237 451.3 L
610.091 451.692 L
610.785 452.303 L
611.377 453.119 L
611.631 453.575 L
611.885 454.103 L
612.043 454.471 L
612.202 454.868 L
612.371 455.325 L
612.581 455.934 L
612.835 456.731 L
613.166 457.841 L
613.767 459.993 L
614.346 462.138 L
614.926 464.282 L
615.711 467.126 L
616.495 469.887 L
617.889 474.571 L
619.283 478.978 L
620.942 483.876 L
622.6 488.418 L
624.51 493.234 L
626.42 497.635 L
628.867 502.709 L
630.98 506.619 L
633.657 510.992 L
635.818 514.092 L
638.448 517.386 L
640.823 519.948 L
643.418 522.338 L
645.128 523.699 L
646.838 524.901 L
648.977 526.194 L
651.466 527.428 L
653.491 528.235 L
655.516 528.878 L
657.346 529.328 L
659.656 529.729 L
662.272 529.978 L
665.104 530.021 L
666.653 529.952 L
668.203 529.821 L
669.743 529.63 L
671.214 529.393 L
672.451 529.152 L
673.487 528.92 L
674.37 528.7 L
675.139 528.492 L
675.831 528.29 L
S
GR
GS
[0.75 0 0 0.75 0 0.25] CT
0.851 0.325 0.098 RC
2 LJ
2.667 LW
N
675.831 528.29 M
676.492 528.083 L
677.231 527.836 L
677.734 527.657 L
678.237 527.468 L
678.738 527.269 L
679.403 526.988 L
680.175 526.633 L
680.946 526.242 L
682.104 525.566 L
683.125 524.849 L
684 524.1 L
684.764 523.297 L
685.454 522.399 L
686.115 521.315 L
686.868 519.708 L
687.367 518.368 L
687.867 516.802 L
688.373 515.022 L
689.072 512.38 L
689.814 509.492 L
690.555 506.622 L
692.017 501.185 L
693.479 496.066 L
696.033 487.938 L
698.192 481.793 L
700.425 476.118 L
702.657 471.072 L
705.801 464.977 L
707.851 461.59 L
709.286 459.489 L
710.366 458.052 L
711.205 457.019 L
712.045 456.06 L
712.731 455.332 L
713.322 454.745 L
713.679 454.409 L
713.879 454.226 L
714.038 454.085 L
714.196 453.946 L
714.386 453.784 L
714.616 453.593 L
714.902 453.364 L
715.308 453.055 L
715.847 452.675 L
716.386 452.331 L
717.144 451.912 L
718.094 451.505 L
719.189 451.226 L
720.183 451.198 L
S
GR
GS
[0.75 0 0 0.75 0 0.25] CT
0.851 0.325 0.098 RC
2 LJ
2.667 LW
N
720.183 451.198 M
720.975 451.383 L
721.768 451.829 L
722.424 452.481 L
723.015 453.379 L
723.365 454.085 L
723.545 454.502 L
723.724 454.958 L
723.903 455.449 L
724.122 456.095 L
724.389 456.945 L
724.748 458.169 L
725.221 459.872 L
725.695 461.621 L
726.298 463.856 L
726.988 466.369 L
727.677 468.82 L
728.811 472.701 L
729.944 476.396 L
731.602 481.476 L
733.26 486.192 L
735.151 491.151 L
737.043 495.691 L
739.5 501.003 L
741.578 505.023 L
743.689 508.691 L
745.8 511.972 L
748.273 515.361 L
750.649 518.195 L
753.181 520.795 L
755.732 523.016 L
757.824 524.563 L
759.766 525.795 L
762.174 527.071 L
764.843 528.185 L
767.073 528.897 L
768.894 529.34 L
771.148 529.73 L
773.774 529.979 L
776.604 530.021 L
778.156 529.952 L
779.708 529.819 L
781.25 529.628 L
782.719 529.39 L
783.953 529.149 L
784.987 528.917 L
785.869 528.698 L
786.637 528.49 L
787.328 528.287 L
787.989 528.081 L
S
GR
GS
[0.75 0 0 0.75 0 0.25] CT
0.851 0.325 0.098 RC
2 LJ
2.667 LW
N
787.989 528.081 M
788.731 527.832 L
789.233 527.653 L
789.735 527.464 L
790.237 527.264 L
790.91 526.98 L
791.675 526.627 L
792.44 526.238 L
793.596 525.563 L
794.616 524.845 L
795.49 524.096 L
796.253 523.293 L
796.942 522.394 L
797.603 521.308 L
798.358 519.692 L
798.857 518.35 L
799.356 516.783 L
799.864 514.998 L
800.568 512.335 L
801.305 509.463 L
802.042 506.611 L
803.401 501.546 L
804.759 496.757 L
806.7 490.427 L
808.642 484.654 L
811.101 478.097 L
813.561 472.324 L
816.635 466.144 L
819.52 461.309 L
820.841 459.392 L
822.161 457.66 L
822.931 456.735 L
823.701 455.872 L
824.352 455.191 L
824.944 454.612 L
825.28 454.3 L
825.456 454.142 L
825.631 453.988 L
825.807 453.836 L
826.023 453.655 L
826.286 453.441 L
826.635 453.171 L
827.234 452.739 L
827.833 452.352 L
828.503 451.974 L
829.172 451.66 L
830.11 451.34 L
831.048 451.185 L
831.962 451.24 L
832.876 451.575 L
S
GR
GS
[0.75 0 0 0.75 0 0.25] CT
0.851 0.325 0.098 RC
2 LJ
2.667 LW
N
832.876 451.575 M
833.613 452.146 L
834.218 452.906 L
834.57 453.508 L
834.826 454.03 L
834.998 454.423 L
835.169 454.851 L
835.338 455.303 L
835.546 455.906 L
835.798 456.693 L
836.124 457.785 L
836.697 459.834 L
837.214 461.743 L
837.73 463.655 L
838.546 466.628 L
839.509 470.026 L
840.852 474.537 L
842.772 480.537 L
844.994 486.868 L
847.255 492.678 L
849.669 498.235 L
851.848 502.723 L
854.434 507.449 L
856.565 510.894 L
858.283 513.396 L
860 515.669 L
S
GR
GS
[0.75 0 0 0.75 0 0.25] CT
0.929 0.694 0.125 RC
2 LJ
2.667 LW
N
241 241.664 M
241.007 241.38 L
241.042 239.959 L
241.104 237.454 L
241.166 234.95 L
241.236 232.108 L
241.319 228.741 L
241.418 224.79 L
241.544 219.775 L
241.78 210.63 L
242.039 201.156 L
242.288 192.677 L
242.681 180.914 L
243.054 171.742 L
243.72 160.097 L
244.354 153.788 L
244.988 150.849 L
245.592 150.154 L
246.133 150.67 L
246.663 151.859 L
247.266 153.757 L
247.906 156.187 L
248.534 158.848 L
249.119 161.488 L
249.725 164.354 L
250.371 167.517 L
251.06 170.992 L
251.716 174.394 L
252.369 177.869 L
253.035 181.506 L
253.76 185.576 L
254.479 189.743 L
255.205 194.106 L
255.919 198.57 L
256.683 203.568 L
257.454 208.888 L
258.261 214.826 L
259.046 221.047 L
259.872 228.214 L
260.7 236.212 L
261.59 246.069 L
262.456 257.424 L
263.374 272.273 L
264.276 291.355 L
265.262 320.864 L
265.943 350.338 L
266.625 392.005 L
267.225 443.066 L
267.574 479.803 L
267.827 508.94 L
S
GR
GS
[0.75 0 0 0.75 0 0.25] CT
0.929 0.694 0.125 RC
2 LJ
2.667 LW
N
267.827 508.94 M
267.997 529.099 L
268.166 549.261 L
268.335 568.794 L
268.543 591.492 L
268.796 615.733 L
269.123 640.469 L
269.702 667.052 L
270.201 676.795 L
270.699 680.275 L
271.478 680.69 L
272.508 677.823 L
273.698 673.474 L
275.332 667.605 L
276.966 661.762 L
278.312 657.024 L
279.659 652.355 L
281.235 646.979 L
283.079 640.79 L
284.75 635.234 L
286.421 629.781 L
288.47 623.236 L
290.52 616.77 L
292.483 610.682 L
294.446 604.702 L
296.896 597.419 L
299.09 590.966 L
301.632 583.669 L
303.957 577.09 L
306.499 570.04 L
309.015 563.173 L
310.743 558.505 L
312.471 553.884 L
314.632 548.163 L
317.136 541.586 L
319.303 535.906 L
321.47 530.199 L
323.407 525.034 L
325.759 518.583 L
328.257 511.329 L
330.755 503.257 L
332.304 497.498 L
333.853 490.727 L
335.4 482.261 L
336.854 471.57 L
338.073 458.914 L
339.057 444.372 L
339.548 434.799 L
340.04 423.032 L
340.773 399.788 L
S
GR
GS
[0.75 0 0 0.75 0 0.25] CT
0.929 0.694 0.125 RC
2 LJ
2.667 LW
N
340.773 399.788 M
341.457 369.118 L
342.119 327.646 L
342.895 261.839 L
343.391 214.119 L
343.887 170.022 L
344.405 135.238 L
345.17 107.296 L
345.879 98.885 L
346.588 97.858 L
347.726 100.805 L
348.734 105.268 L
349.6 109.188 L
350.356 112.631 L
351.042 115.755 L
351.704 118.778 L
352.479 122.327 L
352.975 124.604 L
353.47 126.887 L
353.988 129.277 L
354.749 132.802 L
355.45 136.068 L
356.151 139.354 L
357.201 144.306 L
358.25 149.322 L
359.977 157.701 L
361.705 166.387 L
364.076 178.847 L
366.446 192.474 L
368.718 207.235 L
370.99 224.903 L
373.102 246.407 L
374.626 268.203 L
375.75 291.144 L
376.621 316.504 L
377.492 353.801 L
378.197 398.769 L
378.792 451.632 L
379.163 491.911 L
379.379 517.263 L
379.532 535.43 L
379.684 553.473 L
379.862 573.903 L
380.069 595.944 L
380.275 615.484 L
380.609 640.774 L
381.186 667.121 L
381.7 677.03 L
382.214 680.407 L
383.029 680.614 L
S
GR
GS
[0.75 0 0 0.75 0 0.25] CT
0.929 0.694 0.125 RC
2 LJ
2.667 LW
N
383.029 680.614 M
383.998 677.748 L
385.337 672.937 L
386.194 669.797 L
387.051 666.708 L
387.759 664.18 L
388.355 662.064 L
388.685 660.897 L
388.922 660.061 L
389.077 659.516 L
389.232 658.971 L
389.396 658.396 L
389.56 657.823 L
389.805 656.968 L
390.113 655.894 L
390.6 654.203 L
391.323 651.711 L
392.081 649.111 L
392.966 646.103 L
394.069 642.393 L
395.702 636.987 L
397.884 629.907 L
399.988 623.124 L
401.857 617.215 L
403.725 611.416 L
406.203 603.929 L
408.298 597.638 L
410.453 591.307 L
412.608 585.087 L
415.097 578.052 L
417.515 571.323 L
420.072 564.328 L
421.731 559.834 L
423.39 555.386 L
425.409 550.028 L
427.823 543.674 L
430.505 536.646 L
432.706 530.856 L
434.562 525.921 L
436.737 520.001 L
439.384 512.41 L
442.216 503.345 L
443.777 497.553 L
445.339 490.737 L
446.887 482.266 L
448.341 471.576 L
449.561 458.921 L
450.585 443.676 L
451.458 424.925 L
452.22 401.408 L
S
GR
GS
[0.75 0 0 0.75 0 0.25] CT
0.929 0.694 0.125 RC
2 LJ
2.667 LW
N
452.22 401.408 M
452.908 371.18 L
453.569 330.534 L
454.328 267.316 L
454.826 219.432 L
455.325 174.294 L
455.834 138.661 L
456.546 110.079 L
457.276 99.446 L
458.006 97.773 L
459.156 100.514 L
460.172 105.029 L
461.045 108.982 L
461.806 112.448 L
462.494 115.584 L
463.156 118.605 L
463.915 122.079 L
464.413 124.368 L
464.911 126.662 L
465.421 129.013 L
466.136 132.325 L
466.864 135.712 L
467.592 139.12 L
468.804 144.837 L
470.016 150.645 L
472.12 160.886 L
474.224 171.668 L
476.64 184.845 L
479.056 199.474 L
482.128 221.852 L
485.007 251.611 L
486.341 272.139 L
487.674 302.583 L
488.449 329.019 L
489.223 367.137 L
489.877 413.734 L
490.469 470.886 L
490.645 490.62 L
490.822 511.202 L
490.984 530.512 L
491.146 549.794 L
491.316 569.441 L
491.525 592.208 L
491.78 616.476 L
492.11 641.223 L
492.71 668.064 L
493.283 678.108 L
493.856 680.837 L
494.658 680.262 L
495.459 677.777 L
S
GR
GS
[0.75 0 0 0.75 0 0.25] CT
0.929 0.694 0.125 RC
2 LJ
2.667 LW
N
495.459 677.777 M
496.642 673.606 L
497.55 670.289 L
498.457 667.02 L
499.186 664.414 L
499.787 662.277 L
500.144 661.013 L
500.389 660.151 L
500.553 659.575 L
500.716 659 L
500.886 658.406 L
501.095 657.674 L
501.349 656.787 L
501.678 655.641 L
502.271 653.585 L
502.803 651.751 L
503.335 649.927 L
504.207 646.955 L
505.117 643.88 L
506.712 638.583 L
508.437 632.91 L
510.117 627.456 L
511.798 622.087 L
513.698 616.124 L
515.599 610.244 L
518.039 602.89 L
520.175 596.503 L
522.794 588.888 L
525.009 582.516 L
527.591 575.263 L
530.012 568.563 L
532.608 561.507 L
534.748 555.759 L
536.651 550.699 L
539.04 544.404 L
541.694 537.448 L
543.465 532.797 L
545.235 528.111 L
547.442 522.167 L
549.976 515.054 L
552.749 506.569 L
554.562 500.268 L
556.374 492.854 L
557.909 485.058 L
559.436 474.826 L
560.722 462.769 L
561.797 448.343 L
562.708 430.702 L
563.498 408.703 L
564.204 380.655 L
S
GR
GS
[0.75 0 0 0.75 0 0.25] CT
0.929 0.694 0.125 RC
2 LJ
2.667 LW
N
564.204 380.655 M
564.866 343.571 L
565.568 289.647 L
566.088 241.165 L
566.608 191.808 L
567.098 152.605 L
567.685 121.252 L
568.683 98.442 L
569.548 97.146 L
570.699 100.719 L
571.708 105.24 L
572.573 109.167 L
573.33 112.612 L
574.015 115.736 L
574.677 118.759 L
575.453 122.312 L
575.949 124.589 L
576.445 126.872 L
576.963 129.264 L
577.726 132.8 L
578.432 136.088 L
579.138 139.396 L
580.19 144.364 L
581.243 149.397 L
583.32 159.452 L
585.396 170.017 L
587.691 182.388 L
589.985 195.947 L
593.074 217.436 L
595.895 244.187 L
597.387 264.543 L
598.88 294.847 L
599.707 320.15 L
600.533 356.919 L
601.223 402.085 L
601.815 455.746 L
602.077 484.017 L
602.338 514.346 L
602.493 532.819 L
602.648 551.219 L
602.821 571.18 L
603.034 594.121 L
603.292 618.455 L
603.632 643.228 L
604.303 671.042 L
604.858 678.938 L
605.413 680.932 L
606.432 679.816 L
607.287 676.667 L
608.384 672.669 L
S
GR
GS
[0.75 0 0 0.75 0 0.25] CT
0.929 0.694 0.125 RC
2 LJ
2.667 LW
N
608.384 672.669 M
609.237 669.57 L
610.091 666.502 L
610.785 664.023 L
611.377 661.921 L
611.631 661.024 L
611.885 660.13 L
612.043 659.573 L
612.202 659.017 L
612.371 658.422 L
612.581 657.688 L
612.835 656.799 L
613.166 655.649 L
613.767 653.567 L
614.346 651.568 L
614.926 649.58 L
615.711 646.909 L
616.495 644.256 L
617.889 639.607 L
619.283 634.997 L
620.942 629.602 L
622.6 624.271 L
624.51 618.247 L
626.42 612.305 L
628.867 604.887 L
630.98 598.528 L
633.657 590.714 L
635.818 584.458 L
638.448 577.036 L
640.823 570.431 L
643.418 563.347 L
645.128 558.725 L
646.838 554.149 L
648.977 548.485 L
651.466 541.944 L
653.491 536.635 L
655.516 531.309 L
657.346 526.447 L
659.656 520.164 L
662.272 512.678 L
665.104 503.652 L
666.653 497.947 L
668.203 491.264 L
669.743 482.997 L
671.214 472.433 L
672.451 459.938 L
673.487 444.911 L
674.37 426.456 L
675.139 403.344 L
675.831 373.703 L
S
GR
GS
[0.75 0 0 0.75 0 0.25] CT
0.929 0.694 0.125 RC
2 LJ
2.667 LW
N
675.831 373.703 M
676.492 334.038 L
677.231 273.65 L
677.734 225.595 L
678.237 179.268 L
678.738 142.64 L
679.403 113.274 L
680.175 99.859 L
680.946 97.651 L
682.104 100.386 L
683.125 104.936 L
684 108.905 L
684.764 112.381 L
685.454 115.524 L
686.115 118.543 L
686.868 121.99 L
687.367 124.284 L
687.867 126.583 L
688.373 128.921 L
689.072 132.156 L
689.814 135.607 L
690.555 139.078 L
692.017 145.966 L
693.479 153.004 L
696.033 165.52 L
698.192 176.942 L
700.425 189.584 L
702.657 203.652 L
705.801 228.028 L
707.851 249.961 L
709.286 271.663 L
710.366 294.966 L
711.205 320.786 L
712.045 358.575 L
712.731 404.127 L
713.322 458.336 L
713.679 497.848 L
713.879 521.461 L
714.038 540.391 L
714.196 559.076 L
714.386 580.503 L
714.616 604.19 L
714.902 628.77 L
715.308 653.808 L
715.847 671.91 L
716.386 679.021 L
717.144 681.137 L
718.094 679.037 L
719.189 675.138 L
720.183 671.51 L
S
GR
GS
[0.75 0 0 0.75 0 0.25] CT
0.929 0.694 0.125 RC
2 LJ
2.667 LW
N
720.183 671.51 M
720.975 668.641 L
721.768 665.798 L
722.424 663.461 L
723.015 661.367 L
723.365 660.133 L
723.545 659.501 L
723.724 658.87 L
723.903 658.242 L
724.122 657.477 L
724.389 656.545 L
724.748 655.297 L
725.221 653.657 L
725.695 652.024 L
726.298 649.951 L
726.988 647.6 L
727.677 645.263 L
728.811 641.46 L
729.944 637.689 L
731.602 632.27 L
733.26 626.901 L
735.151 620.89 L
737.043 614.961 L
739.5 607.465 L
741.578 601.158 L
743.689 594.893 L
745.8 588.739 L
748.273 581.684 L
750.649 575.006 L
753.181 568.021 L
755.732 561.092 L
757.824 555.479 L
759.766 550.32 L
762.174 543.978 L
764.843 536.982 L
767.073 531.119 L
768.894 526.277 L
771.148 520.148 L
773.774 512.632 L
776.604 503.607 L
778.156 497.887 L
779.708 491.182 L
781.25 482.88 L
782.719 472.297 L
783.953 459.777 L
784.987 444.716 L
785.869 426.215 L
786.637 403.04 L
787.328 373.309 L
787.989 333.492 L
S
GR
GS
[0.75 0 0 0.75 0 0.25] CT
0.929 0.694 0.125 RC
2 LJ
2.667 LW
N
787.989 333.492 M
788.731 272.683 L
789.233 224.653 L
789.735 178.506 L
790.237 142.031 L
790.91 112.787 L
791.675 99.8 L
792.44 97.672 L
793.596 100.402 L
794.616 104.943 L
795.49 108.907 L
796.253 112.379 L
796.942 115.52 L
797.603 118.539 L
798.358 121.995 L
798.857 124.287 L
799.356 126.584 L
799.864 128.926 L
800.568 132.185 L
801.305 135.615 L
802.042 139.066 L
803.401 145.471 L
804.759 151.999 L
806.7 161.512 L
808.642 171.467 L
811.101 184.844 L
813.561 199.752 L
816.635 222.232 L
819.52 252.285 L
820.841 272.838 L
822.161 303.307 L
822.931 329.853 L
823.701 368.1 L
824.352 414.841 L
824.944 472.388 L
825.28 510.841 L
825.456 531.714 L
825.631 552.522 L
825.807 572.786 L
826.023 595.878 L
826.286 620.267 L
826.635 645.067 L
827.234 669.705 L
827.833 678.915 L
828.503 681.096 L
829.172 680.034 L
830.11 677.153 L
831.048 673.775 L
831.962 670.462 L
832.876 667.172 L
S
GR
GS
[0.75 0 0 0.75 0 0.25] CT
0.929 0.694 0.125 RC
2 LJ
2.667 LW
N
832.876 667.172 M
833.613 664.535 L
834.218 662.387 L
834.57 661.139 L
834.826 660.238 L
834.998 659.634 L
835.169 659.031 L
835.338 658.441 L
835.546 657.713 L
835.798 656.832 L
836.124 655.697 L
836.697 653.709 L
837.214 651.928 L
837.73 650.156 L
838.546 647.374 L
839.509 644.115 L
840.852 639.632 L
842.772 633.349 L
844.994 626.175 L
847.255 618.996 L
849.669 611.505 L
851.848 604.833 L
854.434 597.141 L
856.565 590.858 L
858.283 585.877 L
860 580.976 L
S
GR
GS
[0.75 0 0 0.75 0 0.25] CT
0.494 0.184 0.557 RC
2 LJ
2.667 LW
N
241 484.115 M
241.007 484.104 L
241.042 484.048 L
241.104 483.948 L
241.166 483.846 L
241.236 483.73 L
241.319 483.588 L
241.418 483.418 L
241.544 483.195 L
241.78 482.761 L
242.039 482.266 L
242.288 481.769 L
242.681 480.951 L
243.054 480.143 L
243.72 478.651 L
244.354 477.203 L
244.988 475.753 L
245.592 474.386 L
246.133 473.187 L
246.663 472.037 L
247.266 470.761 L
247.906 469.447 L
248.534 468.201 L
249.119 467.081 L
249.725 465.958 L
250.371 464.806 L
251.06 463.628 L
251.716 462.553 L
252.369 461.529 L
253.035 460.531 L
253.76 459.499 L
254.479 458.53 L
255.205 457.606 L
255.919 456.75 L
256.683 455.894 L
257.454 455.093 L
258.261 454.322 L
259.046 453.642 L
259.872 453.001 L
260.7 452.441 L
261.59 451.937 L
262.456 451.556 L
263.374 451.287 L
264.276 451.187 L
265.262 451.324 L
265.943 451.627 L
266.625 452.172 L
267.225 452.932 L
267.574 453.533 L
267.827 454.051 L
S
GR
GS
[0.75 0 0 0.75 0 0.25] CT
0.494 0.184 0.557 RC
2 LJ
2.667 LW
N
267.827 454.051 M
267.997 454.441 L
268.166 454.864 L
268.335 455.317 L
268.543 455.921 L
268.796 456.71 L
269.123 457.806 L
269.702 459.876 L
270.201 461.72 L
270.699 463.568 L
271.478 466.406 L
272.508 470.044 L
273.698 474.054 L
275.332 479.227 L
276.966 484.036 L
278.312 487.741 L
279.659 491.222 L
281.235 495.027 L
283.079 499.132 L
284.75 502.544 L
286.421 505.682 L
288.47 509.182 L
290.52 512.322 L
292.483 515.015 L
294.446 517.421 L
296.896 520.053 L
299.09 522.086 L
301.632 524.091 L
303.957 525.623 L
306.499 526.996 L
309.015 528.072 L
310.743 528.661 L
312.471 529.136 L
314.632 529.579 L
317.136 529.899 L
319.303 530.022 L
321.47 530.01 L
323.407 529.894 L
325.759 529.623 L
328.257 529.185 L
330.755 528.588 L
332.304 528.131 L
333.853 527.597 L
335.4 526.971 L
336.854 526.269 L
338.073 525.559 L
339.057 524.868 L
339.548 524.467 L
340.04 524.019 L
340.773 523.233 L
S
GR
GS
[0.75 0 0 0.75 0 0.25] CT
0.494 0.184 0.557 RC
2 LJ
2.667 LW
N
340.773 523.233 M
341.457 522.326 L
342.119 521.22 L
342.895 519.521 L
343.391 518.157 L
343.887 516.574 L
344.405 514.73 L
345.17 511.817 L
345.879 509.05 L
346.588 506.311 L
347.726 502.061 L
348.734 498.461 L
349.6 495.499 L
350.356 493.005 L
351.042 490.822 L
351.704 488.78 L
352.479 486.47 L
352.975 485.038 L
353.47 483.641 L
353.988 482.218 L
354.749 480.192 L
355.45 478.394 L
356.151 476.661 L
357.201 474.183 L
358.25 471.843 L
359.977 468.278 L
361.705 465.057 L
364.076 461.177 L
366.446 457.896 L
368.718 455.304 L
370.99 453.266 L
373.102 451.915 L
374.626 451.332 L
375.75 451.179 L
376.621 451.283 L
377.492 451.661 L
378.197 452.26 L
378.792 453.06 L
379.163 453.735 L
379.379 454.201 L
379.532 454.562 L
379.684 454.95 L
379.862 455.437 L
380.069 456.045 L
380.275 456.694 L
380.609 457.815 L
381.186 459.877 L
381.7 461.778 L
382.214 463.683 L
383.029 466.65 L
S
GR
GS
[0.75 0 0 0.75 0 0.25] CT
0.494 0.184 0.557 RC
2 LJ
2.667 LW
N
383.029 466.65 M
383.998 470.067 L
385.337 474.561 L
386.194 477.303 L
387.051 479.943 L
387.759 482.047 L
388.355 483.767 L
388.685 484.702 L
388.922 485.363 L
389.077 485.792 L
389.232 486.218 L
389.396 486.665 L
389.56 487.108 L
389.805 487.764 L
390.113 488.58 L
390.6 489.846 L
391.323 491.671 L
392.081 493.523 L
392.966 495.6 L
394.069 498.067 L
395.702 501.488 L
397.884 505.646 L
399.988 509.238 L
401.857 512.109 L
403.725 514.699 L
406.203 517.735 L
408.298 519.972 L
410.453 521.982 L
412.608 523.72 L
415.097 525.414 L
417.515 526.766 L
420.072 527.908 L
421.731 528.504 L
423.39 528.993 L
425.409 529.452 L
427.823 529.819 L
430.505 530.013 L
432.706 530.018 L
434.562 529.92 L
436.737 529.693 L
439.384 529.257 L
442.216 528.594 L
443.777 528.134 L
445.339 527.597 L
446.887 526.97 L
448.341 526.268 L
449.561 525.558 L
450.585 524.836 L
451.458 524.086 L
452.22 523.282 L
S
GR
GS
[0.75 0 0 0.75 0 0.25] CT
0.494 0.184 0.557 RC
2 LJ
2.667 LW
N
452.22 523.282 M
452.908 522.382 L
453.569 521.292 L
454.328 519.664 L
454.826 518.319 L
455.325 516.749 L
455.834 514.956 L
456.546 512.256 L
457.276 509.412 L
458.006 506.588 L
459.156 502.283 L
460.172 498.641 L
461.045 495.65 L
461.806 493.135 L
462.494 490.939 L
463.156 488.896 L
463.915 486.628 L
464.413 485.185 L
464.911 483.777 L
465.421 482.373 L
466.136 480.462 L
466.864 478.587 L
467.592 476.782 L
468.804 473.925 L
470.016 471.249 L
472.12 467.022 L
474.224 463.297 L
476.64 459.616 L
479.056 456.55 L
482.128 453.549 L
485.007 451.726 L
486.341 451.286 L
487.674 451.206 L
488.449 451.393 L
489.223 451.832 L
489.877 452.482 L
490.469 453.379 L
490.645 453.717 L
490.822 454.09 L
490.984 454.465 L
491.146 454.872 L
491.316 455.329 L
491.525 455.938 L
491.78 456.734 L
492.11 457.844 L
492.71 459.992 L
493.283 462.112 L
493.856 464.231 L
494.658 467.138 L
495.459 469.96 L
S
GR
GS
[0.75 0 0 0.75 0 0.25] CT
0.494 0.184 0.557 RC
2 LJ
2.667 LW
N
495.459 469.96 M
496.642 473.949 L
497.55 476.872 L
498.457 479.68 L
499.186 481.855 L
499.787 483.596 L
500.144 484.609 L
500.389 485.292 L
500.553 485.745 L
500.716 486.195 L
500.886 486.657 L
501.095 487.223 L
501.349 487.902 L
501.678 488.771 L
502.271 490.304 L
502.803 491.642 L
503.335 492.947 L
504.207 495.019 L
505.117 497.09 L
506.712 500.505 L
508.437 503.911 L
510.117 506.955 L
511.798 509.745 L
513.698 512.614 L
515.599 515.196 L
518.039 518.121 L
520.175 520.351 L
522.794 522.697 L
525.009 524.376 L
527.591 526.007 L
530.012 527.249 L
532.608 528.296 L
534.748 528.957 L
536.651 529.403 L
539.04 529.787 L
541.694 530.002 L
543.465 530.032 L
545.235 529.975 L
547.442 529.79 L
549.976 529.425 L
552.749 528.842 L
554.562 528.352 L
556.374 527.763 L
557.909 527.172 L
559.436 526.473 L
560.722 525.763 L
561.797 525.046 L
562.708 524.307 L
563.498 523.521 L
564.204 522.654 L
S
GR
GS
[0.75 0 0 0.75 0 0.25] CT
0.494 0.184 0.557 RC
2 LJ
2.667 LW
N
564.204 522.654 M
564.866 521.635 L
565.568 520.247 L
566.088 518.955 L
566.608 517.416 L
567.098 515.76 L
567.685 513.592 L
568.683 509.741 L
569.548 506.386 L
570.699 502.077 L
571.708 498.473 L
572.573 495.511 L
573.33 493.017 L
574.015 490.835 L
574.677 488.793 L
575.453 486.479 L
575.949 485.047 L
576.445 483.65 L
576.963 482.225 L
577.726 480.193 L
578.432 478.383 L
579.138 476.639 L
580.19 474.155 L
581.243 471.809 L
583.32 467.571 L
585.396 463.825 L
587.691 460.236 L
589.985 457.204 L
593.074 454.004 L
595.895 452.016 L
597.387 451.396 L
598.88 451.184 L
599.707 451.314 L
600.533 451.702 L
601.223 452.311 L
601.815 453.129 L
602.077 453.601 L
602.338 454.148 L
602.493 454.511 L
602.648 454.902 L
602.821 455.371 L
603.034 455.993 L
603.292 456.808 L
603.632 457.955 L
604.303 460.37 L
604.858 462.429 L
605.413 464.479 L
606.432 468.147 L
607.287 471.119 L
608.384 474.771 L
S
GR
GS
[0.75 0 0 0.75 0 0.25] CT
0.494 0.184 0.557 RC
2 LJ
2.667 LW
N
608.384 474.771 M
609.237 477.494 L
610.091 480.116 L
610.785 482.175 L
611.377 483.882 L
611.631 484.6 L
611.885 485.309 L
612.043 485.747 L
612.202 486.182 L
612.371 486.645 L
612.581 487.212 L
612.835 487.893 L
613.166 488.765 L
613.767 490.317 L
614.346 491.774 L
614.926 493.192 L
615.711 495.05 L
616.495 496.839 L
617.889 499.856 L
619.283 502.675 L
620.942 505.781 L
622.6 508.634 L
624.51 511.624 L
626.42 514.318 L
628.867 517.369 L
630.98 519.669 L
633.657 522.172 L
635.818 523.888 L
638.448 525.638 L
640.823 526.928 L
643.418 528.048 L
645.128 528.636 L
646.838 529.112 L
648.977 529.558 L
651.466 529.887 L
653.491 530.014 L
655.516 530.023 L
657.346 529.936 L
659.656 529.701 L
662.272 529.275 L
665.104 528.619 L
666.653 528.167 L
668.203 527.64 L
669.743 527.024 L
671.214 526.323 L
672.451 525.613 L
673.487 524.893 L
674.37 524.145 L
675.139 523.347 L
675.831 522.455 L
S
GR
GS
[0.75 0 0 0.75 0 0.25] CT
0.494 0.184 0.557 RC
2 LJ
2.667 LW
N
675.831 522.455 M
676.492 521.386 L
677.231 519.833 L
677.734 518.506 L
678.237 516.95 L
678.738 515.205 L
679.403 512.701 L
680.175 509.7 L
680.946 506.711 L
682.104 502.37 L
683.125 498.71 L
684 495.705 L
684.764 493.181 L
685.454 490.98 L
686.115 488.936 L
686.868 486.686 L
687.367 485.238 L
687.867 483.825 L
688.373 482.427 L
689.072 480.557 L
689.814 478.644 L
690.555 476.803 L
692.017 473.379 L
693.479 470.217 L
696.033 465.299 L
698.192 461.704 L
700.425 458.516 L
702.657 455.851 L
705.801 453.01 L
707.851 451.782 L
709.286 451.29 L
710.366 451.186 L
711.205 451.32 L
712.045 451.723 L
712.731 452.342 L
713.322 453.172 L
713.679 453.845 L
713.879 454.286 L
714.038 454.669 L
714.196 455.082 L
714.386 455.613 L
714.616 456.307 L
714.902 457.232 L
715.308 458.644 L
715.847 460.607 L
716.386 462.605 L
717.144 465.391 L
718.094 468.786 L
719.189 472.542 L
720.183 475.798 L
S
GR
GS
[0.75 0 0 0.75 0 0.25] CT
0.494 0.184 0.557 RC
2 LJ
2.667 LW
N
720.183 475.798 M
720.975 478.295 L
721.768 480.705 L
722.424 482.635 L
723.015 484.326 L
723.365 485.306 L
723.545 485.804 L
723.724 486.297 L
723.903 486.785 L
724.122 487.374 L
724.389 488.087 L
724.748 489.03 L
725.221 490.25 L
725.695 491.444 L
726.298 492.929 L
726.988 494.574 L
727.677 496.165 L
728.811 498.671 L
729.944 501.041 L
731.602 504.277 L
733.26 507.252 L
735.151 510.347 L
737.043 513.143 L
739.5 516.36 L
741.578 518.744 L
743.689 520.872 L
745.8 522.727 L
748.273 524.578 L
750.649 526.057 L
753.181 527.339 L
755.732 528.349 L
757.824 528.984 L
759.766 529.431 L
762.174 529.806 L
764.843 530.009 L
767.073 530.021 L
768.894 529.931 L
771.148 529.7 L
773.774 529.272 L
776.604 528.615 L
778.156 528.162 L
779.708 527.633 L
781.25 527.015 L
782.719 526.313 L
783.953 525.603 L
784.987 524.883 L
785.869 524.135 L
786.637 523.336 L
787.328 522.443 L
787.989 521.37 L
S
GR
GS
[0.75 0 0 0.75 0 0.25] CT
0.494 0.184 0.557 RC
2 LJ
2.667 LW
N
787.989 521.37 M
788.731 519.806 L
789.233 518.477 L
789.735 516.919 L
790.237 515.167 L
790.91 512.636 L
791.675 509.658 L
792.44 506.694 L
793.596 502.36 L
794.616 498.706 L
795.49 495.705 L
796.253 493.183 L
796.942 490.983 L
797.603 488.939 L
798.358 486.682 L
798.857 485.236 L
799.356 483.824 L
799.864 482.424 L
800.568 480.54 L
801.305 478.639 L
802.042 476.809 L
803.401 473.617 L
804.759 470.653 L
806.7 466.798 L
808.642 463.37 L
811.101 459.617 L
813.561 456.501 L
816.635 453.512 L
819.52 451.703 L
820.841 451.278 L
822.161 451.209 L
822.931 451.401 L
823.701 451.844 L
824.352 452.499 L
824.944 453.404 L
825.28 454.083 L
825.456 454.49 L
825.631 454.932 L
825.807 455.413 L
826.023 456.047 L
826.286 456.879 L
826.635 458.063 L
827.234 460.221 L
827.833 462.44 L
828.503 464.909 L
829.172 467.329 L
830.11 470.61 L
831.048 473.764 L
831.962 476.716 L
832.876 479.55 L
S
GR
GS
[0.75 0 0 0.75 0 0.25] CT
0.494 0.184 0.557 RC
2 LJ
2.667 LW
N
832.876 479.55 M
833.613 481.754 L
834.218 483.508 L
834.57 484.508 L
834.826 485.224 L
834.998 485.699 L
835.169 486.171 L
835.338 486.63 L
835.546 487.193 L
835.798 487.868 L
836.124 488.729 L
836.697 490.212 L
837.214 491.514 L
837.73 492.784 L
838.546 494.731 L
839.509 496.934 L
840.852 499.839 L
842.772 503.67 L
844.994 507.667 L
847.255 511.283 L
849.669 514.685 L
851.848 517.38 L
854.434 520.152 L
856.565 522.119 L
858.283 523.51 L
860 524.739 L
S
GR
GS
[0.75 0 0 0.75 412.87541 52.37498] CT
/Helvetica-Bold 29 F
GS
[1 0 0 1 0 0] CT
-88 -7 moveto 
1 -1 scale
(Oscillatory) t 
GR
GR
%%Trailer
%%Pages: 1
%%EOF
