%!PS-Adobe-3.0 EPSF-3.0
%%Title: Nullclines.eps
%%Creator: matplotlib version 1.5.1, http://matplotlib.org/
%%CreationDate: Mon Sep  5 16:20:05 2016
%%Orientation: portrait
%%BoundingBox: 31 198 580 593
%%EndComments
%%BeginProlog
/mpldict 8 dict def
mpldict begin
/m { moveto } bind def
/l { lineto } bind def
/r { rlineto } bind def
/c { curveto } bind def
/cl { closepath } bind def
/box {
m
1 index 0 r
0 exch r
neg 0 r
cl
} bind def
/clipbox {
box
clip
newpath
} bind def
%!PS-Adobe-3.0 Resource-Font
%%Title: Bitstream Vera Sans
%%Copyright: Copyright (c) 2003 by Bitstream, Inc. All Rights Reserved.
%%Creator: Converted from TrueType to type 3 by PPR
25 dict begin
/_d{bind def}bind def
/_m{moveto}_d
/_l{lineto}_d
/_cl{closepath eofill}_d
/_c{curveto}_d
/_sc{7 -1 roll{setcachedevice}{pop pop pop pop pop pop}ifelse}_d
/_e{exec}_d
/FontName /BitstreamVeraSans-Roman def
/PaintType 0 def
/FontMatrix[.001 0 0 .001 0 0]def
/FontBBox[-183 -236 1287 928]def
/FontType 3 def
/Encoding [ /hyphen /period /zero /one /two /four /five /six /eight /c /e /i /l /n /u /x /y /minus ] def
/FontInfo 10 dict dup begin
/FamilyName (Bitstream Vera Sans) def
/FullName (Bitstream Vera Sans) def
/Notice (Copyright (c) 2003 by Bitstream, Inc. All Rights Reserved. Bitstream Vera is a trademark of Bitstream, Inc.) def
/Weight (Roman) def
/Version (Release 1.10) def
/ItalicAngle 0.0 def
/isFixedPitch false def
/UnderlinePosition -213 def
/UnderlineThickness 143 def
end readonly def
/CharStrings 18 dict dup begin
/hyphen{361 0 49 234 312 314 _sc
49 314 _m
312 314 _l
312 234 _l
49 234 _l
49 314 _l
_cl}_d
/period{318 0 107 0 210 124 _sc
107 124 _m
210 124 _l
210 0 _l
107 0 _l
107 124 _l
_cl}_d
/zero{636 0 66 -13 570 742 _sc
318 664 _m
267 664 229 639 203 589 _c
177 539 165 464 165 364 _c
165 264 177 189 203 139 _c
229 89 267 64 318 64 _c
369 64 407 89 433 139 _c
458 189 471 264 471 364 _c
471 464 458 539 433 589 _c
407 639 369 664 318 664 _c
318 742 _m
399 742 461 709 505 645 _c
548 580 570 486 570 364 _c
570 241 548 147 505 83 _c
461 19 399 -13 318 -13 _c
236 -13 173 19 130 83 _c
87 147 66 241 66 364 _c
66 486 87 580 130 645 _c
173 709 236 742 318 742 _c
_cl}_d
/one{636 0 110 0 544 729 _sc
124 83 _m
285 83 _l
285 639 _l
110 604 _l
110 694 _l
284 729 _l
383 729 _l
383 83 _l
544 83 _l
544 0 _l
124 0 _l
124 83 _l
_cl}_d
/two{{636 0 73 0 536 742 _sc
192 83 _m
536 83 _l
536 0 _l
73 0 _l
73 83 _l
110 121 161 173 226 239 _c
290 304 331 346 348 365 _c
380 400 402 430 414 455 _c
426 479 433 504 433 528 _c
433 566 419 598 392 622 _c
365 646 330 659 286 659 _c
255 659 222 653 188 643 _c
154 632 117 616 78 594 _c
78 694 _l
118 710 155 722 189 730 _c
223 738 255 742 284 742 _c
}_e{359 742 419 723 464 685 _c
509 647 532 597 532 534 _c
532 504 526 475 515 449 _c
504 422 484 390 454 354 _c
446 344 420 317 376 272 _c
332 227 271 164 192 83 _c
_cl}_e}_d
/four{636 0 49 0 580 729 _sc
378 643 _m
129 254 _l
378 254 _l
378 643 _l
352 729 _m
476 729 _l
476 254 _l
580 254 _l
580 172 _l
476 172 _l
476 0 _l
378 0 _l
378 172 _l
49 172 _l
49 267 _l
352 729 _l
_cl}_d
/five{{636 0 77 -13 549 729 _sc
108 729 _m
495 729 _l
495 646 _l
198 646 _l
198 467 _l
212 472 227 476 241 478 _c
255 480 270 482 284 482 _c
365 482 429 459 477 415 _c
525 370 549 310 549 234 _c
549 155 524 94 475 51 _c
426 8 357 -13 269 -13 _c
238 -13 207 -10 175 -6 _c
143 -1 111 6 77 17 _c
77 116 _l
106 100 136 88 168 80 _c
199 72 232 69 267 69 _c
}_e{323 69 368 83 401 113 _c
433 143 450 183 450 234 _c
450 284 433 324 401 354 _c
368 384 323 399 267 399 _c
241 399 214 396 188 390 _c
162 384 135 375 108 363 _c
108 729 _l
_cl}_e}_d
/six{{636 0 70 -13 573 742 _sc
330 404 _m
286 404 251 388 225 358 _c
199 328 186 286 186 234 _c
186 181 199 139 225 109 _c
251 79 286 64 330 64 _c
374 64 409 79 435 109 _c
461 139 474 181 474 234 _c
474 286 461 328 435 358 _c
409 388 374 404 330 404 _c
526 713 _m
526 623 _l
501 635 476 644 451 650 _c
425 656 400 659 376 659 _c
310 659 260 637 226 593 _c
}_e{192 549 172 482 168 394 _c
187 422 211 444 240 459 _c
269 474 301 482 336 482 _c
409 482 467 459 509 415 _c
551 371 573 310 573 234 _c
573 159 550 99 506 54 _c
462 9 403 -13 330 -13 _c
246 -13 181 19 137 83 _c
92 147 70 241 70 364 _c
70 479 97 571 152 639 _c
206 707 280 742 372 742 _c
396 742 421 739 447 735 _c
472 730 498 723 526 713 _c
_cl}_e}_d
/eight{{636 0 68 -13 568 742 _sc
318 346 _m
271 346 234 333 207 308 _c
180 283 167 249 167 205 _c
167 161 180 126 207 101 _c
234 76 271 64 318 64 _c
364 64 401 76 428 102 _c
455 127 469 161 469 205 _c
469 249 455 283 429 308 _c
402 333 365 346 318 346 _c
219 388 _m
177 398 144 418 120 447 _c
96 476 85 511 85 553 _c
85 611 105 657 147 691 _c
188 725 245 742 318 742 _c
}_e{390 742 447 725 489 691 _c
530 657 551 611 551 553 _c
551 511 539 476 515 447 _c
491 418 459 398 417 388 _c
464 377 501 355 528 323 _c
554 291 568 251 568 205 _c
568 134 546 80 503 43 _c
459 5 398 -13 318 -13 _c
237 -13 175 5 132 43 _c
89 80 68 134 68 205 _c
68 251 81 291 108 323 _c
134 355 171 377 219 388 _c
183 544 _m
183 506 194 476 218 455 _c
}_e{242 434 275 424 318 424 _c
360 424 393 434 417 455 _c
441 476 453 506 453 544 _c
453 582 441 611 417 632 _c
393 653 360 664 318 664 _c
275 664 242 653 218 632 _c
194 611 183 582 183 544 _c
_cl}_e}_d
/c{{550 0 55 -13 488 560 _sc
488 526 _m
488 442 _l
462 456 437 466 411 473 _c
385 480 360 484 334 484 _c
276 484 230 465 198 428 _c
166 391 150 339 150 273 _c
150 206 166 154 198 117 _c
230 80 276 62 334 62 _c
360 62 385 65 411 72 _c
437 79 462 90 488 104 _c
488 21 _l
462 9 436 0 410 -5 _c
383 -10 354 -13 324 -13 _c
242 -13 176 12 128 64 _c
}_e{79 115 55 185 55 273 _c
55 362 79 432 128 483 _c
177 534 244 560 330 560 _c
358 560 385 557 411 551 _c
437 545 463 537 488 526 _c
_cl}_e}_d
/e{{615 0 55 -13 562 560 _sc
562 296 _m
562 252 _l
149 252 _l
153 190 171 142 205 110 _c
238 78 284 62 344 62 _c
378 62 412 66 444 74 _c
476 82 509 95 541 113 _c
541 28 _l
509 14 476 3 442 -3 _c
408 -9 373 -13 339 -13 _c
251 -13 182 12 131 62 _c
80 112 55 181 55 268 _c
55 357 79 428 127 481 _c
175 533 241 560 323 560 _c
397 560 455 536 498 489 _c
}_e{540 441 562 377 562 296 _c
472 322 _m
471 371 457 410 431 440 _c
404 469 368 484 324 484 _c
274 484 234 469 204 441 _c
174 413 156 373 152 322 _c
472 322 _l
_cl}_e}_d
/i{278 0 94 0 184 760 _sc
94 547 _m
184 547 _l
184 0 _l
94 0 _l
94 547 _l
94 760 _m
184 760 _l
184 646 _l
94 646 _l
94 760 _l
_cl}_d
/l{278 0 94 0 184 760 _sc
94 760 _m
184 760 _l
184 0 _l
94 0 _l
94 760 _l
_cl}_d
/n{634 0 91 0 549 560 _sc
549 330 _m
549 0 _l
459 0 _l
459 327 _l
459 379 448 417 428 443 _c
408 469 378 482 338 482 _c
289 482 251 466 223 435 _c
195 404 181 362 181 309 _c
181 0 _l
91 0 _l
91 547 _l
181 547 _l
181 462 _l
202 494 227 519 257 535 _c
286 551 320 560 358 560 _c
420 560 468 540 500 501 _c
532 462 549 405 549 330 _c
_cl}_d
/u{634 0 85 -13 543 547 _sc
85 216 _m
85 547 _l
175 547 _l
175 219 _l
175 167 185 129 205 103 _c
225 77 255 64 296 64 _c
344 64 383 79 411 110 _c
439 141 453 183 453 237 _c
453 547 _l
543 547 _l
543 0 _l
453 0 _l
453 84 _l
431 50 405 26 377 10 _c
348 -5 315 -13 277 -13 _c
214 -13 166 6 134 45 _c
101 83 85 140 85 216 _c
_cl}_d
/x{592 0 29 0 559 547 _sc
549 547 _m
351 281 _l
559 0 _l
453 0 _l
294 215 _l
135 0 _l
29 0 _l
241 286 _l
47 547 _l
153 547 _l
298 352 _l
443 547 _l
549 547 _l
_cl}_d
/y{592 0 30 -207 562 547 _sc
322 -50 _m
296 -114 271 -157 247 -177 _c
223 -197 191 -207 151 -207 _c
79 -207 _l
79 -132 _l
132 -132 _l
156 -132 175 -126 189 -114 _c
203 -102 218 -75 235 -31 _c
251 9 _l
30 547 _l
125 547 _l
296 119 _l
467 547 _l
562 547 _l
322 -50 _l
_cl}_d
/minus{838 0 106 272 732 355 _sc
106 355 _m
732 355 _l
732 272 _l
106 272 _l
106 355 _l
_cl}_d
end readonly def

/BuildGlyph
 {exch begin
 CharStrings exch
 2 copy known not{pop /.notdef}if
 true 3 1 roll get exec
 end}_d

/BuildChar {
 1 index /Encoding get exch get
 1 index /BuildGlyph get exec
}_d

FontName currentdict end definefont pop
end
%%EndProlog
mpldict begin
31.131 198.027 translate
549.737 395.945 0 0 clipbox
100000 setmiterlimit
gsave
0 0 m
549.7375 0 l
549.7375 395.945312 l
0 395.945312 l
cl
1.000 setgray
fill
grestore
gsave
78.6375 32.496875 m
525.0375 32.496875 l
525.0375 378.096875 l
78.6375 378.096875 l
cl
1.000 setgray
fill
grestore
1.000 setlinewidth
1 setlinejoin
2 setlinecap
[] 0 setdash
0.000 setgray
gsave
446.4 345.6 78.64 32.5 clipbox
78.6375 147.696875 m
87.747704 147.696875 l
96.857908 147.696875 l
105.968112 147.696875 l
115.078316 147.696875 l
124.18852 147.696875 l
133.298724 147.696875 l
142.408929 147.696875 l
151.519133 147.696875 l
160.629337 147.696875 l
169.739541 147.696875 l
178.849745 147.696875 l
187.959949 147.696875 l
197.070153 147.696875 l
206.180357 147.696875 l
215.290561 147.696875 l
224.400765 147.696875 l
233.510969 147.696875 l
242.621173 147.696875 l
251.731378 147.696875 l
260.841582 147.696875 l
269.951786 147.696875 l
279.06199 147.696875 l
288.172194 147.696875 l
297.282398 147.696875 l
306.392602 147.696875 l
315.502806 147.696875 l
324.61301 147.696875 l
333.723214 147.696875 l
342.833418 147.696875 l
351.943622 147.696875 l
361.053827 147.696875 l
370.164031 147.696875 l
379.274235 147.696875 l
388.384439 147.696875 l
397.494643 147.696875 l
406.604847 147.696875 l
415.715051 147.696875 l
424.825255 147.696875 l
433.935459 147.696875 l
443.045663 147.696875 l
452.155867 147.696875 l
461.266071 147.696875 l
470.376276 147.696875 l
479.48648 147.696875 l
488.596684 147.696875 l
497.706888 147.696875 l
506.817092 147.696875 l
515.927296 147.696875 l
525.0375 147.696875 l
stroke
grestore
gsave
446.4 345.6 78.64 32.5 clipbox
190.2375 -313.103125 m
190.2375 -1 m
190.2375 25.443814 l
190.2375 63.06014 l
190.2375 100.676467 l
190.2375 138.292793 l
190.2375 175.90912 l
190.2375 213.525446 l
190.2375 251.141773 l
190.2375 288.758099 l
190.2375 326.374426 l
190.2375 363.990753 l
190.2375 396.945312 l
stroke
grestore
3.000 setlinewidth
0.000 0.000 1.000 setrgbcolor
gsave
446.4 345.6 78.64 32.5 clipbox
78.6375 389.616875 m
87.747704 345.792131 l
96.857908 307.069797 l
105.968112 273.209228 l
115.078316 243.96978 l
124.18852 219.110809 l
133.298724 198.391671 l
142.408929 181.57172 l
151.519133 168.410315 l
160.629337 158.666809 l
169.739541 152.100558 l
178.849745 148.47092 l
187.959949 147.537248 l
197.070153 149.0589 l
206.180357 152.795231 l
215.290561 158.505596 l
224.400765 165.949351 l
233.510969 174.885853 l
242.621173 185.074457 l
251.731378 196.274518 l
260.841582 208.245393 l
269.951786 220.746438 l
279.06199 233.537007 l
288.172194 246.376457 l
297.282398 259.024144 l
306.392602 271.239423 l
315.502806 282.781651 l
324.61301 293.410182 l
333.723214 302.884374 l
342.833418 310.96358 l
351.943622 317.407158 l
361.053827 321.974463 l
370.164031 324.424851 l
379.274235 324.517678 l
388.384439 322.012299 l
397.494643 316.66807 l
406.604847 308.244348 l
415.715051 296.500487 l
424.825255 281.195843 l
433.935459 262.089773 l
443.045663 238.941632 l
452.155867 211.510776 l
461.266071 179.55656 l
470.376276 142.838341 l
479.48648 101.115474 l
488.596684 54.147315 l
497.706888 1.69322 l
498.128605 -1 l
stroke
grestore
0.000 0.500 0.000 setrgbcolor
gsave
446.4 345.6 78.64 32.5 clipbox
78.6375 -2.523925 m
79.769634 -1 m
87.747704 9.738997 l
96.857908 22.00192 l
105.968112 34.264842 l
115.078316 46.527765 l
124.18852 58.790687 l
133.298724 71.05361 l
142.408929 83.316532 l
151.519133 95.579455 l
160.629337 107.842377 l
169.739541 120.105299 l
178.849745 132.368222 l
187.959949 144.631144 l
197.070153 156.894067 l
206.180357 169.156989 l
215.290561 181.419912 l
224.400765 193.682834 l
233.510969 205.945757 l
242.621173 218.208679 l
251.731378 230.471602 l
260.841582 242.734524 l
269.951786 254.997446 l
279.06199 267.260369 l
288.172194 279.523291 l
297.282398 291.786214 l
306.392602 304.049136 l
315.502806 316.312059 l
324.61301 328.574981 l
333.723214 340.837904 l
342.833418 353.100826 l
351.943622 365.363748 l
361.053827 377.626671 l
370.164031 389.889593 l
375.40577 396.945312 l
stroke
grestore
1.000 setlinewidth
0 setlinejoin
0.000 setgray
gsave
78.6375 378.096875 m
525.0375 378.096875 l
stroke
grestore
gsave
525.0375 32.496875 m
525.0375 378.096875 l
stroke
grestore
gsave
78.6375 32.496875 m
525.0375 32.496875 l
stroke
grestore
gsave
78.6375 32.496875 m
78.6375 378.096875 l
stroke
grestore
0.500 setlinewidth
1 setlinejoin
0 setlinecap
[1 3] 0 setdash
gsave
446.4 345.6 78.64 32.5 clipbox
78.6375 32.496875 m
78.6375 378.096875 l
stroke
grestore
[] 0 setdash
gsave
/o {
gsave
newpath
translate
0.5 setlinewidth
1 setlinejoin
0 setlinecap
0 0 m
0 4 l

gsave
0.000 setgray
fill
grestore
stroke
grestore
} bind def
78.6375 32.4969 o
grestore
gsave
/o {
gsave
newpath
translate
0.5 setlinewidth
1 setlinejoin
0 setlinecap
0 0 m
0 -4 l

gsave
0.000 setgray
fill
grestore
stroke
grestore
} bind def
78.6375 378.097 o
grestore
/BitstreamVeraSans-Roman findfont
22.000 scalefont
setfont
gsave
51.918750 11.778125 translate
0.000000 rotate
0.000000 0.000000 m /minus glyphshow
18.433594 0.000000 m /zero glyphshow
32.430664 0.000000 m /period glyphshow
39.423828 0.000000 m /four glyphshow
grestore
[1 3] 0 setdash
gsave
446.4 345.6 78.64 32.5 clipbox
134.4375 32.496875 m
134.4375 378.096875 l
stroke
grestore
[] 0 setdash
gsave
/o {
gsave
newpath
translate
0.5 setlinewidth
1 setlinejoin
0 setlinecap
0 0 m
0 4 l

gsave
0.000 setgray
fill
grestore
stroke
grestore
} bind def
134.438 32.4969 o
grestore
gsave
/o {
gsave
newpath
translate
0.5 setlinewidth
1 setlinejoin
0 setlinecap
0 0 m
0 -4 l

gsave
0.000 setgray
fill
grestore
stroke
grestore
} bind def
134.438 378.097 o
grestore
gsave
107.718750 11.778125 translate
0.000000 rotate
0.000000 0.000000 m /minus glyphshow
18.433594 0.000000 m /zero glyphshow
32.430664 0.000000 m /period glyphshow
39.423828 0.000000 m /two glyphshow
grestore
[1 3] 0 setdash
gsave
446.4 345.6 78.64 32.5 clipbox
190.2375 32.496875 m
190.2375 378.096875 l
stroke
grestore
[] 0 setdash
gsave
/o {
gsave
newpath
translate
0.5 setlinewidth
1 setlinejoin
0 setlinecap
0 0 m
0 4 l

gsave
0.000 setgray
fill
grestore
stroke
grestore
} bind def
190.238 32.4969 o
grestore
gsave
/o {
gsave
newpath
translate
0.5 setlinewidth
1 setlinejoin
0 setlinecap
0 0 m
0 -4 l

gsave
0.000 setgray
fill
grestore
stroke
grestore
} bind def
190.238 378.097 o
grestore
gsave
172.737500 11.778125 translate
0.000000 rotate
0.000000 0.000000 m /zero glyphshow
13.997070 0.000000 m /period glyphshow
20.990234 0.000000 m /zero glyphshow
grestore
[1 3] 0 setdash
gsave
446.4 345.6 78.64 32.5 clipbox
246.0375 32.496875 m
246.0375 378.096875 l
stroke
grestore
[] 0 setdash
gsave
/o {
gsave
newpath
translate
0.5 setlinewidth
1 setlinejoin
0 setlinecap
0 0 m
0 4 l

gsave
0.000 setgray
fill
grestore
stroke
grestore
} bind def
246.038 32.4969 o
grestore
gsave
/o {
gsave
newpath
translate
0.5 setlinewidth
1 setlinejoin
0 setlinecap
0 0 m
0 -4 l

gsave
0.000 setgray
fill
grestore
stroke
grestore
} bind def
246.038 378.097 o
grestore
gsave
228.537500 11.778125 translate
0.000000 rotate
0.000000 0.000000 m /zero glyphshow
13.997070 0.000000 m /period glyphshow
20.990234 0.000000 m /two glyphshow
grestore
[1 3] 0 setdash
gsave
446.4 345.6 78.64 32.5 clipbox
301.8375 32.496875 m
301.8375 378.096875 l
stroke
grestore
[] 0 setdash
gsave
/o {
gsave
newpath
translate
0.5 setlinewidth
1 setlinejoin
0 setlinecap
0 0 m
0 4 l

gsave
0.000 setgray
fill
grestore
stroke
grestore
} bind def
301.838 32.4969 o
grestore
gsave
/o {
gsave
newpath
translate
0.5 setlinewidth
1 setlinejoin
0 setlinecap
0 0 m
0 -4 l

gsave
0.000 setgray
fill
grestore
stroke
grestore
} bind def
301.838 378.097 o
grestore
gsave
284.337500 11.778125 translate
0.000000 rotate
0.000000 0.000000 m /zero glyphshow
13.997070 0.000000 m /period glyphshow
20.990234 0.000000 m /four glyphshow
grestore
[1 3] 0 setdash
gsave
446.4 345.6 78.64 32.5 clipbox
357.6375 32.496875 m
357.6375 378.096875 l
stroke
grestore
[] 0 setdash
gsave
/o {
gsave
newpath
translate
0.5 setlinewidth
1 setlinejoin
0 setlinecap
0 0 m
0 4 l

gsave
0.000 setgray
fill
grestore
stroke
grestore
} bind def
357.638 32.4969 o
grestore
gsave
/o {
gsave
newpath
translate
0.5 setlinewidth
1 setlinejoin
0 setlinecap
0 0 m
0 -4 l

gsave
0.000 setgray
fill
grestore
stroke
grestore
} bind def
357.638 378.097 o
grestore
gsave
340.137500 11.778125 translate
0.000000 rotate
0.000000 0.000000 m /zero glyphshow
13.997070 0.000000 m /period glyphshow
20.990234 0.000000 m /six glyphshow
grestore
[1 3] 0 setdash
gsave
446.4 345.6 78.64 32.5 clipbox
413.4375 32.496875 m
413.4375 378.096875 l
stroke
grestore
[] 0 setdash
gsave
/o {
gsave
newpath
translate
0.5 setlinewidth
1 setlinejoin
0 setlinecap
0 0 m
0 4 l

gsave
0.000 setgray
fill
grestore
stroke
grestore
} bind def
413.438 32.4969 o
grestore
gsave
/o {
gsave
newpath
translate
0.5 setlinewidth
1 setlinejoin
0 setlinecap
0 0 m
0 -4 l

gsave
0.000 setgray
fill
grestore
stroke
grestore
} bind def
413.438 378.097 o
grestore
gsave
395.937500 11.778125 translate
0.000000 rotate
0.000000 0.000000 m /zero glyphshow
13.997070 0.000000 m /period glyphshow
20.990234 0.000000 m /eight glyphshow
grestore
[1 3] 0 setdash
gsave
446.4 345.6 78.64 32.5 clipbox
469.2375 32.496875 m
469.2375 378.096875 l
stroke
grestore
[] 0 setdash
gsave
/o {
gsave
newpath
translate
0.5 setlinewidth
1 setlinejoin
0 setlinecap
0 0 m
0 4 l

gsave
0.000 setgray
fill
grestore
stroke
grestore
} bind def
469.238 32.4969 o
grestore
gsave
/o {
gsave
newpath
translate
0.5 setlinewidth
1 setlinejoin
0 setlinecap
0 0 m
0 -4 l

gsave
0.000 setgray
fill
grestore
stroke
grestore
} bind def
469.238 378.097 o
grestore
gsave
451.737500 11.778125 translate
0.000000 rotate
0.000000 0.000000 m /one glyphshow
13.997070 0.000000 m /period glyphshow
20.990234 0.000000 m /zero glyphshow
grestore
gsave
507.537500 11.778125 translate
0.000000 rotate
0.000000 0.000000 m /one glyphshow
13.997070 0.000000 m /period glyphshow
20.990234 0.000000 m /two glyphshow
grestore
[1 3] 0 setdash
gsave
446.4 345.6 78.64 32.5 clipbox
78.6375 32.496875 m
525.0375 32.496875 l
stroke
grestore
[] 0 setdash
gsave
/o {
gsave
newpath
translate
0.5 setlinewidth
1 setlinejoin
0 setlinecap
0 0 m
4 0 l

gsave
0.000 setgray
fill
grestore
stroke
grestore
} bind def
78.6375 32.4969 o
grestore
gsave
/o {
gsave
newpath
translate
0.5 setlinewidth
1 setlinejoin
0 setlinecap
0 0 m
-4 0 l

gsave
0.000 setgray
fill
grestore
stroke
grestore
} bind def
525.038 32.4969 o
grestore
gsave
7.200000 26.426563 translate
0.000000 rotate
0.000000 0.000000 m /minus glyphshow
18.433594 0.000000 m /zero glyphshow
32.430664 0.000000 m /period glyphshow
39.423828 0.000000 m /one glyphshow
53.420898 0.000000 m /zero glyphshow
grestore
[1 3] 0 setdash
gsave
446.4 345.6 78.64 32.5 clipbox
78.6375 90.096875 m
525.0375 90.096875 l
stroke
grestore
[] 0 setdash
gsave
/o {
gsave
newpath
translate
0.5 setlinewidth
1 setlinejoin
0 setlinecap
0 0 m
4 0 l

gsave
0.000 setgray
fill
grestore
stroke
grestore
} bind def
78.6375 90.0969 o
grestore
gsave
/o {
gsave
newpath
translate
0.5 setlinewidth
1 setlinejoin
0 setlinecap
0 0 m
-4 0 l

gsave
0.000 setgray
fill
grestore
stroke
grestore
} bind def
525.038 90.0969 o
grestore
gsave
7.200000 84.026563 translate
0.000000 rotate
0.000000 0.000000 m /minus glyphshow
18.433594 0.000000 m /zero glyphshow
32.430664 0.000000 m /period glyphshow
39.423828 0.000000 m /zero glyphshow
53.420898 0.000000 m /five glyphshow
grestore
[1 3] 0 setdash
gsave
446.4 345.6 78.64 32.5 clipbox
78.6375 147.696875 m
525.0375 147.696875 l
stroke
grestore
[] 0 setdash
gsave
/o {
gsave
newpath
translate
0.5 setlinewidth
1 setlinejoin
0 setlinecap
0 0 m
4 0 l

gsave
0.000 setgray
fill
grestore
stroke
grestore
} bind def
78.6375 147.697 o
grestore
gsave
/o {
gsave
newpath
translate
0.5 setlinewidth
1 setlinejoin
0 setlinecap
0 0 m
-4 0 l

gsave
0.000 setgray
fill
grestore
stroke
grestore
} bind def
525.038 147.697 o
grestore
gsave
25.637500 141.626563 translate
0.000000 rotate
0.000000 0.000000 m /zero glyphshow
13.997070 0.000000 m /period glyphshow
20.990234 0.000000 m /zero glyphshow
34.987305 0.000000 m /zero glyphshow
grestore
[1 3] 0 setdash
gsave
446.4 345.6 78.64 32.5 clipbox
78.6375 205.296875 m
525.0375 205.296875 l
stroke
grestore
[] 0 setdash
gsave
/o {
gsave
newpath
translate
0.5 setlinewidth
1 setlinejoin
0 setlinecap
0 0 m
4 0 l

gsave
0.000 setgray
fill
grestore
stroke
grestore
} bind def
78.6375 205.297 o
grestore
gsave
/o {
gsave
newpath
translate
0.5 setlinewidth
1 setlinejoin
0 setlinecap
0 0 m
-4 0 l

gsave
0.000 setgray
fill
grestore
stroke
grestore
} bind def
525.038 205.297 o
grestore
gsave
25.637500 199.226563 translate
0.000000 rotate
0.000000 0.000000 m /zero glyphshow
13.997070 0.000000 m /period glyphshow
20.990234 0.000000 m /zero glyphshow
34.987305 0.000000 m /five glyphshow
grestore
[1 3] 0 setdash
gsave
446.4 345.6 78.64 32.5 clipbox
78.6375 262.896875 m
525.0375 262.896875 l
stroke
grestore
[] 0 setdash
gsave
/o {
gsave
newpath
translate
0.5 setlinewidth
1 setlinejoin
0 setlinecap
0 0 m
4 0 l

gsave
0.000 setgray
fill
grestore
stroke
grestore
} bind def
78.6375 262.897 o
grestore
gsave
/o {
gsave
newpath
translate
0.5 setlinewidth
1 setlinejoin
0 setlinecap
0 0 m
-4 0 l

gsave
0.000 setgray
fill
grestore
stroke
grestore
} bind def
525.038 262.897 o
grestore
gsave
25.637500 256.826563 translate
0.000000 rotate
0.000000 0.000000 m /zero glyphshow
13.997070 0.000000 m /period glyphshow
20.990234 0.000000 m /one glyphshow
34.987305 0.000000 m /zero glyphshow
grestore
[1 3] 0 setdash
gsave
446.4 345.6 78.64 32.5 clipbox
78.6375 320.496875 m
525.0375 320.496875 l
stroke
grestore
[] 0 setdash
gsave
/o {
gsave
newpath
translate
0.5 setlinewidth
1 setlinejoin
0 setlinecap
0 0 m
4 0 l

gsave
0.000 setgray
fill
grestore
stroke
grestore
} bind def
78.6375 320.497 o
grestore
gsave
/o {
gsave
newpath
translate
0.5 setlinewidth
1 setlinejoin
0 setlinecap
0 0 m
-4 0 l

gsave
0.000 setgray
fill
grestore
stroke
grestore
} bind def
525.038 320.497 o
grestore
gsave
25.637500 314.426562 translate
0.000000 rotate
0.000000 0.000000 m /zero glyphshow
13.997070 0.000000 m /period glyphshow
20.990234 0.000000 m /one glyphshow
34.987305 0.000000 m /five glyphshow
grestore
gsave
25.637500 372.026563 translate
0.000000 rotate
0.000000 0.000000 m /zero glyphshow
13.997070 0.000000 m /period glyphshow
20.990234 0.000000 m /two glyphshow
34.987305 0.000000 m /zero glyphshow
grestore
3.000 setlinewidth
2 setlinecap
0.000 0.000 1.000 setrgbcolor
gsave
299.949375 343.826875 m
336.909375 343.826875 l
stroke
grestore
0.000 setgray
/BitstreamVeraSans-Roman findfont
26.400 scalefont
setfont
gsave
365.949375 334.586875 translate
0.000000 rotate
0.000000 0.000000 m /x glyphshow
15.608643 0.000000 m /hyphen glyphshow
25.125793 0.000000 m /n glyphshow
41.841980 0.000000 m /u glyphshow
58.558167 0.000000 m /l glyphshow
65.885986 0.000000 m /l glyphshow
73.213806 0.000000 m /c glyphshow
87.714905 0.000000 m /l glyphshow
95.042725 0.000000 m /i glyphshow
102.370544 0.000000 m /n glyphshow
119.086731 0.000000 m /e glyphshow
grestore
0.000 0.500 0.000 setrgbcolor
gsave
299.949375 305.470625 m
336.909375 305.470625 l
stroke
grestore
0.000 setgray
gsave
365.949375 296.230625 translate
0.000000 rotate
0.000000 0.000000 m /y glyphshow
15.608643 0.000000 m /hyphen glyphshow
25.125793 0.000000 m /n glyphshow
41.841980 0.000000 m /u glyphshow
58.558167 0.000000 m /l glyphshow
65.885986 0.000000 m /l glyphshow
73.213806 0.000000 m /c glyphshow
87.714905 0.000000 m /l glyphshow
95.042725 0.000000 m /i glyphshow
102.370544 0.000000 m /n glyphshow
119.086731 0.000000 m /e glyphshow
grestore

end
showpage
