\relax 
\citation{*}
\bibstyle{plain}
\bibdata{sample}
\bibcite{bialonski2015}{1}
\bibcite{chakraborty2014harmful}{2}
\bibcite{dong2009circulation}{3}
\bibcite{mitarai2009quantifying}{4}
\@writefile{lof}{\contentsline {figure}{\numberline {1}{\ignorespaces \color  {Green} The occurrence of a HAB in nature (top left). Studies on the coasts of Southern California (top centre) have shown the existence of complex flow patterns of the ocean currents (top right) [Image Courtesy: Dong et. al.] which lead to various time delays along the coasts (bottom left)) [Image Courtesy: Mitarai et. al.]. These flows form networks through which nutrients and plankton might be carried (bottom centre and bottom right)[Image Courtesy: Bialonski et. al.].\relax }}{1}}
\@writefile{lof}{\contentsline {figure}{\numberline {2}{\ignorespaces \color  {Green} Decomposing the network\relax }}{1}}
\@writefile{lof}{\contentsline {figure}{\numberline {3}{\ignorespaces \color  {Green} Without Seasonal Forcing on Nutrients\relax }}{1}}
\@writefile{lof}{\contentsline {figure}{\numberline {4}{\ignorespaces \color  {Green} With Seasonal Forcing on Nutrients\relax }}{1}}
\@writefile{lof}{\contentsline {figure}{\numberline {5}{\ignorespaces \color  {Green} The left part shows the bifurcation plot for $\tau $. As $\tau $ increases, the oscillator system enters a bistable region via a reverse Hopf bifurcation and then an amplitude death occurs in a fold bifurcation of limit cycles. The right part of the figure shows the corresponding time series for the three states.\relax }}{1}}
\@writefile{lof}{\contentsline {figure}{\numberline {6}{\ignorespaces \color  {Green} The left part shows phase space trajectories of the nodes for varying rates of flow between the nodes showing the two distinct sets of limit cycles. The right part shows the corresponding temporal dynamics.\relax }}{1}}
\@writefile{lof}{\contentsline {figure}{\numberline {7}{\ignorespaces \color  {Green} The temporal dynamics of a single node (left) and the same node when connected to the network (right).\relax }}{1}}
\@writefile{lof}{\contentsline {figure}{\numberline {8}{\ignorespaces \color  {Green} Glimpses of the future\relax }}{1}}
