%!PS-Adobe-3.0 EPSF-3.0
%%Creator: (MATLAB, The Mathworks, Inc. Version 9.0.0.341360 \(R2016a\). Operating System: Linux)
%%Title: /home/arindam/Dropbox/PhD/FHN/TwoTypes.eps
%%CreationDate: 2016-06-07T02:13:44
%%Pages: (atend)
%%BoundingBox: 0 0 1436 730
%%LanguageLevel: 3
%%EndComments
%%BeginProlog
%%BeginResource: procset (Apache XML Graphics Std ProcSet) 1.2 0
%%Version: 1.2 0
%%Copyright: (Copyright 2001-2003,2010 The Apache Software Foundation. License terms: http://www.apache.org/licenses/LICENSE-2.0)
/bd{bind def}bind def
/ld{load def}bd
/GR/grestore ld
/M/moveto ld
/LJ/setlinejoin ld
/C/curveto ld
/f/fill ld
/LW/setlinewidth ld
/GC/setgray ld
/t/show ld
/N/newpath ld
/CT/concat ld
/cp/closepath ld
/S/stroke ld
/L/lineto ld
/CC/setcmykcolor ld
/A/ashow ld
/GS/gsave ld
/RC/setrgbcolor ld
/RM/rmoveto ld
/ML/setmiterlimit ld
/re {4 2 roll M
1 index 0 rlineto
0 exch rlineto
neg 0 rlineto
cp } bd
/_ctm matrix def
/_tm matrix def
/BT { _ctm currentmatrix pop matrix _tm copy pop 0 0 moveto } bd
/ET { _ctm setmatrix } bd
/iTm { _ctm setmatrix _tm concat } bd
/Tm { _tm astore pop iTm 0 0 moveto } bd
/ux 0.0 def
/uy 0.0 def
/F {
  /Tp exch def
  /Tf exch def
  Tf findfont Tp scalefont setfont
  /cf Tf def  /cs Tp def
} bd
/ULS {currentpoint /uy exch def /ux exch def} bd
/ULE {
  /Tcx currentpoint pop def
  gsave
  newpath
  cf findfont cs scalefont dup
  /FontMatrix get 0 get /Ts exch def /FontInfo get dup
  /UnderlinePosition get Ts mul /To exch def
  /UnderlineThickness get Ts mul /Tt exch def
  ux uy To add moveto  Tcx uy To add lineto
  Tt setlinewidth stroke
  grestore
} bd
/OLE {
  /Tcx currentpoint pop def
  gsave
  newpath
  cf findfont cs scalefont dup
  /FontMatrix get 0 get /Ts exch def /FontInfo get dup
  /UnderlinePosition get Ts mul /To exch def
  /UnderlineThickness get Ts mul /Tt exch def
  ux uy To add cs add moveto Tcx uy To add cs add lineto
  Tt setlinewidth stroke
  grestore
} bd
/SOE {
  /Tcx currentpoint pop def
  gsave
  newpath
  cf findfont cs scalefont dup
  /FontMatrix get 0 get /Ts exch def /FontInfo get dup
  /UnderlinePosition get Ts mul /To exch def
  /UnderlineThickness get Ts mul /Tt exch def
  ux uy To add cs 10 mul 26 idiv add moveto Tcx uy To add cs 10 mul 26 idiv add lineto
  Tt setlinewidth stroke
  grestore
} bd
/QT {
/Y22 exch store
/X22 exch store
/Y21 exch store
/X21 exch store
currentpoint
/Y21 load 2 mul add 3 div exch
/X21 load 2 mul add 3 div exch
/X21 load 2 mul /X22 load add 3 div
/Y21 load 2 mul /Y22 load add 3 div
/X22 load /Y22 load curveto
} bd
/SSPD {
dup length /d exch dict def
{
/v exch def
/k exch def
currentpagedevice k known {
/cpdv currentpagedevice k get def
v cpdv ne {
/upd false def
/nullv v type /nulltype eq def
/nullcpdv cpdv type /nulltype eq def
nullv nullcpdv or
{
/upd true def
} {
/sametype v type cpdv type eq def
sametype {
v type /arraytype eq {
/vlen v length def
/cpdvlen cpdv length def
vlen cpdvlen eq {
0 1 vlen 1 sub {
/i exch def
/obj v i get def
/cpdobj cpdv i get def
obj cpdobj ne {
/upd true def
exit
} if
} for
} {
/upd true def
} ifelse
} {
v type /dicttype eq {
v {
/dv exch def
/dk exch def
/cpddv cpdv dk get def
dv cpddv ne {
/upd true def
exit
} if
} forall
} {
/upd true def
} ifelse
} ifelse
} if
} ifelse
upd true eq {
d k v put
} if
} if
} if
} forall
d length 0 gt {
d setpagedevice
} if
} bd
%%EndResource
%%BeginResource: procset (Apache XML Graphics EPS ProcSet) 1.0 0
%%Version: 1.0 0
%%Copyright: (Copyright 2002-2003 The Apache Software Foundation. License terms: http://www.apache.org/licenses/LICENSE-2.0)
/BeginEPSF { %def
/b4_Inc_state save def         % Save state for cleanup
/dict_count countdictstack def % Count objects on dict stack
/op_count count 1 sub def      % Count objects on operand stack
userdict begin                 % Push userdict on dict stack
/showpage { } def              % Redefine showpage, { } = null proc
0 setgray 0 setlinecap         % Prepare graphics state
1 setlinewidth 0 setlinejoin
10 setmiterlimit [ ] 0 setdash newpath
/languagelevel where           % If level not equal to 1 then
{pop languagelevel             % set strokeadjust and
1 ne                           % overprint to their defaults.
{false setstrokeadjust false setoverprint
} if
} if
} bd
/EndEPSF { %def
count op_count sub {pop} repeat            % Clean up stacks
countdictstack dict_count sub {end} repeat
b4_Inc_state restore
} bd
%%EndResource
%FOPBeginFontDict
%%IncludeResource: font Courier-Bold
%%IncludeResource: font Helvetica
%%IncludeResource: font Courier-BoldOblique
%%IncludeResource: font Courier-Oblique
%%IncludeResource: font Times-Roman
%%IncludeResource: font Helvetica-BoldOblique
%%IncludeResource: font Helvetica-Bold
%%IncludeResource: font Helvetica-Oblique
%%IncludeResource: font Times-BoldItalic
%%IncludeResource: font Courier
%%IncludeResource: font Times-Italic
%%IncludeResource: font Times-Bold
%%IncludeResource: font Symbol
%%IncludeResource: font ZapfDingbats
%FOPEndFontDict
%%BeginResource: encoding WinAnsiEncoding
/WinAnsiEncoding [
/.notdef /.notdef /.notdef /.notdef /.notdef
/.notdef /.notdef /.notdef /.notdef /.notdef
/.notdef /.notdef /.notdef /.notdef /.notdef
/.notdef /.notdef /.notdef /.notdef /.notdef
/.notdef /.notdef /.notdef /.notdef /.notdef
/.notdef /.notdef /.notdef /.notdef /.notdef
/.notdef /.notdef /space /exclam /quotedbl
/numbersign /dollar /percent /ampersand /quotesingle
/parenleft /parenright /asterisk /plus /comma
/hyphen /period /slash /zero /one
/two /three /four /five /six
/seven /eight /nine /colon /semicolon
/less /equal /greater /question /at
/A /B /C /D /E
/F /G /H /I /J
/K /L /M /N /O
/P /Q /R /S /T
/U /V /W /X /Y
/Z /bracketleft /backslash /bracketright /asciicircum
/underscore /quoteleft /a /b /c
/d /e /f /g /h
/i /j /k /l /m
/n /o /p /q /r
/s /t /u /v /w
/x /y /z /braceleft /bar
/braceright /asciitilde /bullet /Euro /bullet
/quotesinglbase /florin /quotedblbase /ellipsis /dagger
/daggerdbl /circumflex /perthousand /Scaron /guilsinglleft
/OE /bullet /Zcaron /bullet /bullet
/quoteleft /quoteright /quotedblleft /quotedblright /bullet
/endash /emdash /asciitilde /trademark /scaron
/guilsinglright /oe /bullet /zcaron /Ydieresis
/space /exclamdown /cent /sterling /currency
/yen /brokenbar /section /dieresis /copyright
/ordfeminine /guillemotleft /logicalnot /sfthyphen /registered
/macron /degree /plusminus /twosuperior /threesuperior
/acute /mu /paragraph /middot /cedilla
/onesuperior /ordmasculine /guillemotright /onequarter /onehalf
/threequarters /questiondown /Agrave /Aacute /Acircumflex
/Atilde /Adieresis /Aring /AE /Ccedilla
/Egrave /Eacute /Ecircumflex /Edieresis /Igrave
/Iacute /Icircumflex /Idieresis /Eth /Ntilde
/Ograve /Oacute /Ocircumflex /Otilde /Odieresis
/multiply /Oslash /Ugrave /Uacute /Ucircumflex
/Udieresis /Yacute /Thorn /germandbls /agrave
/aacute /acircumflex /atilde /adieresis /aring
/ae /ccedilla /egrave /eacute /ecircumflex
/edieresis /igrave /iacute /icircumflex /idieresis
/eth /ntilde /ograve /oacute /ocircumflex
/otilde /odieresis /divide /oslash /ugrave
/uacute /ucircumflex /udieresis /yacute /thorn
/ydieresis
] def
%%EndResource
%FOPBeginFontReencode
/Courier-Bold findfont
dup length dict begin
  {1 index /FID ne {def} {pop pop} ifelse} forall
  /Encoding WinAnsiEncoding def
  currentdict
end
/Courier-Bold exch definefont pop
/Helvetica findfont
dup length dict begin
  {1 index /FID ne {def} {pop pop} ifelse} forall
  /Encoding WinAnsiEncoding def
  currentdict
end
/Helvetica exch definefont pop
/Courier-BoldOblique findfont
dup length dict begin
  {1 index /FID ne {def} {pop pop} ifelse} forall
  /Encoding WinAnsiEncoding def
  currentdict
end
/Courier-BoldOblique exch definefont pop
/Courier-Oblique findfont
dup length dict begin
  {1 index /FID ne {def} {pop pop} ifelse} forall
  /Encoding WinAnsiEncoding def
  currentdict
end
/Courier-Oblique exch definefont pop
/Times-Roman findfont
dup length dict begin
  {1 index /FID ne {def} {pop pop} ifelse} forall
  /Encoding WinAnsiEncoding def
  currentdict
end
/Times-Roman exch definefont pop
/Helvetica-BoldOblique findfont
dup length dict begin
  {1 index /FID ne {def} {pop pop} ifelse} forall
  /Encoding WinAnsiEncoding def
  currentdict
end
/Helvetica-BoldOblique exch definefont pop
/Helvetica-Bold findfont
dup length dict begin
  {1 index /FID ne {def} {pop pop} ifelse} forall
  /Encoding WinAnsiEncoding def
  currentdict
end
/Helvetica-Bold exch definefont pop
/Helvetica-Oblique findfont
dup length dict begin
  {1 index /FID ne {def} {pop pop} ifelse} forall
  /Encoding WinAnsiEncoding def
  currentdict
end
/Helvetica-Oblique exch definefont pop
/Times-BoldItalic findfont
dup length dict begin
  {1 index /FID ne {def} {pop pop} ifelse} forall
  /Encoding WinAnsiEncoding def
  currentdict
end
/Times-BoldItalic exch definefont pop
/Courier findfont
dup length dict begin
  {1 index /FID ne {def} {pop pop} ifelse} forall
  /Encoding WinAnsiEncoding def
  currentdict
end
/Courier exch definefont pop
/Times-Italic findfont
dup length dict begin
  {1 index /FID ne {def} {pop pop} ifelse} forall
  /Encoding WinAnsiEncoding def
  currentdict
end
/Times-Italic exch definefont pop
/Times-Bold findfont
dup length dict begin
  {1 index /FID ne {def} {pop pop} ifelse} forall
  /Encoding WinAnsiEncoding def
  currentdict
end
/Times-Bold exch definefont pop
%FOPEndFontReencode
%%EndProlog
%%Page: 1 1
%%PageBoundingBox: 0 0 1436 730
%%BeginPageSetup
[1 0 0 -1 0 730] CT
%%EndPageSetup
GS
[0.75 0 0 0.75 0 0.25] CT
N
0 0 M
1914 0 L
1914 973 L
0 973 L
0 0 L
cp
clip
1 GC
N
0 0 1914 973 re
f
GR
GS
[0.75 0 0 0.75 0 0.25] CT
1 GC
N
0 0 1914 973 re
f
GR
GS
[0.75 0 0 0.75 0 0.25] CT
1 GC
N
249 866 M
889 866 L
889 73 L
249 73 L
cp
f
GR
GS
[0.75 0 0 0.75 0 0.25] CT
0.149 GC
2 setlinecap
1 LJ
0.667 LW
N
249 866 M
889 866 L
S
GR
GS
[0.75 0 0 0.75 0 0.25] CT
0.149 GC
2 setlinecap
1 LJ
0.667 LW
N
249 73 M
889 73 L
S
GR
GS
[0.75 0 0 0.75 0 0.25] CT
0.149 GC
2 setlinecap
1 LJ
0.667 LW
N
249 866 M
249 858.07 L
S
GR
GS
[0.75 0 0 0.75 0 0.25] CT
0.149 GC
2 setlinecap
1 LJ
0.667 LW
N
377 866 M
377 858.07 L
S
GR
GS
[0.75 0 0 0.75 0 0.25] CT
0.149 GC
2 setlinecap
1 LJ
0.667 LW
N
505 866 M
505 858.07 L
S
GR
GS
[0.75 0 0 0.75 0 0.25] CT
0.149 GC
2 setlinecap
1 LJ
0.667 LW
N
633 866 M
633 858.07 L
S
GR
GS
[0.75 0 0 0.75 0 0.25] CT
0.149 GC
2 setlinecap
1 LJ
0.667 LW
N
761 866 M
761 858.07 L
S
GR
GS
[0.75 0 0 0.75 0 0.25] CT
0.149 GC
2 setlinecap
1 LJ
0.667 LW
N
889 866 M
889 858.07 L
S
GR
GS
[0.75 0 0 0.75 0 0.25] CT
0.149 GC
2 setlinecap
1 LJ
0.667 LW
N
249 73 M
249 80.93 L
S
GR
GS
[0.75 0 0 0.75 0 0.25] CT
0.149 GC
2 setlinecap
1 LJ
0.667 LW
N
377 73 M
377 80.93 L
S
GR
GS
[0.75 0 0 0.75 0 0.25] CT
0.149 GC
2 setlinecap
1 LJ
0.667 LW
N
505 73 M
505 80.93 L
S
GR
GS
[0.75 0 0 0.75 0 0.25] CT
0.149 GC
2 setlinecap
1 LJ
0.667 LW
N
633 73 M
633 80.93 L
S
GR
GS
[0.75 0 0 0.75 0 0.25] CT
0.149 GC
2 setlinecap
1 LJ
0.667 LW
N
761 73 M
761 80.93 L
S
GR
GS
[0.75 0 0 0.75 0 0.25] CT
0.149 GC
2 setlinecap
1 LJ
0.667 LW
N
889 73 M
889 80.93 L
S
GR
GS
[0.75 0 0 0.75 186.75 655.75] CT
0.149 GC
/Helvetica 26.667 F
GS
[1 0 0 1 0 0] CT
-9 26 moveto 
1 -1 scale
(0) t 
GR
GR
GS
[0.75 0 0 0.75 282.75 655.75] CT
0.149 GC
/Helvetica 26.667 F
GS
[1 0 0 1 0 0] CT
-26 26 moveto 
1 -1 scale
(200) t 
GR
GR
GS
[0.75 0 0 0.75 378.75 655.75] CT
0.149 GC
/Helvetica 26.667 F
GS
[1 0 0 1 0 0] CT
-26 26 moveto 
1 -1 scale
(400) t 
GR
GR
GS
[0.75 0 0 0.75 474.75 655.75] CT
0.149 GC
/Helvetica 26.667 F
GS
[1 0 0 1 0 0] CT
-26 26 moveto 
1 -1 scale
(600) t 
GR
GR
GS
[0.75 0 0 0.75 570.75 655.75] CT
0.149 GC
/Helvetica 26.667 F
GS
[1 0 0 1 0 0] CT
-26 26 moveto 
1 -1 scale
(800) t 
GR
GR
GS
[0.75 0 0 0.75 666.75 655.75] CT
0.149 GC
/Helvetica 26.667 F
GS
[1 0 0 1 0 0] CT
-34.5 26 moveto 
1 -1 scale
(1000) t 
GR
GR
GS
[0.75 0 0 0.75 426.75023 681.49998] CT
0.149 GC
/Helvetica 29.333 F
GS
[1 0 0 1 0 0] CT
-33 27 moveto 
1 -1 scale
(time) t 
GR
GR
GS
[0.75 0 0 0.75 0 0.25] CT
0.149 GC
2 setlinecap
1 LJ
0.667 LW
N
249 866 M
249 73 L
S
GR
GS
[0.75 0 0 0.75 0 0.25] CT
0.149 GC
2 setlinecap
1 LJ
0.667 LW
N
889 866 M
889 73 L
S
GR
GS
[0.75 0 0 0.75 0 0.25] CT
0.149 GC
2 setlinecap
1 LJ
0.667 LW
N
249 866 M
256.93 866 L
S
GR
GS
[0.75 0 0 0.75 0 0.25] CT
0.149 GC
2 setlinecap
1 LJ
0.667 LW
N
249 777.889 M
256.93 777.889 L
S
GR
GS
[0.75 0 0 0.75 0 0.25] CT
0.149 GC
2 setlinecap
1 LJ
0.667 LW
N
249 689.778 M
256.93 689.778 L
S
GR
GS
[0.75 0 0 0.75 0 0.25] CT
0.149 GC
2 setlinecap
1 LJ
0.667 LW
N
249 601.667 M
256.93 601.667 L
S
GR
GS
[0.75 0 0 0.75 0 0.25] CT
0.149 GC
2 setlinecap
1 LJ
0.667 LW
N
249 513.556 M
256.93 513.556 L
S
GR
GS
[0.75 0 0 0.75 0 0.25] CT
0.149 GC
2 setlinecap
1 LJ
0.667 LW
N
249 425.444 M
256.93 425.444 L
S
GR
GS
[0.75 0 0 0.75 0 0.25] CT
0.149 GC
2 setlinecap
1 LJ
0.667 LW
N
249 337.333 M
256.93 337.333 L
S
GR
GS
[0.75 0 0 0.75 0 0.25] CT
0.149 GC
2 setlinecap
1 LJ
0.667 LW
N
249 249.222 M
256.93 249.222 L
S
GR
GS
[0.75 0 0 0.75 0 0.25] CT
0.149 GC
2 setlinecap
1 LJ
0.667 LW
N
249 161.111 M
256.93 161.111 L
S
GR
GS
[0.75 0 0 0.75 0 0.25] CT
0.149 GC
2 setlinecap
1 LJ
0.667 LW
N
249 73 M
256.93 73 L
S
GR
GS
[0.75 0 0 0.75 0 0.25] CT
0.149 GC
2 setlinecap
1 LJ
0.667 LW
N
889 866 M
881.07 866 L
S
GR
GS
[0.75 0 0 0.75 0 0.25] CT
0.149 GC
2 setlinecap
1 LJ
0.667 LW
N
889 777.889 M
881.07 777.889 L
S
GR
GS
[0.75 0 0 0.75 0 0.25] CT
0.149 GC
2 setlinecap
1 LJ
0.667 LW
N
889 689.778 M
881.07 689.778 L
S
GR
GS
[0.75 0 0 0.75 0 0.25] CT
0.149 GC
2 setlinecap
1 LJ
0.667 LW
N
889 601.667 M
881.07 601.667 L
S
GR
GS
[0.75 0 0 0.75 0 0.25] CT
0.149 GC
2 setlinecap
1 LJ
0.667 LW
N
889 513.556 M
881.07 513.556 L
S
GR
GS
[0.75 0 0 0.75 0 0.25] CT
0.149 GC
2 setlinecap
1 LJ
0.667 LW
N
889 425.444 M
881.07 425.444 L
S
GR
GS
[0.75 0 0 0.75 0 0.25] CT
0.149 GC
2 setlinecap
1 LJ
0.667 LW
N
889 337.333 M
881.07 337.333 L
S
GR
GS
[0.75 0 0 0.75 0 0.25] CT
0.149 GC
2 setlinecap
1 LJ
0.667 LW
N
889 249.222 M
881.07 249.222 L
S
GR
GS
[0.75 0 0 0.75 0 0.25] CT
0.149 GC
2 setlinecap
1 LJ
0.667 LW
N
889 161.111 M
881.07 161.111 L
S
GR
GS
[0.75 0 0 0.75 0 0.25] CT
0.149 GC
2 setlinecap
1 LJ
0.667 LW
N
889 73 M
881.07 73 L
S
GR
GS
[0.75 0 0 0.75 180.75 649.75] CT
0.149 GC
/Helvetica 26.667 F
GS
[1 0 0 1 0 0] CT
-53 9.5 moveto 
1 -1 scale
(-0.8) t 
GR
GR
GS
[0.75 0 0 0.75 180.75 583.66669] CT
0.149 GC
/Helvetica 26.667 F
GS
[1 0 0 1 0 0] CT
-53 9.5 moveto 
1 -1 scale
(-0.6) t 
GR
GR
GS
[0.75 0 0 0.75 180.75 517.58333] CT
0.149 GC
/Helvetica 26.667 F
GS
[1 0 0 1 0 0] CT
-53 9.5 moveto 
1 -1 scale
(-0.4) t 
GR
GR
GS
[0.75 0 0 0.75 180.75 451.50002] CT
0.149 GC
/Helvetica 26.667 F
GS
[1 0 0 1 0 0] CT
-53 9.5 moveto 
1 -1 scale
(-0.2) t 
GR
GR
GS
[0.75 0 0 0.75 180.75 385.41666] CT
0.149 GC
/Helvetica 26.667 F
GS
[1 0 0 1 0 0] CT
-18 9.5 moveto 
1 -1 scale
(0) t 
GR
GR
GS
[0.75 0 0 0.75 180.75 319.33334] CT
0.149 GC
/Helvetica 26.667 F
GS
[1 0 0 1 0 0] CT
-43 9.5 moveto 
1 -1 scale
(0.2) t 
GR
GR
GS
[0.75 0 0 0.75 180.75 253.25001] CT
0.149 GC
/Helvetica 26.667 F
GS
[1 0 0 1 0 0] CT
-43 9.5 moveto 
1 -1 scale
(0.4) t 
GR
GR
GS
[0.75 0 0 0.75 180.75 187.16666] CT
0.149 GC
/Helvetica 26.667 F
GS
[1 0 0 1 0 0] CT
-43 9.5 moveto 
1 -1 scale
(0.6) t 
GR
GR
GS
[0.75 0 0 0.75 180.75 121.08332] CT
0.149 GC
/Helvetica 26.667 F
GS
[1 0 0 1 0 0] CT
-43 9.5 moveto 
1 -1 scale
(0.8) t 
GR
GR
GS
[0.75 0 0 0.75 180.75 55] CT
0.149 GC
/Helvetica 26.667 F
GS
[1 0 0 1 0 0] CT
-18 9.5 moveto 
1 -1 scale
(1) t 
GR
GR
GS
[0 -0.75 0.75 0 138 352.37473] CT
0.149 GC
/Helvetica 29.333 F
GS
[1 0 0 1 0 0] CT
-22 -7 moveto 
1 -1 scale
(x,y) t 
GR
GR
GS
[0.75 0 0 0.75 426.75041 50.87502] CT
/Helvetica-Bold 29.333 F
GS
[1 0 0 1 0 0] CT
-88 -7 moveto 
1 -1 scale
(Oscillatory) t 
GR
GR
GS
[0.75 0 0 0.75 0 0.25] CT
0 0.447 0.741 RC
1 LJ
2.667 LW
N
249 91.721 M
249.009 97.119 L
249.051 123.296 L
249.118 162.053 L
249.184 199.425 L
249.254 238.5 L
249.338 285.124 L
249.436 341.766 L
249.562 418.347 L
249.679 493.753 L
249.754 542.37 L
249.829 590.193 L
249.908 638.222 L
250 688.597 L
250.113 738.787 L
250.278 788.633 L
250.446 815.986 L
250.614 828.836 L
250.873 836.162 L
251.195 836.919 L
251.58 835.075 L
252.473 830.398 L
253.159 827.151 L
253.845 823.131 L
254.475 820.89 L
254.987 817.453 L
255.506 815.378 L
256.127 811.905 L
256.828 809.068 L
257.45 805.226 L
258.016 803.154 L
258.61 799.822 L
259.305 796.963 L
260.001 793.03 L
260.659 790.58 L
261.29 787.054 L
261.978 784.31 L
262.703 780.45 L
263.45 777.58 L
264.155 773.776 L
264.877 770.998 L
265.626 767.165 L
266.436 764.026 L
267.222 760.007 L
268.019 757.001 L
268.814 753.063 L
269.68 749.754 L
270.539 745.59 L
271.434 742.245 L
272.306 738.104 L
273.245 734.593 L
274.178 730.293 L
275.186 726.575 L
276.156 722.188 L
277.204 718.363 L
278.229 713.874 L
279.368 709.753 L
280.456 705.102 L
281.658 700.822 L
282.805 696.067 L
284.12 691.443 L
285.348 686.496 L
286.771 681.584 L
288.075 676.491 L
289.338 672.135 L
290.6 667.542 L
292.224 661.917 L
293.848 656.209 L
295.513 650.589 L
297.179 644.943 L
298.69 639.946 L
300.2 635.006 L
302.696 627.154 L
304.722 620.596 L
306.538 615.015 L
308.354 609.481 L
310.952 601.816 L
313.243 595.048 L
315.886 587.508 L
318.381 580.484 L
321.05 573.153 L
323.753 565.869 L
326.574 558.424 L
329.387 551.135 L
331.387 546.011 L
332.2 543.943 L
333.665 540.246 L
335.741 535.059 L
338.209 528.951 L
340.004 524.522 L
341.8 520.094 L
345.048 512.014 L
348.224 503.857 L
351.4 495.071 L
353.689 487.917 L
355.311 482.053 L
356.933 475.044 L
358.549 466.105 L
359.974 455.331 L
361.166 442.577 L
362.17 427.172 L
363.032 408.179 L
363.792 384.268 L
364.488 353.245 L
365.176 310.607 L
365.793 261.051 L
366.41 205.428 L
366.92 163.165 L
367.462 129.794 L
368.288 102.944 L
369.034 95.779 L
369.78 95.299 L
370.963 98.493 L
372.147 103.437 L
373.8 110.441 L
376.73 122.594 L
379.237 134.065 L
381.648 144.605 L
383.4 152.733 L
386.99 169.461 L
389.995 185.643 L
393 204.234 L
395.929 227.436 L
397.769 247.557 L
399.155 268.875 L
400.19 291.493 L
401.007 316.764 L
401.804 352.125 L
402.202 375.836 L
402.6 404.87 L
403.221 462.2 L
403.494 491.584 L
403.658 509.878 L
403.823 528.267 L
403.98 545.653 L
404.181 566.811 L
404.424 589.988 L
404.728 613.921 L
405.176 638.411 L
405.841 656.418 L
406.323 660.668 L
406.805 661.784 L
407.698 660.769 L
408.771 657.432 L
410.358 652.039 L
412.507 644.837 L
414.758 637.37 L
416.837 630.662 L
418.916 624.039 L
421.394 616.392 L
423.645 609.455 L
426.278 601.666 L
428.597 594.824 L
431.229 587.319 L
433.733 580.275 L
436.4 572.952 L
439.107 565.662 L
441.93 558.215 L
444.867 550.62 L
446.82 545.616 L
448.774 540.676 L
450.721 535.805 L
453.154 529.772 L
455.875 523.066 L
458.818 515.791 L
461.924 507.97 L
465.095 499.576 L
468.268 490.222 L
469.858 484.818 L
471.448 478.541 L
473.026 470.878 L
474.576 460.93 L
475.88 449.227 L
476.972 435.245 L
477.9 418.179 L
478.706 396.927 L
479.428 369.82 L
480.112 333.774 L
480.839 281.23 L
481.368 234.873 L
481.897 187.62 L
482.402 149.304 L
483.004 118.658 L
484.028 96.05 L
484.93 94.504 L
486.534 98.902 L
487.908 105.478 L
490.187 114.989 L
492.466 125.011 L
494.964 135.777 L
497.462 147.028 L
500.645 161.658 L
503.675 176.973 L
507.03 196.043 L
510.648 222.312 L
512.605 241.961 L
514.127 263.268 L
515.231 285.303 L
516.099 309.795 L
516.967 345.474 L
517.674 388.314 L
518.285 439.523 L
518.51 461.917 L
518.734 485.882 L
518.914 505.882 L
519.095 526.094 L
519.245 542.745 L
519.44 563.453 L
519.676 586.421 L
519.969 610.294 L
520.381 634.589 L
521.079 655.765 L
521.639 660.915 L
522.198 661.887 L
523.291 660.173 L
524.223 656.885 L
525.797 651.528 L
527.371 646.204 L
529.302 639.846 L
531.232 633.512 L
533.287 626.965 L
535.342 620.48 L
537.85 612.825 L
540.106 605.942 L
542.738 598.224 L
545.099 591.34 L
547.724 583.917 L
550.279 576.808 L
552.972 569.483 L
555.729 562.131 L
558.605 554.618 L
561.5 547.189 L
563.316 542.573 L
565.132 538.007 L
567.397 532.369 L
570.007 525.925 L
572.866 518.875 L
575.91 511.288 L
579.148 502.926 L
582.507 493.48 L
584.523 487.023 L
586.119 481.118 L
587.714 474.021 L
589.329 464.744 L
590.721 453.723 L
591.884 440.654 L
592.867 424.823 L
593.713 405.253 L
594.461 380.536 L
595.153 348.282 L
595.846 303.411 L
596.43 255.353 L
597.013 202.66 L
597.52 161.116 L
598.069 128.141 L
598.932 101.556 L
599.787 94.939 L
600.643 95.698 L
601.965 100.146 L
603.287 105.843 L
605.473 115.034 L
607.658 124.569 L
610.241 135.702 L
612.825 147.35 L
615.997 161.974 L
619.042 177.385 L
622.4 196.548 L
626.025 223.081 L
627.951 242.647 L
629.458 263.995 L
630.553 286.084 L
631.414 310.669 L
632.275 346.448 L
632.978 389.407 L
633.589 440.927 L
633.828 464.941 L
634.067 490.665 L
634.229 508.77 L
634.392 526.992 L
634.545 543.939 L
634.742 564.837 L
634.982 587.895 L
635.278 611.795 L
635.704 636.158 L
636.382 655.891 L
637.128 661.946 L
637.873 661.699 L
638.916 658.913 L
639.959 655.338 L
641.711 649.44 L
643.464 643.517 L
645.293 637.528 L
647.122 631.574 L
649.652 623.662 L
651.75 616.976 L
653.747 610.901 L
655.743 604.89 L
658.318 597.366 L
660.693 590.467 L
663.309 583.084 L
665.88 575.952 L
668.579 568.627 L
671.35 561.257 L
674.239 553.726 L
677.078 546.451 L
679.354 540.691 L
681.252 535.937 L
683.684 529.906 L
686.397 523.215 L
689.336 515.95 L
692.439 508.14 L
695.588 499.82 L
698.765 490.489 L
700.342 485.165 L
701.918 479.008 L
703.484 471.535 L
705.052 461.696 L
706.373 450.129 L
707.478 436.334 L
708.416 419.522 L
709.229 398.618 L
709.956 372.009 L
710.641 336.772 L
711.358 285.988 L
711.894 239.527 L
712.43 191.399 L
712.935 152.279 L
713.52 121.044 L
714.52 96.953 L
715.448 94.42 L
716.884 98.26 L
718.315 104.753 L
720.687 114.602 L
723.059 125.105 L
725.435 135.335 L
727.811 146.011 L
731.013 160.63 L
734.01 175.704 L
737.355 194.481 L
740.951 219.956 L
743.005 239.889 L
744.571 261.059 L
745.708 282.927 L
746.596 307.124 L
747.485 342.471 L
748.205 384.921 L
748.818 435.213 L
749.213 475.027 L
749.423 498.103 L
749.585 516.221 L
749.747 534.303 L
749.922 553.365 L
750.138 575.476 L
750.401 599.056 L
750.742 623.104 L
751.357 649.13 L
751.875 658.191 L
752.394 661.337 L
753.216 661.56 L
754.259 658.731 L
755.559 654.296 L
757.777 646.908 L
759.761 640.121 L
761.824 633.582 L
763.887 626.829 L
765.646 621.326 L
767.405 615.864 L
769.974 608.159 L
772.199 601.442 L
774.877 593.691 L
777.271 586.806 L
779.919 579.407 L
782.53 572.24 L
785.273 564.875 L
788.098 557.436 L
791.052 549.813 L
792.897 545.094 L
794.742 540.431 L
796.736 535.444 L
799.189 529.365 L
801.926 522.619 L
804.881 515.311 L
807.995 507.451 L
811.221 498.867 L
814.368 489.476 L
815.984 483.873 L
817.601 477.292 L
819.201 469.153 L
820.703 458.917 L
821.964 446.849 L
823.022 432.371 L
823.924 414.635 L
824.712 392.465 L
825.424 364.025 L
826.107 325.771 L
826.866 267.869 L
827.383 221.565 L
827.899 176.545 L
828.414 140.498 L
829.084 111.611 L
829.9 97.329 L
830.716 94.959 L
831.913 97.621 L
833.11 102.629 L
835.327 111.883 L
837.544 121.594 L
839.962 131.96 L
842.381 142.756 L
845.564 157.1 L
848.514 171.664 L
851.818 189.533 L
855.336 212.718 L
857.749 233.932 L
859.444 254.636 L
860.688 276.143 L
861.641 299.548 L
862.594 334.002 L
863.357 375.468 L
863.982 423.586 L
864.353 459.28 L
864.614 487.079 L
864.79 506.586 L
864.966 526.278 L
865.117 542.991 L
865.312 563.739 L
865.549 586.726 L
865.842 610.606 L
866.257 634.914 L
866.949 655.742 L
867.505 660.885 L
868.06 661.883 L
869.139 660.22 L
870.076 656.938 L
871.694 651.445 L
873.312 645.968 L
875.213 639.705 L
877.115 633.471 L
879.689 625.396 L
881.754 618.753 L
883.609 613.076 L
885.465 607.452 L
887.233 602.176 L
889 596.984 L
S
GR
GS
[0.75 0 0 0.75 0 0.25] CT
0.851 0.325 0.098 RC
1 LJ
2.667 LW
N
249 88.469 M
249.009 88.545 L
249.051 88.936 L
249.118 89.565 L
249.184 90.219 L
249.254 90.938 L
249.338 91.823 L
249.436 92.916 L
249.562 94.396 L
249.679 95.866 L
249.754 96.843 L
249.829 97.854 L
249.908 98.96 L
250 100.296 L
250.113 101.979 L
250.278 104.518 L
250.446 107.156 L
250.614 109.813 L
250.873 113.9 L
251.195 118.965 L
251.58 124.936 L
252.473 138.497 L
253.159 148.628 L
253.845 158.522 L
254.475 167.397 L
254.987 174.477 L
255.506 181.528 L
256.127 189.78 L
256.828 198.902 L
257.45 206.801 L
258.016 213.838 L
258.61 221.077 L
259.305 229.351 L
260.001 237.441 L
260.659 244.91 L
261.29 251.906 L
261.978 259.353 L
262.703 267.015 L
263.45 274.701 L
264.155 281.766 L
264.877 288.823 L
265.626 295.943 L
266.436 303.442 L
267.222 310.5 L
268.019 317.458 L
268.814 324.205 L
269.68 331.329 L
270.539 338.176 L
271.434 345.085 L
272.306 351.599 L
273.245 358.383 L
274.178 364.894 L
275.186 371.671 L
276.156 377.963 L
277.204 384.499 L
278.229 390.65 L
279.368 397.209 L
280.456 403.21 L
281.658 409.554 L
282.805 415.337 L
284.12 421.654 L
285.348 427.267 L
286.771 433.434 L
288.075 438.791 L
289.338 443.709 L
290.6 448.381 L
292.224 454.043 L
293.848 459.334 L
295.513 464.395 L
297.179 469.108 L
298.69 473.093 L
300.2 476.82 L
302.696 482.446 L
304.722 486.56 L
306.538 489.922 L
308.354 492.999 L
310.952 496.939 L
313.243 499.996 L
315.886 503.075 L
318.381 505.58 L
321.05 507.864 L
323.753 509.799 L
326.574 511.448 L
329.387 512.752 L
331.387 513.491 L
332.2 513.75 L
333.665 514.157 L
335.741 514.612 L
338.209 514.978 L
340.004 515.134 L
341.8 515.203 L
345.048 515.119 L
348.224 514.796 L
351.4 514.244 L
353.689 513.701 L
355.311 513.234 L
356.933 512.688 L
358.549 512.044 L
359.974 511.363 L
361.166 510.678 L
362.17 509.98 L
363.032 509.249 L
363.792 508.459 L
364.488 507.559 L
365.176 506.435 L
365.793 505.159 L
366.41 503.574 L
366.92 502.029 L
367.462 500.208 L
368.288 497.247 L
369.034 494.51 L
369.78 491.808 L
370.963 487.669 L
372.147 483.727 L
373.8 478.556 L
376.73 470.309 L
379.237 464.106 L
381.648 458.847 L
383.4 455.426 L
386.99 449.428 L
389.995 445.367 L
393 442.174 L
395.929 439.922 L
397.769 439 L
399.155 438.623 L
400.19 438.58 L
401.007 438.743 L
401.804 439.137 L
402.202 439.453 L
402.6 439.87 L
403.221 440.777 L
403.494 441.294 L
403.658 441.643 L
403.823 442.02 L
403.98 442.409 L
404.181 442.941 L
404.424 443.637 L
404.728 444.571 L
405.176 446.044 L
405.841 448.33 L
406.323 450.014 L
406.805 451.685 L
407.698 454.712 L
408.771 458.213 L
410.358 463.118 L
412.507 469.248 L
414.758 475.078 L
416.837 479.967 L
418.916 484.411 L
421.394 489.169 L
423.645 493.024 L
426.278 497.01 L
428.597 500.093 L
431.229 503.147 L
433.733 505.65 L
436.4 507.922 L
439.107 509.849 L
441.93 511.49 L
444.867 512.834 L
446.82 513.543 L
448.774 514.114 L
450.721 514.555 L
453.154 514.94 L
455.875 515.166 L
458.818 515.19 L
461.924 514.986 L
465.095 514.548 L
468.268 513.881 L
469.858 513.455 L
471.448 512.957 L
473.026 512.378 L
474.576 511.704 L
475.88 511.021 L
476.972 510.331 L
477.9 509.619 L
478.706 508.862 L
479.428 508.026 L
480.112 507.035 L
480.839 505.683 L
481.368 504.448 L
481.897 502.98 L
482.402 501.377 L
483.004 499.293 L
484.028 495.581 L
484.93 492.291 L
486.534 486.698 L
487.908 482.191 L
490.187 475.315 L
492.466 469.126 L
494.964 463.091 L
497.462 457.776 L
500.645 451.986 L
503.675 447.422 L
507.03 443.404 L
510.648 440.295 L
512.605 439.191 L
514.127 438.685 L
515.231 438.572 L
516.099 438.688 L
516.967 439.058 L
517.674 439.632 L
518.285 440.408 L
518.51 440.776 L
518.734 441.194 L
518.914 441.568 L
519.095 441.977 L
519.245 442.344 L
519.44 442.855 L
519.676 443.523 L
519.969 444.412 L
520.381 445.755 L
521.079 448.146 L
521.639 450.098 L
522.198 452.034 L
523.291 455.712 L
524.223 458.727 L
525.797 463.559 L
527.371 468.075 L
529.302 473.206 L
531.232 477.916 L
533.287 482.497 L
535.342 486.661 L
537.85 491.217 L
540.106 494.862 L
542.738 498.612 L
545.099 501.554 L
547.724 504.397 L
550.279 506.768 L
552.972 508.879 L
555.729 510.668 L
558.605 512.167 L
561.5 513.336 L
563.316 513.911 L
565.132 514.371 L
567.397 514.796 L
570.007 515.095 L
572.866 515.207 L
575.91 515.1 L
579.148 514.746 L
582.507 514.128 L
584.523 513.63 L
586.119 513.16 L
587.714 512.611 L
589.329 511.952 L
590.721 511.27 L
591.884 510.584 L
592.867 509.883 L
593.713 509.146 L
594.461 508.344 L
595.153 507.423 L
595.846 506.251 L
596.43 505.008 L
597.013 503.486 L
597.52 501.939 L
598.069 500.088 L
598.932 496.984 L
599.787 493.85 L
600.643 490.773 L
601.965 486.215 L
603.287 481.905 L
605.473 475.324 L
607.658 469.377 L
610.241 463.117 L
612.825 457.63 L
615.997 451.882 L
619.042 447.315 L
622.4 443.32 L
626.025 440.236 L
627.951 439.166 L
629.458 438.677 L
630.553 438.573 L
631.414 438.695 L
632.275 439.07 L
632.978 439.648 L
633.589 440.431 L
633.828 440.827 L
634.067 441.281 L
634.229 441.625 L
634.392 441.996 L
634.545 442.372 L
634.742 442.892 L
634.982 443.572 L
635.278 444.479 L
635.704 445.872 L
636.382 448.198 L
637.128 450.793 L
637.873 453.351 L
638.916 456.814 L
639.959 460.134 L
641.711 465.39 L
643.464 470.265 L
645.293 474.968 L
647.122 479.302 L
649.652 484.727 L
651.75 488.764 L
653.747 492.241 L
655.743 495.389 L
658.318 498.995 L
660.693 501.908 L
663.309 504.692 L
665.88 507.032 L
668.579 509.105 L
671.35 510.859 L
674.239 512.324 L
677.078 513.435 L
679.354 514.114 L
681.252 514.546 L
683.684 514.933 L
686.397 515.164 L
689.336 515.192 L
692.439 514.993 L
695.588 514.564 L
698.765 513.902 L
700.342 513.483 L
701.918 512.994 L
703.484 512.427 L
705.052 511.753 L
706.373 511.071 L
707.478 510.382 L
708.416 509.672 L
709.229 508.92 L
709.956 508.091 L
710.641 507.115 L
711.358 505.806 L
711.894 504.579 L
712.43 503.113 L
712.935 501.528 L
713.52 499.514 L
714.52 495.895 L
715.448 492.505 L
716.884 487.47 L
718.315 482.736 L
720.687 475.539 L
723.059 469.088 L
725.435 463.334 L
727.811 458.235 L
731.013 452.336 L
734.01 447.754 L
737.355 443.669 L
740.951 440.484 L
743.005 439.271 L
744.571 438.714 L
745.708 438.57 L
746.596 438.666 L
747.485 439.02 L
748.205 439.582 L
748.818 440.338 L
749.213 441 L
749.423 441.418 L
749.585 441.771 L
749.747 442.153 L
749.922 442.596 L
750.138 443.187 L
750.401 443.959 L
750.742 445.034 L
751.357 447.104 L
751.875 448.908 L
752.394 450.714 L
753.216 453.529 L
754.259 456.985 L
755.559 461.092 L
757.777 467.593 L
759.761 472.904 L
761.824 477.947 L
763.887 482.542 L
765.646 486.127 L
767.405 489.425 L
769.974 493.757 L
772.199 497.083 L
774.877 500.599 L
777.271 503.331 L
779.919 505.94 L
782.53 508.124 L
785.273 510.038 L
788.098 511.643 L
791.052 512.958 L
792.897 513.61 L
794.742 514.14 L
796.736 514.584 L
799.189 514.959 L
801.926 515.174 L
804.881 515.184 L
807.995 514.965 L
811.221 514.503 L
814.368 513.823 L
815.984 513.379 L
817.601 512.86 L
819.201 512.255 L
820.703 511.578 L
821.964 510.895 L
823.022 510.202 L
823.924 509.484 L
824.712 508.717 L
825.424 507.859 L
826.107 506.826 L
826.866 505.337 L
827.383 504.066 L
827.899 502.574 L
828.414 500.897 L
829.084 498.536 L
829.9 495.555 L
830.716 492.583 L
831.913 488.363 L
833.11 484.341 L
835.327 477.436 L
837.544 471.198 L
839.962 465.109 L
842.381 459.713 L
845.564 453.605 L
848.514 448.87 L
851.818 444.581 L
855.336 441.164 L
857.749 439.543 L
859.444 438.823 L
860.688 438.581 L
861.641 438.615 L
862.594 438.919 L
863.357 439.447 L
863.982 440.153 L
864.353 440.727 L
864.614 441.212 L
864.79 441.578 L
864.966 441.977 L
865.117 442.346 L
865.312 442.859 L
865.549 443.529 L
865.842 444.422 L
866.257 445.775 L
866.949 448.144 L
867.505 450.084 L
868.06 452.007 L
869.139 455.637 L
870.076 458.674 L
871.694 463.638 L
873.312 468.27 L
875.213 473.312 L
877.115 477.947 L
879.689 483.612 L
881.754 487.693 L
883.609 491.028 L
885.465 494.073 L
887.233 496.717 L
889 499.127 L
S
GR
GS
[0.75 0 0 0.75 0 0.25] CT
1 GC
N
1092 866 M
1731 866 L
1731 73 L
1092 73 L
cp
f
GR
GS
[0.75 0 0 0.75 0 0.25] CT
0.149 GC
2 setlinecap
1 LJ
0.667 LW
N
1092 866 M
1731 866 L
S
GR
GS
[0.75 0 0 0.75 0 0.25] CT
0.149 GC
2 setlinecap
1 LJ
0.667 LW
N
1092 73 M
1731 73 L
S
GR
GS
[0.75 0 0 0.75 0 0.25] CT
0.149 GC
2 setlinecap
1 LJ
0.667 LW
N
1092 866 M
1092 858.07 L
S
GR
GS
[0.75 0 0 0.75 0 0.25] CT
0.149 GC
2 setlinecap
1 LJ
0.667 LW
N
1219.8 866 M
1219.8 858.07 L
S
GR
GS
[0.75 0 0 0.75 0 0.25] CT
0.149 GC
2 setlinecap
1 LJ
0.667 LW
N
1347.6 866 M
1347.6 858.07 L
S
GR
GS
[0.75 0 0 0.75 0 0.25] CT
0.149 GC
2 setlinecap
1 LJ
0.667 LW
N
1475.4 866 M
1475.4 858.07 L
S
GR
GS
[0.75 0 0 0.75 0 0.25] CT
0.149 GC
2 setlinecap
1 LJ
0.667 LW
N
1603.2 866 M
1603.2 858.07 L
S
GR
GS
[0.75 0 0 0.75 0 0.25] CT
0.149 GC
2 setlinecap
1 LJ
0.667 LW
N
1731 866 M
1731 858.07 L
S
GR
GS
[0.75 0 0 0.75 0 0.25] CT
0.149 GC
2 setlinecap
1 LJ
0.667 LW
N
1092 73 M
1092 80.93 L
S
GR
GS
[0.75 0 0 0.75 0 0.25] CT
0.149 GC
2 setlinecap
1 LJ
0.667 LW
N
1219.8 73 M
1219.8 80.93 L
S
GR
GS
[0.75 0 0 0.75 0 0.25] CT
0.149 GC
2 setlinecap
1 LJ
0.667 LW
N
1347.6 73 M
1347.6 80.93 L
S
GR
GS
[0.75 0 0 0.75 0 0.25] CT
0.149 GC
2 setlinecap
1 LJ
0.667 LW
N
1475.4 73 M
1475.4 80.93 L
S
GR
GS
[0.75 0 0 0.75 0 0.25] CT
0.149 GC
2 setlinecap
1 LJ
0.667 LW
N
1603.2 73 M
1603.2 80.93 L
S
GR
GS
[0.75 0 0 0.75 0 0.25] CT
0.149 GC
2 setlinecap
1 LJ
0.667 LW
N
1731 73 M
1731 80.93 L
S
GR
GS
[0.75 0 0 0.75 819 655.75] CT
0.149 GC
/Helvetica 26.667 F
GS
[1 0 0 1 0 0] CT
-9 26 moveto 
1 -1 scale
(0) t 
GR
GR
GS
[0.75 0 0 0.75 914.85004 655.75] CT
0.149 GC
/Helvetica 26.667 F
GS
[1 0 0 1 0 0] CT
-26 26 moveto 
1 -1 scale
(200) t 
GR
GR
GS
[0.75 0 0 0.75 1010.69998 655.75] CT
0.149 GC
/Helvetica 26.667 F
GS
[1 0 0 1 0 0] CT
-26 26 moveto 
1 -1 scale
(400) t 
GR
GR
GS
[0.75 0 0 0.75 1106.55002 655.75] CT
0.149 GC
/Helvetica 26.667 F
GS
[1 0 0 1 0 0] CT
-26 26 moveto 
1 -1 scale
(600) t 
GR
GR
GS
[0.75 0 0 0.75 1202.39996 655.75] CT
0.149 GC
/Helvetica 26.667 F
GS
[1 0 0 1 0 0] CT
-26 26 moveto 
1 -1 scale
(800) t 
GR
GR
GS
[0.75 0 0 0.75 1298.25 655.75] CT
0.149 GC
/Helvetica 26.667 F
GS
[1 0 0 1 0 0] CT
-34.5 26 moveto 
1 -1 scale
(1000) t 
GR
GR
GS
[0.75 0 0 0.75 1058.62527 681.49998] CT
0.149 GC
/Helvetica 29.333 F
GS
[1 0 0 1 0 0] CT
-33 27 moveto 
1 -1 scale
(time) t 
GR
GR
GS
[0.75 0 0 0.75 0 0.25] CT
0.149 GC
2 setlinecap
1 LJ
0.667 LW
N
1092 866 M
1092 73 L
S
GR
GS
[0.75 0 0 0.75 0 0.25] CT
0.149 GC
2 setlinecap
1 LJ
0.667 LW
N
1731 866 M
1731 73 L
S
GR
GS
[0.75 0 0 0.75 0 0.25] CT
0.149 GC
2 setlinecap
1 LJ
0.667 LW
N
1092 866 M
1099.93 866 L
S
GR
GS
[0.75 0 0 0.75 0 0.25] CT
0.149 GC
2 setlinecap
1 LJ
0.667 LW
N
1092 752.714 M
1099.93 752.714 L
S
GR
GS
[0.75 0 0 0.75 0 0.25] CT
0.149 GC
2 setlinecap
1 LJ
0.667 LW
N
1092 639.429 M
1099.93 639.429 L
S
GR
GS
[0.75 0 0 0.75 0 0.25] CT
0.149 GC
2 setlinecap
1 LJ
0.667 LW
N
1092 526.143 M
1099.93 526.143 L
S
GR
GS
[0.75 0 0 0.75 0 0.25] CT
0.149 GC
2 setlinecap
1 LJ
0.667 LW
N
1092 412.857 M
1099.93 412.857 L
S
GR
GS
[0.75 0 0 0.75 0 0.25] CT
0.149 GC
2 setlinecap
1 LJ
0.667 LW
N
1092 299.571 M
1099.93 299.571 L
S
GR
GS
[0.75 0 0 0.75 0 0.25] CT
0.149 GC
2 setlinecap
1 LJ
0.667 LW
N
1092 186.286 M
1099.93 186.286 L
S
GR
GS
[0.75 0 0 0.75 0 0.25] CT
0.149 GC
2 setlinecap
1 LJ
0.667 LW
N
1092 73 M
1099.93 73 L
S
GR
GS
[0.75 0 0 0.75 0 0.25] CT
0.149 GC
2 setlinecap
1 LJ
0.667 LW
N
1731 866 M
1723.07 866 L
S
GR
GS
[0.75 0 0 0.75 0 0.25] CT
0.149 GC
2 setlinecap
1 LJ
0.667 LW
N
1731 752.714 M
1723.07 752.714 L
S
GR
GS
[0.75 0 0 0.75 0 0.25] CT
0.149 GC
2 setlinecap
1 LJ
0.667 LW
N
1731 639.429 M
1723.07 639.429 L
S
GR
GS
[0.75 0 0 0.75 0 0.25] CT
0.149 GC
2 setlinecap
1 LJ
0.667 LW
N
1731 526.143 M
1723.07 526.143 L
S
GR
GS
[0.75 0 0 0.75 0 0.25] CT
0.149 GC
2 setlinecap
1 LJ
0.667 LW
N
1731 412.857 M
1723.07 412.857 L
S
GR
GS
[0.75 0 0 0.75 0 0.25] CT
0.149 GC
2 setlinecap
1 LJ
0.667 LW
N
1731 299.571 M
1723.07 299.571 L
S
GR
GS
[0.75 0 0 0.75 0 0.25] CT
0.149 GC
2 setlinecap
1 LJ
0.667 LW
N
1731 186.286 M
1723.07 186.286 L
S
GR
GS
[0.75 0 0 0.75 0 0.25] CT
0.149 GC
2 setlinecap
1 LJ
0.667 LW
N
1731 73 M
1723.07 73 L
S
GR
GS
[0.75 0 0 0.75 813 649.75] CT
0.149 GC
/Helvetica 26.667 F
GS
[1 0 0 1 0 0] CT
-53 9.5 moveto 
1 -1 scale
(-0.4) t 
GR
GR
GS
[0.75 0 0 0.75 813 564.78572] CT
0.149 GC
/Helvetica 26.667 F
GS
[1 0 0 1 0 0] CT
-53 9.5 moveto 
1 -1 scale
(-0.2) t 
GR
GR
GS
[0.75 0 0 0.75 813 479.82144] CT
0.149 GC
/Helvetica 26.667 F
GS
[1 0 0 1 0 0] CT
-18 9.5 moveto 
1 -1 scale
(0) t 
GR
GR
GS
[0.75 0 0 0.75 813 394.85716] CT
0.149 GC
/Helvetica 26.667 F
GS
[1 0 0 1 0 0] CT
-43 9.5 moveto 
1 -1 scale
(0.2) t 
GR
GR
GS
[0.75 0 0 0.75 813 309.89286] CT
0.149 GC
/Helvetica 26.667 F
GS
[1 0 0 1 0 0] CT
-43 9.5 moveto 
1 -1 scale
(0.4) t 
GR
GR
GS
[0.75 0 0 0.75 813 224.92856] CT
0.149 GC
/Helvetica 26.667 F
GS
[1 0 0 1 0 0] CT
-43 9.5 moveto 
1 -1 scale
(0.6) t 
GR
GR
GS
[0.75 0 0 0.75 813 139.96428] CT
0.149 GC
/Helvetica 26.667 F
GS
[1 0 0 1 0 0] CT
-43 9.5 moveto 
1 -1 scale
(0.8) t 
GR
GR
GS
[0.75 0 0 0.75 813 55] CT
0.149 GC
/Helvetica 26.667 F
GS
[1 0 0 1 0 0] CT
-18 9.5 moveto 
1 -1 scale
(1) t 
GR
GR
GS
[0 -0.75 0.75 0 770.25 352.37473] CT
0.149 GC
/Helvetica 29.333 F
GS
[1 0 0 1 0 0] CT
-22 -7 moveto 
1 -1 scale
(x,y) t 
GR
GR
GS
[0.75 0 0 0.75 1058.62601 50.87501] CT
/Helvetica-Bold 29.333 F
GS
[1 0 0 1 0 0] CT
-83.5 -7 moveto 
1 -1 scale
(Excitatory) t 
GR
GR
GS
[0.75 0 0 0.75 0 0.25] CT
0 0.447 0.741 RC
1 LJ
2.667 LW
N
1092 239.504 M
1092.002 239.314 L
1092.012 238.366 L
1092.061 233.65 L
1092.161 224.126 L
1092.316 209.965 L
1092.515 192.926 L
1092.761 174.106 L
1093.084 153.744 L
1093.669 128.863 L
1094.156 117.851 L
1094.643 112.58 L
1095.384 110.602 L
1096.504 113.679 L
1097.542 119.166 L
1099.212 128.757 L
1100.881 138.84 L
1102.713 150.071 L
1104.546 161.626 L
1106.577 174.879 L
1108.608 188.87 L
1111.117 207.529 L
1113.328 226.196 L
1116.025 253.856 L
1118.296 285.722 L
1119.687 313.545 L
1120.789 344.746 L
1121.643 379.112 L
1122.498 428.996 L
1123.207 489.284 L
1123.858 564.281 L
1124.179 607.288 L
1124.375 634.36 L
1124.571 661.203 L
1124.74 683.474 L
1124.954 709.926 L
1125.221 738.588 L
1125.577 768.292 L
1126.333 803.434 L
1127.089 813.567 L
1128.025 814.076 L
1128.905 810.829 L
1130.684 803.565 L
1132.11 797.3 L
1133.535 791.428 L
1135.81 782.279 L
1137.875 773.892 L
1139.866 766.189 L
1141.493 759.905 L
1143.12 753.778 L
1144.609 748.257 L
1146.509 741.379 L
1148.653 733.786 L
1150.949 725.847 L
1153.315 717.879 L
1155.699 710.074 L
1158.076 702.527 L
1160.372 695.457 L
1162.525 689.035 L
1164.473 683.405 L
1165.642 680.106 L
1166.812 676.876 L
1168.185 673.174 L
1169.976 668.501 L
1172.281 662.757 L
1173.675 659.427 L
1175.07 656.221 L
1176.756 652.523 L
1178.296 649.327 L
1179.541 646.879 L
1180.944 644.275 L
1182.8 641.112 L
1184.655 638.293 L
1186.767 635.549 L
1188.824 633.402 L
1190.778 631.886 L
1192.509 630.997 L
1194.24 630.55 L
1195.998 630.549 L
1197.435 630.878 L
1198.806 631.446 L
1200.596 632.518 L
1202.595 634.058 L
1204.399 635.643 L
1205.963 637.071 L
1207.642 638.569 L
1208.81 639.548 L
1209.979 640.446 L
1211.305 641.344 L
1213.194 642.366 L
1214.9 643.011 L
1216.168 643.322 L
1216.605 643.397 L
1217.879 643.525 L
1219.694 643.496 L
1221.592 643.241 L
1223.294 642.859 L
1224.742 642.449 L
1226.19 641.984 L
1227.9 641.393 L
1229.397 640.862 L
1230.917 640.33 L
1232.901 639.674 L
1234.338 639.241 L
1235.057 639.043 L
1235.775 638.857 L
1237.665 638.435 L
1239.605 638.112 L
1240.97 637.954 L
1242.335 637.854 L
1243.848 637.808 L
1245.36 637.827 L
1246.615 637.887 L
1247.87 637.982 L
1249.433 638.141 L
1251.378 638.389 L
1253.201 638.652 L
1254.689 638.876 L
1256.426 639.135 L
1258.225 639.387 L
1259.803 639.586 L
1261.225 639.742 L
1263.203 639.915 L
1265.091 640.031 L
1266.739 640.091 L
1268.178 640.115 L
1270.069 640.107 L
1271.487 640.076 L
1272.904 640.026 L
1274.546 639.951 L
1276.457 639.846 L
1277.863 639.762 L
1279.268 639.675 L
1280.857 639.577 L
1282.738 639.467 L
1284.078 639.396 L
1285.419 639.331 L
1287.203 639.26 L
1289.142 639.201 L
1290.56 639.171 L
1291.979 639.153 L
1293.583 639.145 L
1295.441 639.151 L
1296.765 639.165 L
1298.089 639.185 L
1299.85 639.22 L
1301.753 639.264 L
1303.021 639.296 L
1304.29 639.329 L
1305.946 639.372 L
1307.792 639.417 L
1309.448 639.453 L
1310.831 639.479 L
1312.817 639.51 L
1314.722 639.531 L
1316.401 639.542 L
1317.791 639.546 L
1319.683 639.546 L
1321.468 639.539 L
1322.909 639.53 L
1324.649 639.516 L
1326.551 639.498 L
1327.846 639.484 L
1329.14 639.47 L
1330.78 639.453 L
1332.638 639.434 L
1334.314 639.419 L
1335.695 639.408 L
1337.681 639.395 L
1339.589 639.386 L
1341.273 639.382 L
1342.657 639.38 L
1344.549 639.38 L
1346.332 639.383 L
1347.772 639.386 L
1349.501 639.392 L
1351.406 639.4 L
1352.714 639.405 L
1354.022 639.411 L
1355.661 639.419 L
1357.516 639.426 L
1359.187 639.433 L
1360.56 639.437 L
1362.543 639.443 L
1364.452 639.446 L
1366.139 639.448 L
1367.513 639.449 L
1369.407 639.449 L
1371.195 639.448 L
1372.645 639.446 L
1374.37 639.444 L
1376.275 639.441 L
1377.588 639.438 L
1378.901 639.436 L
1380.538 639.433 L
1382.394 639.43 L
1384.069 639.427 L
1385.442 639.425 L
1387.426 639.423 L
1389.335 639.421 L
1391.022 639.42 L
1392.397 639.42 L
1394.29 639.42 L
1396.077 639.421 L
1397.527 639.421 L
1399.25 639.422 L
1401.156 639.424 L
1402.47 639.425 L
1403.785 639.426 L
1405.422 639.427 L
1407.277 639.428 L
1408.951 639.429 L
1410.323 639.43 L
1412.305 639.431 L
1414.214 639.432 L
1415.902 639.432 L
1417.275 639.432 L
1419.169 639.432 L
1420.957 639.432 L
1422.408 639.432 L
1424.131 639.431 L
1426.036 639.431 L
1427.352 639.43 L
1428.667 639.43 L
1430.304 639.429 L
1432.16 639.429 L
1433.834 639.428 L
1435.206 639.428 L
1437.188 639.428 L
1439.097 639.427 L
1440.786 639.427 L
1442.158 639.427 L
1444.052 639.427 L
1445.84 639.427 L
1447.291 639.427 L
1449.013 639.427 L
1450.919 639.428 L
1452.235 639.428 L
1453.551 639.428 L
1455.188 639.428 L
1457.043 639.429 L
1458.718 639.429 L
1460.089 639.429 L
1462.071 639.429 L
1463.98 639.429 L
1465.668 639.429 L
1467.04 639.429 L
1468.934 639.429 L
1470.722 639.429 L
1472.174 639.429 L
1473.896 639.429 L
1475.802 639.429 L
1477.118 639.429 L
1478.434 639.429 L
1480.071 639.429 L
1481.927 639.429 L
1483.601 639.429 L
1484.972 639.428 L
1486.954 639.428 L
1488.864 639.428 L
1490.552 639.428 L
1491.924 639.428 L
1493.818 639.428 L
1495.606 639.428 L
1497.058 639.428 L
1498.779 639.428 L
1500.685 639.428 L
1502.002 639.428 L
1503.318 639.428 L
1504.954 639.429 L
1506.81 639.429 L
1508.485 639.429 L
1509.856 639.429 L
1511.838 639.429 L
1513.747 639.429 L
1515.435 639.429 L
1516.807 639.429 L
1518.701 639.429 L
1520.489 639.429 L
1521.941 639.429 L
1523.663 639.429 L
1525.569 639.429 L
1526.885 639.429 L
1528.201 639.429 L
1529.838 639.429 L
1531.694 639.429 L
1533.368 639.429 L
1534.739 639.429 L
1536.721 639.429 L
1538.63 639.429 L
1540.319 639.429 L
1541.691 639.429 L
1543.585 639.429 L
1545.373 639.429 L
1546.825 639.429 L
1548.546 639.429 L
1550.452 639.429 L
1551.769 639.429 L
1553.085 639.429 L
1554.721 639.429 L
1556.577 639.429 L
1558.252 639.429 L
1559.623 639.429 L
1561.604 639.429 L
1563.514 639.429 L
1565.203 639.429 L
1566.574 639.429 L
1568.468 639.429 L
1570.256 639.429 L
1571.708 639.429 L
1573.43 639.429 L
1575.336 639.429 L
1576.652 639.429 L
1577.968 639.429 L
1579.605 639.429 L
1581.461 639.429 L
1583.135 639.429 L
1584.506 639.429 L
1586.488 639.429 L
1588.398 639.429 L
1590.086 639.429 L
1591.458 639.429 L
1593.352 639.429 L
1595.14 639.429 L
1596.592 639.429 L
1598.314 639.429 L
1600.22 639.429 L
1601.536 639.429 L
1602.852 639.429 L
1604.489 639.429 L
1606.345 639.429 L
1608.019 639.429 L
1609.39 639.429 L
1611.372 639.429 L
1613.281 639.429 L
1614.97 639.429 L
1616.341 639.429 L
1618.235 639.429 L
1620.023 639.429 L
1621.475 639.429 L
1623.197 639.429 L
1625.103 639.429 L
1626.419 639.429 L
1627.736 639.429 L
1629.372 639.429 L
1631.228 639.429 L
1632.903 639.429 L
1634.274 639.429 L
1636.255 639.429 L
1638.165 639.429 L
1639.853 639.429 L
1641.225 639.429 L
1643.119 639.429 L
1644.907 639.429 L
1646.359 639.429 L
1648.081 639.429 L
1649.987 639.429 L
1651.303 639.429 L
1652.619 639.429 L
1654.256 639.429 L
1656.112 639.429 L
1657.786 639.429 L
1659.157 639.429 L
1661.139 639.429 L
1663.048 639.429 L
1664.737 639.429 L
1666.109 639.429 L
1668.003 639.429 L
1669.791 639.429 L
1671.243 639.429 L
1672.964 639.429 L
1674.87 639.429 L
1676.187 639.429 L
1677.503 639.429 L
1679.14 639.429 L
1680.995 639.429 L
1682.67 639.429 L
1684.041 639.429 L
1686.023 639.429 L
1687.932 639.429 L
1689.62 639.429 L
1690.992 639.429 L
1692.886 639.429 L
1694.674 639.429 L
1696.126 639.429 L
1697.848 639.429 L
1699.754 639.429 L
1701.07 639.429 L
1702.386 639.429 L
1704.023 639.429 L
1705.879 639.429 L
1707.553 639.429 L
1708.925 639.429 L
1710.906 639.429 L
1712.816 639.429 L
1714.504 639.429 L
1715.876 639.429 L
1717.77 639.429 L
1719.558 639.429 L
1721.01 639.429 L
1722.732 639.429 L
1724.638 639.429 L
1725.954 639.429 L
1727.27 639.429 L
1728.907 639.429 L
1729.953 639.429 L
1731 639.429 L
S
GR
GS
[0.75 0 0 0.75 0 0.25] CT
0.851 0.325 0.098 RC
1 LJ
2.667 LW
N
1092 621.398 M
1092.002 621.391 L
1092.012 621.356 L
1092.061 621.183 L
1092.161 620.82 L
1092.316 620.245 L
1092.515 619.476 L
1092.761 618.487 L
1093.084 617.138 L
1093.669 614.592 L
1094.156 612.422 L
1094.643 610.245 L
1095.384 606.968 L
1096.504 602.167 L
1097.542 597.907 L
1099.212 591.469 L
1100.881 585.521 L
1102.713 579.534 L
1104.546 574.089 L
1106.577 568.656 L
1108.608 563.831 L
1111.117 558.684 L
1113.328 554.874 L
1116.025 551.175 L
1118.296 548.947 L
1119.687 548.073 L
1120.789 547.73 L
1121.643 547.754 L
1122.498 548.133 L
1123.207 548.835 L
1123.858 549.911 L
1124.179 550.63 L
1124.375 551.136 L
1124.571 551.693 L
1124.74 552.211 L
1124.954 552.92 L
1125.221 553.871 L
1125.577 555.233 L
1126.333 558.322 L
1127.089 561.505 L
1128.025 565.393 L
1128.905 568.937 L
1130.684 575.714 L
1132.11 580.784 L
1133.535 585.545 L
1135.81 592.547 L
1137.875 598.308 L
1139.866 603.362 L
1141.493 607.153 L
1143.12 610.654 L
1144.609 613.62 L
1146.509 617.092 L
1148.653 620.615 L
1150.949 623.96 L
1153.315 626.979 L
1155.699 629.618 L
1158.076 631.881 L
1160.372 633.748 L
1162.525 635.238 L
1164.473 636.387 L
1165.642 636.992 L
1166.812 637.537 L
1168.185 638.105 L
1169.976 638.734 L
1172.281 639.375 L
1173.675 639.678 L
1175.07 639.924 L
1176.756 640.148 L
1178.296 640.29 L
1179.541 640.365 L
1180.944 640.41 L
1182.8 640.414 L
1184.655 640.363 L
1186.767 640.249 L
1188.824 640.096 L
1190.778 639.924 L
1192.509 639.76 L
1194.24 639.593 L
1195.998 639.429 L
1197.435 639.303 L
1198.806 639.195 L
1200.596 639.075 L
1202.595 638.975 L
1204.399 638.918 L
1205.963 638.895 L
1207.642 638.896 L
1208.81 638.91 L
1209.979 638.936 L
1211.305 638.976 L
1213.194 639.048 L
1214.9 639.123 L
1216.168 639.182 L
1216.605 639.203 L
1217.879 639.264 L
1219.694 639.346 L
1221.592 639.426 L
1223.294 639.487 L
1224.742 639.531 L
1226.19 639.567 L
1227.9 639.598 L
1229.397 639.616 L
1230.917 639.625 L
1232.901 639.624 L
1234.338 639.615 L
1235.057 639.609 L
1235.775 639.602 L
1237.665 639.577 L
1239.605 639.546 L
1240.97 639.522 L
1242.335 639.497 L
1243.848 639.47 L
1245.36 639.443 L
1246.615 639.423 L
1247.87 639.405 L
1249.433 639.384 L
1251.378 639.365 L
1253.201 639.352 L
1254.689 639.345 L
1256.426 639.342 L
1258.225 639.344 L
1259.803 639.349 L
1261.225 639.356 L
1263.203 639.368 L
1265.091 639.382 L
1266.739 639.395 L
1268.178 639.406 L
1270.069 639.42 L
1271.487 639.43 L
1272.904 639.439 L
1274.546 639.447 L
1276.457 639.455 L
1277.863 639.459 L
1279.268 639.462 L
1280.857 639.464 L
1282.738 639.463 L
1284.078 639.462 L
1285.419 639.46 L
1287.203 639.456 L
1289.142 639.45 L
1290.56 639.446 L
1291.979 639.441 L
1293.583 639.436 L
1295.441 639.43 L
1296.765 639.427 L
1298.089 639.424 L
1299.85 639.42 L
1301.753 639.417 L
1303.021 639.415 L
1304.29 639.414 L
1305.946 639.414 L
1307.792 639.414 L
1309.448 639.415 L
1310.831 639.416 L
1312.817 639.418 L
1314.722 639.42 L
1316.401 639.423 L
1317.791 639.424 L
1319.683 639.427 L
1321.468 639.429 L
1322.909 639.431 L
1324.649 639.432 L
1326.551 639.433 L
1327.846 639.434 L
1329.14 639.434 L
1330.78 639.435 L
1332.638 639.435 L
1334.314 639.434 L
1335.695 639.434 L
1337.681 639.433 L
1339.589 639.432 L
1341.273 639.431 L
1342.657 639.43 L
1344.549 639.429 L
1346.332 639.428 L
1347.772 639.428 L
1349.501 639.427 L
1351.406 639.427 L
1352.714 639.426 L
1354.022 639.426 L
1355.661 639.426 L
1357.516 639.426 L
1359.187 639.426 L
1360.56 639.426 L
1362.543 639.427 L
1364.452 639.427 L
1366.139 639.428 L
1367.513 639.428 L
1369.407 639.428 L
1371.195 639.429 L
1372.645 639.429 L
1374.37 639.429 L
1376.275 639.429 L
1377.588 639.43 L
1378.901 639.43 L
1380.538 639.43 L
1382.394 639.43 L
1384.069 639.43 L
1385.442 639.43 L
1387.426 639.429 L
1389.335 639.429 L
1391.022 639.429 L
1392.397 639.429 L
1394.29 639.429 L
1396.077 639.429 L
1397.527 639.428 L
1399.25 639.428 L
1401.156 639.428 L
1402.47 639.428 L
1403.785 639.428 L
1405.422 639.428 L
1407.277 639.428 L
1408.951 639.428 L
1410.323 639.428 L
1412.305 639.428 L
1414.214 639.428 L
1415.902 639.428 L
1417.275 639.428 L
1419.169 639.429 L
1420.957 639.429 L
1422.408 639.429 L
1424.131 639.429 L
1426.036 639.429 L
1427.352 639.429 L
1428.667 639.429 L
1430.304 639.429 L
1432.16 639.429 L
1433.834 639.429 L
1435.206 639.429 L
1437.188 639.429 L
1439.097 639.429 L
1440.786 639.429 L
1442.158 639.429 L
1444.052 639.429 L
1445.84 639.429 L
1447.291 639.429 L
1449.013 639.429 L
1450.919 639.429 L
1452.235 639.429 L
1453.551 639.429 L
1455.188 639.428 L
1457.043 639.428 L
1458.718 639.429 L
1460.089 639.429 L
1462.071 639.429 L
1463.98 639.429 L
1465.668 639.429 L
1467.04 639.429 L
1468.934 639.429 L
1470.722 639.429 L
1472.174 639.429 L
1473.896 639.429 L
1475.802 639.429 L
1477.118 639.429 L
1478.434 639.429 L
1480.071 639.429 L
1481.927 639.429 L
1483.601 639.429 L
1484.972 639.429 L
1486.954 639.429 L
1488.864 639.429 L
1490.552 639.429 L
1491.924 639.429 L
1493.818 639.429 L
1495.606 639.429 L
1497.058 639.429 L
1498.779 639.429 L
1500.685 639.429 L
1502.002 639.429 L
1503.318 639.429 L
1504.954 639.429 L
1506.81 639.429 L
1508.485 639.429 L
1509.856 639.429 L
1511.838 639.429 L
1513.747 639.429 L
1515.435 639.429 L
1516.807 639.429 L
1518.701 639.429 L
1520.489 639.429 L
1521.941 639.429 L
1523.663 639.429 L
1525.569 639.429 L
1526.885 639.429 L
1528.201 639.429 L
1529.838 639.429 L
1531.694 639.429 L
1533.368 639.429 L
1534.739 639.429 L
1536.721 639.429 L
1538.63 639.429 L
1540.319 639.429 L
1541.691 639.429 L
1543.585 639.429 L
1545.373 639.429 L
1546.825 639.429 L
1548.546 639.429 L
1550.452 639.429 L
1551.769 639.429 L
1553.085 639.429 L
1554.721 639.429 L
1556.577 639.429 L
1558.252 639.429 L
1559.623 639.429 L
1561.604 639.429 L
1563.514 639.429 L
1565.203 639.429 L
1566.574 639.429 L
1568.468 639.429 L
1570.256 639.429 L
1571.708 639.429 L
1573.43 639.429 L
1575.336 639.429 L
1576.652 639.429 L
1577.968 639.429 L
1579.605 639.429 L
1581.461 639.429 L
1583.135 639.429 L
1584.506 639.429 L
1586.488 639.429 L
1588.398 639.429 L
1590.086 639.429 L
1591.458 639.429 L
1593.352 639.429 L
1595.14 639.429 L
1596.592 639.429 L
1598.314 639.429 L
1600.22 639.429 L
1601.536 639.429 L
1602.852 639.429 L
1604.489 639.429 L
1606.345 639.429 L
1608.019 639.429 L
1609.39 639.429 L
1611.372 639.429 L
1613.281 639.429 L
1614.97 639.429 L
1616.341 639.429 L
1618.235 639.429 L
1620.023 639.429 L
1621.475 639.429 L
1623.197 639.429 L
1625.103 639.429 L
1626.419 639.429 L
1627.736 639.429 L
1629.372 639.429 L
1631.228 639.429 L
1632.903 639.429 L
1634.274 639.429 L
1636.255 639.429 L
1638.165 639.429 L
1639.853 639.429 L
1641.225 639.429 L
1643.119 639.429 L
1644.907 639.429 L
1646.359 639.429 L
1648.081 639.429 L
1649.987 639.429 L
1651.303 639.429 L
1652.619 639.429 L
1654.256 639.429 L
1656.112 639.429 L
1657.786 639.429 L
1659.157 639.429 L
1661.139 639.429 L
1663.048 639.429 L
1664.737 639.429 L
1666.109 639.429 L
1668.003 639.429 L
1669.791 639.429 L
1671.243 639.429 L
1672.964 639.429 L
1674.87 639.429 L
1676.187 639.429 L
1677.503 639.429 L
1679.14 639.429 L
1680.995 639.429 L
1682.67 639.429 L
1684.041 639.429 L
1686.023 639.429 L
1687.932 639.429 L
1689.62 639.429 L
1690.992 639.429 L
1692.886 639.429 L
1694.674 639.429 L
1696.126 639.429 L
1697.848 639.429 L
1699.754 639.429 L
1701.07 639.429 L
1702.386 639.429 L
1704.023 639.429 L
1705.879 639.429 L
1707.553 639.429 L
1708.925 639.429 L
1710.906 639.429 L
1712.816 639.429 L
1714.504 639.429 L
1715.876 639.429 L
1717.77 639.429 L
1719.558 639.429 L
1721.01 639.429 L
1722.732 639.429 L
1724.638 639.429 L
1725.954 639.429 L
1727.27 639.429 L
1728.907 639.429 L
1729.953 639.429 L
1731 639.429 L
S
GR
%%Trailer
%%Pages: 1
%%EOF
